﻿
DisplayName "Grangold"



EVENT   1
 PAGE   1
  0()



EVENT   2
 PAGE   1
  0()



EVENT   3
 PAGE   1
  0()



EVENT   4
 PAGE   1
  0()



EVENT   5
 PAGE   1
  ShowMessageFace("",0,0,2,1)
  ShowMessage("\\n<Soldier>あへ……あへぇぇぇ……")
  0()
 PAGE   2
  // condition: variable 1063 >= 12
  0()
 PAGE   3
  // condition: variable 1063 >= 13
  If(1,1001,0,28,2)
   ShowMessageFace("",0,0,2,1)
   ShowMessage("\\n<Guard>グランゴルド城は、外壁を残して陥落状態です。")
   ShowMessage("今の情勢では、再建はいつの事になるやら……")
   0()
  EndIf()
  If(1,1001,0,29,1)
   ShowMessageFace("",0,0,2,2)
   ShowMessage("\\n<Guard>なんとか城内入り口付近の瓦礫を除去し、中に入れるようになりました。")
   ShowMessage("以前の不気味な内装のまま、手つかずの状態ですがね……")
   0()
  EndIf()
  0()



EVENT   6
 PAGE   1
  If(1,1063,0,12,2)
   ShowMessageFace("",0,0,2,1)
   ShowMessage("施錠されている……")
   EndEventProcessing()
   0()
  EndIf()
  If(1,1063,0,13,1)
   250(bytes(0x04,0x08,0x6f,0x3a,0x0c,0x52,0x50,0x47,0x3a,0x3a,0x53,0x45,0x08,0x3a,0x0a,0x40,0x6e,0x61,0x6d,0x65,0x49,0x22,0x0a,0x4f,0x70,0x65,0x6e,0x31,0x06,0x3a,0x06,0x45,0x54,0x3a,0x0b,0x40,0x70,0x69,0x74,0x63,0x68,0x69,0x69,0x3a,0x0c,0x40,0x76,0x6f,0x6c,0x75,0x6d,0x65,0x69,0x55))
   205(0,bytes(0x04,0x08,0x6f,0x3a,0x13,0x52,0x50,0x47,0x3a,0x3a,0x4d,0x6f,0x76,0x65,0x52,0x6f,0x75,0x74,0x65,0x09,0x3a,0x0c,0x40,0x72,0x65,0x70,0x65,0x61,0x74,0x46,0x3a,0x0f,0x40,0x73,0x6b,0x69,0x70,0x70,0x61,0x62,0x6c,0x65,0x46,0x3a,0x0a,0x40,0x77,0x61,0x69,0x74,0x54,0x3a,0x0a,0x40,0x6c,0x69,0x73,0x74,0x5b,0x0c,0x6f,0x3a,0x15,0x52,0x50,0x47,0x3a,0x3a,0x4d,0x6f,0x76,0x65,0x43,0x6f,0x6d,0x6d,0x61,0x6e,0x64,0x07,0x3a,0x0a,0x40,0x63,0x6f,0x64,0x65,0x69,0x16,0x3a,0x10,0x40,0x70,0x61,0x72,0x61,0x6d,0x65,0x74,0x65,0x72,0x73,0x5b,0x00,0x6f,0x3b,0x0a,0x07,0x3b,0x0b,0x69,0x14,0x3b,0x0c,0x5b,0x06,0x69,0x08,0x6f,0x3b,0x0a,0x07,0x3b,0x0b,0x69,0x17,0x3b,0x0c,0x5b,0x00,0x6f,0x3b,0x0a,0x07,0x3b,0x0b,0x69,0x14,0x3b,0x0c,0x5b,0x06,0x69,0x08,0x6f,0x3b,0x0a,0x07,0x3b,0x0b,0x69,0x18,0x3b,0x0c,0x5b,0x00,0x6f,0x3b,0x0a,0x07,0x3b,0x0b,0x69,0x2a,0x3b,0x0c,0x5b,0x00,0x6f,0x3b,0x0a,0x07,0x3b,0x0b,0x69,0x00,0x3b,0x0c,0x5b,0x00))
   205(-1,bytes(0x04,0x08,0x6f,0x3a,0x13,0x52,0x50,0x47,0x3a,0x3a,0x4d,0x6f,0x76,0x65,0x52,0x6f,0x75,0x74,0x65,0x09,0x3a,0x0c,0x40,0x72,0x65,0x70,0x65,0x61,0x74,0x46,0x3a,0x0f,0x40,0x73,0x6b,0x69,0x70,0x70,0x61,0x62,0x6c,0x65,0x54,0x3a,0x0a,0x40,0x77,0x61,0x69,0x74,0x54,0x3a,0x0a,0x40,0x6c,0x69,0x73,0x74,0x5b,0x07,0x6f,0x3a,0x15,0x52,0x50,0x47,0x3a,0x3a,0x4d,0x6f,0x76,0x65,0x43,0x6f,0x6d,0x6d,0x61,0x6e,0x64,0x07,0x3a,0x0a,0x40,0x63,0x6f,0x64,0x65,0x69,0x11,0x3a,0x10,0x40,0x70,0x61,0x72,0x61,0x6d,0x65,0x74,0x65,0x72,0x73,0x5b,0x00,0x6f,0x3b,0x0a,0x07,0x3b,0x0b,0x69,0x00,0x3b,0x0c,0x5b,0x00))
   250(bytes(0x04,0x08,0x6f,0x3a,0x0c,0x52,0x50,0x47,0x3a,0x3a,0x53,0x45,0x08,0x3a,0x0a,0x40,0x6e,0x61,0x6d,0x65,0x49,0x22,0x09,0x4d,0x6f,0x76,0x65,0x06,0x3a,0x06,0x45,0x54,0x3a,0x0b,0x40,0x70,0x69,0x74,0x63,0x68,0x69,0x69,0x3a,0x0c,0x40,0x76,0x6f,0x6c,0x75,0x6d,0x65,0x69,0x55))
   TeleportPlayer(0,38,67,61,0,0)
   241(bytes(0x04,0x08,0x6f,0x3a,0x0d,0x52,0x50,0x47,0x3a,0x3a,0x42,0x47,0x4d,0x08,0x3a,0x0a,0x40,0x6e,0x61,0x6d,0x65,0x49,0x22,0x0c,0x63,0x61,0x73,0x74,0x6c,0x65,0x34,0x06,0x3a,0x06,0x45,0x54,0x3a,0x0c,0x40,0x76,0x6f,0x6c,0x75,0x6d,0x65,0x69,0x69,0x3a,0x0b,0x40,0x70,0x69,0x74,0x63,0x68,0x69,0x69))
   EndEventProcessing()
   0()
  EndIf()
  0()



EVENT   7
 PAGE   1
  ShowMessageFace("",0,0,2,1)
  ShowMessage("\\n<Soldier>王妃様……王妃様ぁぁぁ……")
  0()
 PAGE   2
  // condition: variable 1063 >= 12
  0()
 PAGE   3
  // condition: variable 1063 >= 13
  If(1,1001,0,28,2)
   ScrollMap(6,15,6)
   ScrollMap(2,5,6)
   ShowMessageFace("",0,0,2,1)
   ShowMessage("\\n<Guard>臨時王宮は、あちらの倉庫になります。")
   ShowMessage("陛下に謁見の際は、そちらにどうぞ。")
   ScrollMap(8,5,6)
   ScrollMap(4,15,6)
   0()
  EndIf()
  If(1,1001,0,29,1)
   ShowMessageFace("",0,0,2,2)
   ShowMessage("\\n<Guard>城内入り口付近の瓦礫を除去し、中に入れるようになりましたが……")
   ShowMessage("なんと、まだ中にはゴーレムや狐族が巣くっているようですね。")
   ScrollMap(6,15,6)
   ScrollMap(2,5,6)
   ShowMessageFace("",0,0,2,3)
   ShowMessage("\\n<Guard>臨時王宮は、あちらの倉庫になります。")
   ShowMessage("陛下に謁見の際は、そちらにどうぞ。")
   ScrollMap(8,5,6)
   ScrollMap(4,15,6)
   0()
  EndIf()
  0()



EVENT   8
 PAGE   1
  0()



EVENT   9
 PAGE   1
  If(1,1001,0,28,2)
   If(1,1063,0,12,2)
    ShowMessageFace("",0,0,2,1)
    ShowMessage("衛兵は、こちらに目もくれない……")
    ShowMessage("……が、扉は完全に閉ざされているようだ。")
    EndEventProcessing()
    0()
   EndIf()
   If(1,1063,0,13,1)
    ShowMessageFace("",0,0,2,2)
    ShowMessage("扉は閉ざされている……")
    ShowMessage("……というよりも、内側に瓦礫が積もっているようだ。")
    ShowMessageFace("",0,0,2,3)
    ShowMessage("\\n<Guard>グランゴルド城は、外壁を残して陥落状態です。")
    ShowMessage("今の情勢では、再建はいつの事になるやら……")
    ScrollMap(6,17,6)
    ScrollMap(2,6,6)
    ShowMessageFace("",0,0,2,4)
    ShowMessage("\\n<Guard>臨時王宮は、あちらの倉庫になります。")
    ShowMessage("陛下に謁見の際は、そちらにどうぞ。")
    ScrollMap(8,6,6)
    ScrollMap(4,17,6)
    EndEventProcessing()
    0()
   EndIf()
   0()
  EndIf()
  If(1,1001,0,29,1)
   250(bytes(0x04,0x08,0x6f,0x3a,0x0c,0x52,0x50,0x47,0x3a,0x3a,0x53,0x45,0x08,0x3a,0x0a,0x40,0x6e,0x61,0x6d,0x65,0x49,0x22,0x0b,0x45,0x61,0x72,0x74,0x68,0x34,0x06,0x3a,0x06,0x45,0x54,0x3a,0x0b,0x40,0x70,0x69,0x74,0x63,0x68,0x69,0x69,0x3a,0x0c,0x40,0x76,0x6f,0x6c,0x75,0x6d,0x65,0x69,0x55))
   205(0,bytes(0x04,0x08,0x6f,0x3a,0x13,0x52,0x50,0x47,0x3a,0x3a,0x4d,0x6f,0x76,0x65,0x52,0x6f,0x75,0x74,0x65,0x09,0x3a,0x0c,0x40,0x72,0x65,0x70,0x65,0x61,0x74,0x46,0x3a,0x0f,0x40,0x73,0x6b,0x69,0x70,0x70,0x61,0x62,0x6c,0x65,0x46,0x3a,0x0a,0x40,0x77,0x61,0x69,0x74,0x54,0x3a,0x0a,0x40,0x6c,0x69,0x73,0x74,0x5b,0x0c,0x6f,0x3a,0x15,0x52,0x50,0x47,0x3a,0x3a,0x4d,0x6f,0x76,0x65,0x43,0x6f,0x6d,0x6d,0x61,0x6e,0x64,0x07,0x3a,0x0a,0x40,0x63,0x6f,0x64,0x65,0x69,0x16,0x3a,0x10,0x40,0x70,0x61,0x72,0x61,0x6d,0x65,0x74,0x65,0x72,0x73,0x5b,0x00,0x6f,0x3b,0x0a,0x07,0x3b,0x0b,0x69,0x14,0x3b,0x0c,0x5b,0x06,0x69,0x08,0x6f,0x3b,0x0a,0x07,0x3b,0x0b,0x69,0x17,0x3b,0x0c,0x5b,0x00,0x6f,0x3b,0x0a,0x07,0x3b,0x0b,0x69,0x14,0x3b,0x0c,0x5b,0x06,0x69,0x08,0x6f,0x3b,0x0a,0x07,0x3b,0x0b,0x69,0x18,0x3b,0x0c,0x5b,0x00,0x6f,0x3b,0x0a,0x07,0x3b,0x0b,0x69,0x2a,0x3b,0x0c,0x5b,0x00,0x6f,0x3b,0x0a,0x07,0x3b,0x0b,0x69,0x00,0x3b,0x0c,0x5b,0x00))
   205(-1,bytes(0x04,0x08,0x6f,0x3a,0x13,0x52,0x50,0x47,0x3a,0x3a,0x4d,0x6f,0x76,0x65,0x52,0x6f,0x75,0x74,0x65,0x09,0x3a,0x0c,0x40,0x72,0x65,0x70,0x65,0x61,0x74,0x46,0x3a,0x0f,0x40,0x73,0x6b,0x69,0x70,0x70,0x61,0x62,0x6c,0x65,0x54,0x3a,0x0a,0x40,0x77,0x61,0x69,0x74,0x54,0x3a,0x0a,0x40,0x6c,0x69,0x73,0x74,0x5b,0x07,0x6f,0x3a,0x15,0x52,0x50,0x47,0x3a,0x3a,0x4d,0x6f,0x76,0x65,0x43,0x6f,0x6d,0x6d,0x61,0x6e,0x64,0x07,0x3a,0x0a,0x40,0x63,0x6f,0x64,0x65,0x69,0x11,0x3a,0x10,0x40,0x70,0x61,0x72,0x61,0x6d,0x65,0x74,0x65,0x72,0x73,0x5b,0x00,0x6f,0x3b,0x0a,0x07,0x3b,0x0b,0x69,0x00,0x3b,0x0c,0x5b,0x00))
   250(bytes(0x04,0x08,0x6f,0x3a,0x0c,0x52,0x50,0x47,0x3a,0x3a,0x53,0x45,0x08,0x3a,0x0a,0x40,0x6e,0x61,0x6d,0x65,0x49,0x22,0x09,0x4d,0x6f,0x76,0x65,0x06,0x3a,0x06,0x45,0x54,0x3a,0x0b,0x40,0x70,0x69,0x74,0x63,0x68,0x69,0x69,0x3a,0x0c,0x40,0x76,0x6f,0x6c,0x75,0x6d,0x65,0x69,0x55))
   TeleportPlayer(0,176,30,52,0,0)
   ChangeSwitch(100,100,0)
   EndEventProcessing()
   0()
  EndIf()
  0()
 PAGE   2
  // condition: switch 2270 is ON
  0()



EVENT   10
 PAGE   1
  250(bytes(0x04,0x08,0x6f,0x3a,0x0c,0x52,0x50,0x47,0x3a,0x3a,0x53,0x45,0x08,0x3a,0x0a,0x40,0x6e,0x61,0x6d,0x65,0x49,0x22,0x0a,0x4f,0x70,0x65,0x6e,0x31,0x06,0x3a,0x06,0x45,0x54,0x3a,0x0b,0x40,0x70,0x69,0x74,0x63,0x68,0x69,0x69,0x3a,0x0c,0x40,0x76,0x6f,0x6c,0x75,0x6d,0x65,0x69,0x55))
  205(0,bytes(0x04,0x08,0x6f,0x3a,0x13,0x52,0x50,0x47,0x3a,0x3a,0x4d,0x6f,0x76,0x65,0x52,0x6f,0x75,0x74,0x65,0x09,0x3a,0x0c,0x40,0x72,0x65,0x70,0x65,0x61,0x74,0x46,0x3a,0x0f,0x40,0x73,0x6b,0x69,0x70,0x70,0x61,0x62,0x6c,0x65,0x46,0x3a,0x0a,0x40,0x77,0x61,0x69,0x74,0x54,0x3a,0x0a,0x40,0x6c,0x69,0x73,0x74,0x5b,0x0c,0x6f,0x3a,0x15,0x52,0x50,0x47,0x3a,0x3a,0x4d,0x6f,0x76,0x65,0x43,0x6f,0x6d,0x6d,0x61,0x6e,0x64,0x07,0x3a,0x0a,0x40,0x63,0x6f,0x64,0x65,0x69,0x16,0x3a,0x10,0x40,0x70,0x61,0x72,0x61,0x6d,0x65,0x74,0x65,0x72,0x73,0x5b,0x00,0x6f,0x3b,0x0a,0x07,0x3b,0x0b,0x69,0x14,0x3b,0x0c,0x5b,0x06,0x69,0x08,0x6f,0x3b,0x0a,0x07,0x3b,0x0b,0x69,0x17,0x3b,0x0c,0x5b,0x00,0x6f,0x3b,0x0a,0x07,0x3b,0x0b,0x69,0x14,0x3b,0x0c,0x5b,0x06,0x69,0x08,0x6f,0x3b,0x0a,0x07,0x3b,0x0b,0x69,0x18,0x3b,0x0c,0x5b,0x00,0x6f,0x3b,0x0a,0x07,0x3b,0x0b,0x69,0x2a,0x3b,0x0c,0x5b,0x00,0x6f,0x3b,0x0a,0x07,0x3b,0x0b,0x69,0x00,0x3b,0x0c,0x5b,0x00))
  205(-1,bytes(0x04,0x08,0x6f,0x3a,0x13,0x52,0x50,0x47,0x3a,0x3a,0x4d,0x6f,0x76,0x65,0x52,0x6f,0x75,0x74,0x65,0x09,0x3a,0x0c,0x40,0x72,0x65,0x70,0x65,0x61,0x74,0x46,0x3a,0x0f,0x40,0x73,0x6b,0x69,0x70,0x70,0x61,0x62,0x6c,0x65,0x54,0x3a,0x0a,0x40,0x77,0x61,0x69,0x74,0x54,0x3a,0x0a,0x40,0x6c,0x69,0x73,0x74,0x5b,0x07,0x6f,0x3a,0x15,0x52,0x50,0x47,0x3a,0x3a,0x4d,0x6f,0x76,0x65,0x43,0x6f,0x6d,0x6d,0x61,0x6e,0x64,0x07,0x3a,0x0a,0x40,0x63,0x6f,0x64,0x65,0x69,0x11,0x3a,0x10,0x40,0x70,0x61,0x72,0x61,0x6d,0x65,0x74,0x65,0x72,0x73,0x5b,0x00,0x6f,0x3b,0x0a,0x07,0x3b,0x0b,0x69,0x00,0x3b,0x0c,0x5b,0x00))
  250(bytes(0x04,0x08,0x6f,0x3a,0x0c,0x52,0x50,0x47,0x3a,0x3a,0x53,0x45,0x08,0x3a,0x0a,0x40,0x6e,0x61,0x6d,0x65,0x49,0x22,0x09,0x4d,0x6f,0x76,0x65,0x06,0x3a,0x06,0x45,0x54,0x3a,0x0b,0x40,0x70,0x69,0x74,0x63,0x68,0x69,0x69,0x3a,0x0c,0x40,0x76,0x6f,0x6c,0x75,0x6d,0x65,0x69,0x55))
  TeleportPlayer(0,38,11,14,0,0)
  0()



EVENT   11
 PAGE   1
  250(bytes(0x04,0x08,0x6f,0x3a,0x0c,0x52,0x50,0x47,0x3a,0x3a,0x53,0x45,0x08,0x3a,0x0a,0x40,0x6e,0x61,0x6d,0x65,0x49,0x22,0x0a,0x4f,0x70,0x65,0x6e,0x31,0x06,0x3a,0x06,0x45,0x54,0x3a,0x0b,0x40,0x70,0x69,0x74,0x63,0x68,0x69,0x69,0x3a,0x0c,0x40,0x76,0x6f,0x6c,0x75,0x6d,0x65,0x69,0x55))
  205(0,bytes(0x04,0x08,0x6f,0x3a,0x13,0x52,0x50,0x47,0x3a,0x3a,0x4d,0x6f,0x76,0x65,0x52,0x6f,0x75,0x74,0x65,0x09,0x3a,0x0c,0x40,0x72,0x65,0x70,0x65,0x61,0x74,0x46,0x3a,0x0f,0x40,0x73,0x6b,0x69,0x70,0x70,0x61,0x62,0x6c,0x65,0x46,0x3a,0x0a,0x40,0x77,0x61,0x69,0x74,0x54,0x3a,0x0a,0x40,0x6c,0x69,0x73,0x74,0x5b,0x0c,0x6f,0x3a,0x15,0x52,0x50,0x47,0x3a,0x3a,0x4d,0x6f,0x76,0x65,0x43,0x6f,0x6d,0x6d,0x61,0x6e,0x64,0x07,0x3a,0x0a,0x40,0x63,0x6f,0x64,0x65,0x69,0x16,0x3a,0x10,0x40,0x70,0x61,0x72,0x61,0x6d,0x65,0x74,0x65,0x72,0x73,0x5b,0x00,0x6f,0x3b,0x0a,0x07,0x3b,0x0b,0x69,0x14,0x3b,0x0c,0x5b,0x06,0x69,0x08,0x6f,0x3b,0x0a,0x07,0x3b,0x0b,0x69,0x17,0x3b,0x0c,0x5b,0x00,0x6f,0x3b,0x0a,0x07,0x3b,0x0b,0x69,0x14,0x3b,0x0c,0x5b,0x06,0x69,0x08,0x6f,0x3b,0x0a,0x07,0x3b,0x0b,0x69,0x18,0x3b,0x0c,0x5b,0x00,0x6f,0x3b,0x0a,0x07,0x3b,0x0b,0x69,0x2a,0x3b,0x0c,0x5b,0x00,0x6f,0x3b,0x0a,0x07,0x3b,0x0b,0x69,0x00,0x3b,0x0c,0x5b,0x00))
  205(-1,bytes(0x04,0x08,0x6f,0x3a,0x13,0x52,0x50,0x47,0x3a,0x3a,0x4d,0x6f,0x76,0x65,0x52,0x6f,0x75,0x74,0x65,0x09,0x3a,0x0c,0x40,0x72,0x65,0x70,0x65,0x61,0x74,0x46,0x3a,0x0f,0x40,0x73,0x6b,0x69,0x70,0x70,0x61,0x62,0x6c,0x65,0x54,0x3a,0x0a,0x40,0x77,0x61,0x69,0x74,0x54,0x3a,0x0a,0x40,0x6c,0x69,0x73,0x74,0x5b,0x07,0x6f,0x3a,0x15,0x52,0x50,0x47,0x3a,0x3a,0x4d,0x6f,0x76,0x65,0x43,0x6f,0x6d,0x6d,0x61,0x6e,0x64,0x07,0x3a,0x0a,0x40,0x63,0x6f,0x64,0x65,0x69,0x11,0x3a,0x10,0x40,0x70,0x61,0x72,0x61,0x6d,0x65,0x74,0x65,0x72,0x73,0x5b,0x00,0x6f,0x3b,0x0a,0x07,0x3b,0x0b,0x69,0x00,0x3b,0x0c,0x5b,0x00))
  250(bytes(0x04,0x08,0x6f,0x3a,0x0c,0x52,0x50,0x47,0x3a,0x3a,0x53,0x45,0x08,0x3a,0x0a,0x40,0x6e,0x61,0x6d,0x65,0x49,0x22,0x09,0x4d,0x6f,0x76,0x65,0x06,0x3a,0x06,0x45,0x54,0x3a,0x0b,0x40,0x70,0x69,0x74,0x63,0x68,0x69,0x69,0x3a,0x0c,0x40,0x76,0x6f,0x6c,0x75,0x6d,0x65,0x69,0x55))
  TeleportPlayer(0,38,7,38,0,0)
  0()



EVENT   12
 PAGE   1
  250(bytes(0x04,0x08,0x6f,0x3a,0x0c,0x52,0x50,0x47,0x3a,0x3a,0x53,0x45,0x08,0x3a,0x0a,0x40,0x6e,0x61,0x6d,0x65,0x49,0x22,0x0a,0x4f,0x70,0x65,0x6e,0x31,0x06,0x3a,0x06,0x45,0x54,0x3a,0x0b,0x40,0x70,0x69,0x74,0x63,0x68,0x69,0x69,0x3a,0x0c,0x40,0x76,0x6f,0x6c,0x75,0x6d,0x65,0x69,0x55))
  205(0,bytes(0x04,0x08,0x6f,0x3a,0x13,0x52,0x50,0x47,0x3a,0x3a,0x4d,0x6f,0x76,0x65,0x52,0x6f,0x75,0x74,0x65,0x09,0x3a,0x0c,0x40,0x72,0x65,0x70,0x65,0x61,0x74,0x46,0x3a,0x0f,0x40,0x73,0x6b,0x69,0x70,0x70,0x61,0x62,0x6c,0x65,0x46,0x3a,0x0a,0x40,0x77,0x61,0x69,0x74,0x54,0x3a,0x0a,0x40,0x6c,0x69,0x73,0x74,0x5b,0x0c,0x6f,0x3a,0x15,0x52,0x50,0x47,0x3a,0x3a,0x4d,0x6f,0x76,0x65,0x43,0x6f,0x6d,0x6d,0x61,0x6e,0x64,0x07,0x3a,0x0a,0x40,0x63,0x6f,0x64,0x65,0x69,0x16,0x3a,0x10,0x40,0x70,0x61,0x72,0x61,0x6d,0x65,0x74,0x65,0x72,0x73,0x5b,0x00,0x6f,0x3b,0x0a,0x07,0x3b,0x0b,0x69,0x14,0x3b,0x0c,0x5b,0x06,0x69,0x08,0x6f,0x3b,0x0a,0x07,0x3b,0x0b,0x69,0x17,0x3b,0x0c,0x5b,0x00,0x6f,0x3b,0x0a,0x07,0x3b,0x0b,0x69,0x14,0x3b,0x0c,0x5b,0x06,0x69,0x08,0x6f,0x3b,0x0a,0x07,0x3b,0x0b,0x69,0x18,0x3b,0x0c,0x5b,0x00,0x6f,0x3b,0x0a,0x07,0x3b,0x0b,0x69,0x2a,0x3b,0x0c,0x5b,0x00,0x6f,0x3b,0x0a,0x07,0x3b,0x0b,0x69,0x00,0x3b,0x0c,0x5b,0x00))
  205(-1,bytes(0x04,0x08,0x6f,0x3a,0x13,0x52,0x50,0x47,0x3a,0x3a,0x4d,0x6f,0x76,0x65,0x52,0x6f,0x75,0x74,0x65,0x09,0x3a,0x0c,0x40,0x72,0x65,0x70,0x65,0x61,0x74,0x46,0x3a,0x0f,0x40,0x73,0x6b,0x69,0x70,0x70,0x61,0x62,0x6c,0x65,0x54,0x3a,0x0a,0x40,0x77,0x61,0x69,0x74,0x54,0x3a,0x0a,0x40,0x6c,0x69,0x73,0x74,0x5b,0x07,0x6f,0x3a,0x15,0x52,0x50,0x47,0x3a,0x3a,0x4d,0x6f,0x76,0x65,0x43,0x6f,0x6d,0x6d,0x61,0x6e,0x64,0x07,0x3a,0x0a,0x40,0x63,0x6f,0x64,0x65,0x69,0x11,0x3a,0x10,0x40,0x70,0x61,0x72,0x61,0x6d,0x65,0x74,0x65,0x72,0x73,0x5b,0x00,0x6f,0x3b,0x0a,0x07,0x3b,0x0b,0x69,0x00,0x3b,0x0c,0x5b,0x00))
  250(bytes(0x04,0x08,0x6f,0x3a,0x0c,0x52,0x50,0x47,0x3a,0x3a,0x53,0x45,0x08,0x3a,0x0a,0x40,0x6e,0x61,0x6d,0x65,0x49,0x22,0x09,0x4d,0x6f,0x76,0x65,0x06,0x3a,0x06,0x45,0x54,0x3a,0x0b,0x40,0x70,0x69,0x74,0x63,0x68,0x69,0x69,0x3a,0x0c,0x40,0x76,0x6f,0x6c,0x75,0x6d,0x65,0x69,0x55))
  TeleportPlayer(0,38,39,38,0,0)
  0()



EVENT   13
 PAGE   1
  250(bytes(0x04,0x08,0x6f,0x3a,0x0c,0x52,0x50,0x47,0x3a,0x3a,0x53,0x45,0x08,0x3a,0x0a,0x40,0x6e,0x61,0x6d,0x65,0x49,0x22,0x0a,0x4f,0x70,0x65,0x6e,0x31,0x06,0x3a,0x06,0x45,0x54,0x3a,0x0b,0x40,0x70,0x69,0x74,0x63,0x68,0x69,0x69,0x3a,0x0c,0x40,0x76,0x6f,0x6c,0x75,0x6d,0x65,0x69,0x55))
  205(0,bytes(0x04,0x08,0x6f,0x3a,0x13,0x52,0x50,0x47,0x3a,0x3a,0x4d,0x6f,0x76,0x65,0x52,0x6f,0x75,0x74,0x65,0x09,0x3a,0x0c,0x40,0x72,0x65,0x70,0x65,0x61,0x74,0x46,0x3a,0x0f,0x40,0x73,0x6b,0x69,0x70,0x70,0x61,0x62,0x6c,0x65,0x46,0x3a,0x0a,0x40,0x77,0x61,0x69,0x74,0x54,0x3a,0x0a,0x40,0x6c,0x69,0x73,0x74,0x5b,0x0c,0x6f,0x3a,0x15,0x52,0x50,0x47,0x3a,0x3a,0x4d,0x6f,0x76,0x65,0x43,0x6f,0x6d,0x6d,0x61,0x6e,0x64,0x07,0x3a,0x0a,0x40,0x63,0x6f,0x64,0x65,0x69,0x16,0x3a,0x10,0x40,0x70,0x61,0x72,0x61,0x6d,0x65,0x74,0x65,0x72,0x73,0x5b,0x00,0x6f,0x3b,0x0a,0x07,0x3b,0x0b,0x69,0x14,0x3b,0x0c,0x5b,0x06,0x69,0x08,0x6f,0x3b,0x0a,0x07,0x3b,0x0b,0x69,0x17,0x3b,0x0c,0x5b,0x00,0x6f,0x3b,0x0a,0x07,0x3b,0x0b,0x69,0x14,0x3b,0x0c,0x5b,0x06,0x69,0x08,0x6f,0x3b,0x0a,0x07,0x3b,0x0b,0x69,0x18,0x3b,0x0c,0x5b,0x00,0x6f,0x3b,0x0a,0x07,0x3b,0x0b,0x69,0x2a,0x3b,0x0c,0x5b,0x00,0x6f,0x3b,0x0a,0x07,0x3b,0x0b,0x69,0x00,0x3b,0x0c,0x5b,0x00))
  205(-1,bytes(0x04,0x08,0x6f,0x3a,0x13,0x52,0x50,0x47,0x3a,0x3a,0x4d,0x6f,0x76,0x65,0x52,0x6f,0x75,0x74,0x65,0x09,0x3a,0x0c,0x40,0x72,0x65,0x70,0x65,0x61,0x74,0x46,0x3a,0x0f,0x40,0x73,0x6b,0x69,0x70,0x70,0x61,0x62,0x6c,0x65,0x54,0x3a,0x0a,0x40,0x77,0x61,0x69,0x74,0x54,0x3a,0x0a,0x40,0x6c,0x69,0x73,0x74,0x5b,0x07,0x6f,0x3a,0x15,0x52,0x50,0x47,0x3a,0x3a,0x4d,0x6f,0x76,0x65,0x43,0x6f,0x6d,0x6d,0x61,0x6e,0x64,0x07,0x3a,0x0a,0x40,0x63,0x6f,0x64,0x65,0x69,0x11,0x3a,0x10,0x40,0x70,0x61,0x72,0x61,0x6d,0x65,0x74,0x65,0x72,0x73,0x5b,0x00,0x6f,0x3b,0x0a,0x07,0x3b,0x0b,0x69,0x00,0x3b,0x0c,0x5b,0x00))
  250(bytes(0x04,0x08,0x6f,0x3a,0x0c,0x52,0x50,0x47,0x3a,0x3a,0x53,0x45,0x08,0x3a,0x0a,0x40,0x6e,0x61,0x6d,0x65,0x49,0x22,0x09,0x4d,0x6f,0x76,0x65,0x06,0x3a,0x06,0x45,0x54,0x3a,0x0b,0x40,0x70,0x69,0x74,0x63,0x68,0x69,0x69,0x3a,0x0c,0x40,0x76,0x6f,0x6c,0x75,0x6d,0x65,0x69,0x55))
  TeleportPlayer(0,38,67,37,0,0)
  0()



EVENT   14
 PAGE   1
  250(bytes(0x04,0x08,0x6f,0x3a,0x0c,0x52,0x50,0x47,0x3a,0x3a,0x53,0x45,0x08,0x3a,0x0a,0x40,0x6e,0x61,0x6d,0x65,0x49,0x22,0x0a,0x4f,0x70,0x65,0x6e,0x31,0x06,0x3a,0x06,0x45,0x54,0x3a,0x0b,0x40,0x70,0x69,0x74,0x63,0x68,0x69,0x69,0x3a,0x0c,0x40,0x76,0x6f,0x6c,0x75,0x6d,0x65,0x69,0x55))
  205(0,bytes(0x04,0x08,0x6f,0x3a,0x13,0x52,0x50,0x47,0x3a,0x3a,0x4d,0x6f,0x76,0x65,0x52,0x6f,0x75,0x74,0x65,0x09,0x3a,0x0c,0x40,0x72,0x65,0x70,0x65,0x61,0x74,0x46,0x3a,0x0f,0x40,0x73,0x6b,0x69,0x70,0x70,0x61,0x62,0x6c,0x65,0x46,0x3a,0x0a,0x40,0x77,0x61,0x69,0x74,0x54,0x3a,0x0a,0x40,0x6c,0x69,0x73,0x74,0x5b,0x0c,0x6f,0x3a,0x15,0x52,0x50,0x47,0x3a,0x3a,0x4d,0x6f,0x76,0x65,0x43,0x6f,0x6d,0x6d,0x61,0x6e,0x64,0x07,0x3a,0x0a,0x40,0x63,0x6f,0x64,0x65,0x69,0x16,0x3a,0x10,0x40,0x70,0x61,0x72,0x61,0x6d,0x65,0x74,0x65,0x72,0x73,0x5b,0x00,0x6f,0x3b,0x0a,0x07,0x3b,0x0b,0x69,0x14,0x3b,0x0c,0x5b,0x06,0x69,0x08,0x6f,0x3b,0x0a,0x07,0x3b,0x0b,0x69,0x17,0x3b,0x0c,0x5b,0x00,0x6f,0x3b,0x0a,0x07,0x3b,0x0b,0x69,0x14,0x3b,0x0c,0x5b,0x06,0x69,0x08,0x6f,0x3b,0x0a,0x07,0x3b,0x0b,0x69,0x18,0x3b,0x0c,0x5b,0x00,0x6f,0x3b,0x0a,0x07,0x3b,0x0b,0x69,0x2a,0x3b,0x0c,0x5b,0x00,0x6f,0x3b,0x0a,0x07,0x3b,0x0b,0x69,0x00,0x3b,0x0c,0x5b,0x00))
  205(-1,bytes(0x04,0x08,0x6f,0x3a,0x13,0x52,0x50,0x47,0x3a,0x3a,0x4d,0x6f,0x76,0x65,0x52,0x6f,0x75,0x74,0x65,0x09,0x3a,0x0c,0x40,0x72,0x65,0x70,0x65,0x61,0x74,0x46,0x3a,0x0f,0x40,0x73,0x6b,0x69,0x70,0x70,0x61,0x62,0x6c,0x65,0x54,0x3a,0x0a,0x40,0x77,0x61,0x69,0x74,0x54,0x3a,0x0a,0x40,0x6c,0x69,0x73,0x74,0x5b,0x07,0x6f,0x3a,0x15,0x52,0x50,0x47,0x3a,0x3a,0x4d,0x6f,0x76,0x65,0x43,0x6f,0x6d,0x6d,0x61,0x6e,0x64,0x07,0x3a,0x0a,0x40,0x63,0x6f,0x64,0x65,0x69,0x11,0x3a,0x10,0x40,0x70,0x61,0x72,0x61,0x6d,0x65,0x74,0x65,0x72,0x73,0x5b,0x00,0x6f,0x3b,0x0a,0x07,0x3b,0x0b,0x69,0x00,0x3b,0x0c,0x5b,0x00))
  250(bytes(0x04,0x08,0x6f,0x3a,0x0c,0x52,0x50,0x47,0x3a,0x3a,0x53,0x45,0x08,0x3a,0x0a,0x40,0x6e,0x61,0x6d,0x65,0x49,0x22,0x09,0x4d,0x6f,0x76,0x65,0x06,0x3a,0x06,0x45,0x54,0x3a,0x0b,0x40,0x70,0x69,0x74,0x63,0x68,0x69,0x69,0x3a,0x0c,0x40,0x76,0x6f,0x6c,0x75,0x6d,0x65,0x69,0x55))
  TeleportPlayer(0,38,7,57,0,0)
  0()



EVENT   15
 PAGE   1
  If(1,1063,0,10,0)
   If(12,"exist_party_persona_id?(391)")
    ShowMessageFace("mefist_fc2",0,0,2,1)
    ShowMessage("\\n<Mephisto>This is the bar where we're supposed to meet our final contact.")
    0()
   Else()
    ShowMessageFace("mefist_fc1",0,0,2,2)
    ShowMessage("\\n<Mephisto>This is the bar where we're supposed to meet our final contact.")
    0()
   EndIf()
   If(0,6,0)
    ShowMessageFace("sonia_fc1",0,0,2,3)
    ShowMessage("\\n<Sonya>I wonder what our final contact is going to be like...")
    0()
   Else()
    ShowMessageFace("ruka_fc1",0,0,2,4)
    ShowMessage("\\n<Luka>I wonder what our final contact is going to be like...")
    0()
   EndIf()
   0()
  EndIf()
  250(bytes(0x04,0x08,0x6f,0x3a,0x0c,0x52,0x50,0x47,0x3a,0x3a,0x53,0x45,0x08,0x3a,0x0a,0x40,0x6e,0x61,0x6d,0x65,0x49,0x22,0x0a,0x4f,0x70,0x65,0x6e,0x31,0x06,0x3a,0x06,0x45,0x54,0x3a,0x0b,0x40,0x70,0x69,0x74,0x63,0x68,0x69,0x69,0x3a,0x0c,0x40,0x76,0x6f,0x6c,0x75,0x6d,0x65,0x69,0x55))
  205(0,bytes(0x04,0x08,0x6f,0x3a,0x13,0x52,0x50,0x47,0x3a,0x3a,0x4d,0x6f,0x76,0x65,0x52,0x6f,0x75,0x74,0x65,0x09,0x3a,0x0c,0x40,0x72,0x65,0x70,0x65,0x61,0x74,0x46,0x3a,0x0f,0x40,0x73,0x6b,0x69,0x70,0x70,0x61,0x62,0x6c,0x65,0x46,0x3a,0x0a,0x40,0x77,0x61,0x69,0x74,0x54,0x3a,0x0a,0x40,0x6c,0x69,0x73,0x74,0x5b,0x0c,0x6f,0x3a,0x15,0x52,0x50,0x47,0x3a,0x3a,0x4d,0x6f,0x76,0x65,0x43,0x6f,0x6d,0x6d,0x61,0x6e,0x64,0x07,0x3a,0x0a,0x40,0x63,0x6f,0x64,0x65,0x69,0x16,0x3a,0x10,0x40,0x70,0x61,0x72,0x61,0x6d,0x65,0x74,0x65,0x72,0x73,0x5b,0x00,0x6f,0x3b,0x0a,0x07,0x3b,0x0b,0x69,0x14,0x3b,0x0c,0x5b,0x06,0x69,0x08,0x6f,0x3b,0x0a,0x07,0x3b,0x0b,0x69,0x17,0x3b,0x0c,0x5b,0x00,0x6f,0x3b,0x0a,0x07,0x3b,0x0b,0x69,0x14,0x3b,0x0c,0x5b,0x06,0x69,0x08,0x6f,0x3b,0x0a,0x07,0x3b,0x0b,0x69,0x18,0x3b,0x0c,0x5b,0x00,0x6f,0x3b,0x0a,0x07,0x3b,0x0b,0x69,0x2a,0x3b,0x0c,0x5b,0x00,0x6f,0x3b,0x0a,0x07,0x3b,0x0b,0x69,0x00,0x3b,0x0c,0x5b,0x00))
  205(-1,bytes(0x04,0x08,0x6f,0x3a,0x13,0x52,0x50,0x47,0x3a,0x3a,0x4d,0x6f,0x76,0x65,0x52,0x6f,0x75,0x74,0x65,0x09,0x3a,0x0c,0x40,0x72,0x65,0x70,0x65,0x61,0x74,0x46,0x3a,0x0f,0x40,0x73,0x6b,0x69,0x70,0x70,0x61,0x62,0x6c,0x65,0x54,0x3a,0x0a,0x40,0x77,0x61,0x69,0x74,0x54,0x3a,0x0a,0x40,0x6c,0x69,0x73,0x74,0x5b,0x07,0x6f,0x3a,0x15,0x52,0x50,0x47,0x3a,0x3a,0x4d,0x6f,0x76,0x65,0x43,0x6f,0x6d,0x6d,0x61,0x6e,0x64,0x07,0x3a,0x0a,0x40,0x63,0x6f,0x64,0x65,0x69,0x11,0x3a,0x10,0x40,0x70,0x61,0x72,0x61,0x6d,0x65,0x74,0x65,0x72,0x73,0x5b,0x00,0x6f,0x3b,0x0a,0x07,0x3b,0x0b,0x69,0x00,0x3b,0x0c,0x5b,0x00))
  250(bytes(0x04,0x08,0x6f,0x3a,0x0c,0x52,0x50,0x47,0x3a,0x3a,0x53,0x45,0x08,0x3a,0x0a,0x40,0x6e,0x61,0x6d,0x65,0x49,0x22,0x09,0x4d,0x6f,0x76,0x65,0x06,0x3a,0x06,0x45,0x54,0x3a,0x0b,0x40,0x70,0x69,0x74,0x63,0x68,0x69,0x69,0x3a,0x0c,0x40,0x76,0x6f,0x6c,0x75,0x6d,0x65,0x69,0x55))
  TeleportPlayer(0,38,33,57,0,0)
  If(1,1063,0,10,0)
   241(bytes(0x04,0x08,0x6f,0x3a,0x0d,0x52,0x50,0x47,0x3a,0x3a,0x42,0x47,0x4d,0x08,0x3a,0x0a,0x40,0x6e,0x61,0x6d,0x65,0x49,0x22,0x10,0x73,0x63,0x65,0x6e,0x65,0x5f,0x63,0x6f,0x6d,0x69,0x32,0x06,0x3a,0x06,0x45,0x54,0x3a,0x0c,0x40,0x76,0x6f,0x6c,0x75,0x6d,0x65,0x69,0x69,0x3a,0x0b,0x40,0x70,0x69,0x74,0x63,0x68,0x69,0x69))
   PictureDisplay(5,"80_lazarus_st22",0,0,0,0,100,100,0,0)
   PictureMove(5,null,0,0,0,0,100,100,255,0,30,true)
   ShowMessageFace("lazarus3_fc1",1,0,2,5)
   ShowMessage("\\n<Lazarus>Hey, glad you made it. I take it you're the guys--")
   If(0,6,0)
    ShowMessageFace("sonia_fc3",2,0,2,6)
    ShowMessage("\\n<Sonya>Uncle Lazarus!?")
    ShowMessageFace("ruka_fc1",0,0,2,7)
    ShowMessage("\\n<Luka>Wait, what's going on here!?")
    0()
   Else()
    ShowMessageFace("ruka_fc1",0,0,2,8)
    ShowMessage("\\n<Luka>Uncle Lazarus!?")
    0()
   EndIf()
   PictureDisplay(5,"80_lazarus_st25",0,0,0,0,100,100,255,0)
   ShowMessageFace("lazarus3_fc1",4,0,2,9)
   ShowMessage("\\n<Lazarus>Whaaaaa!?!?!?\nYou guys!?!?")
   If(12,"exist_party_persona_id?(391)")
    ShowMessageFace("mefist_fc2",2,0,2,10)
    ShowMessage("\\n<Mephisto>......???")
    0()
   Else()
    ShowMessageFace("mefist_fc1",2,0,2,11)
    ShowMessage("\\n<Mephisto>......???")
    0()
   EndIf()
   ChangeVariable(1063,1063,0,0,11)
   0()
  EndIf()
  EndEventProcessing()
  0()



EVENT   16
 PAGE   1
  If(1,1063,0,12,2)
   ShowMessageFace("",0,0,2,1)
   ShowMessage("施錠されている……")
   ShowMessage("……が、誰か中にいる様子だ！")
   ShowMessageFace("mob_heisi_fc1",0,0,2,2)
   ShowMessage("\\n<女兵士>申し訳ありません！")
   ShowMessage("淫気が中に入ってくるので、開ける事は出来ないのです！")
   If(0,4,0)
    ShowMessageFace("alice_fc5",0,0,2,3)
    ShowMessage("\\n<Alice>まだ理性を保っている者もいるのか……")
    ShowMessage("おそらく、バトルファッカーと見たぞ。")
    ShowMessageFace("alice_fc5",0,0,2,4)
    ShowMessage("\\n<Alice>しかし、この状況ではどうにもなるまい。")
    ShowMessage("事態が改善するまで、お預けのようだな。")
    0()
   EndIf()
   If(0,5,0)
    ShowMessageFace("iriasu_fc4",2,0,2,5)
    ShowMessage("\\n<Ilias>まだ理性を保っている者もいるのですね……")
    ShowMessage("おそらく、バトルファッカーでしょう。")
    ShowMessageFace("iriasu_fc4",2,0,2,6)
    ShowMessage("\\n<Ilias>しかし、この状況ではどうにもなりませんね。")
    ShowMessage("事態が改善するまで、お楽しみはお預けです。")
    0()
   EndIf()
   If(0,6,0)
    ShowMessageFace("sonia_fc1",2,0,2,7)
    ShowMessage("\\n<Sonya>Tough luck, right Luka?")
    ShowMessageFace("ruka_fc1",0,0,2,8)
    ShowMessage("\\n<Luka>.........")
    0()
   EndIf()
   EndEventProcessing()
   0()
  EndIf()
  ShowMessageFace("",0,0,2,9)
  ShowMessage("ルカは仲間を外に待たせ、一人で民家に入った……")
  216(1)
  250(bytes(0x04,0x08,0x6f,0x3a,0x0c,0x52,0x50,0x47,0x3a,0x3a,0x53,0x45,0x08,0x3a,0x0a,0x40,0x6e,0x61,0x6d,0x65,0x49,0x22,0x0a,0x4f,0x70,0x65,0x6e,0x31,0x06,0x3a,0x06,0x45,0x54,0x3a,0x0b,0x40,0x70,0x69,0x74,0x63,0x68,0x69,0x69,0x3a,0x0c,0x40,0x76,0x6f,0x6c,0x75,0x6d,0x65,0x69,0x55))
  205(0,bytes(0x04,0x08,0x6f,0x3a,0x13,0x52,0x50,0x47,0x3a,0x3a,0x4d,0x6f,0x76,0x65,0x52,0x6f,0x75,0x74,0x65,0x09,0x3a,0x0c,0x40,0x72,0x65,0x70,0x65,0x61,0x74,0x46,0x3a,0x0f,0x40,0x73,0x6b,0x69,0x70,0x70,0x61,0x62,0x6c,0x65,0x46,0x3a,0x0a,0x40,0x77,0x61,0x69,0x74,0x54,0x3a,0x0a,0x40,0x6c,0x69,0x73,0x74,0x5b,0x0c,0x6f,0x3a,0x15,0x52,0x50,0x47,0x3a,0x3a,0x4d,0x6f,0x76,0x65,0x43,0x6f,0x6d,0x6d,0x61,0x6e,0x64,0x07,0x3a,0x0a,0x40,0x63,0x6f,0x64,0x65,0x69,0x16,0x3a,0x10,0x40,0x70,0x61,0x72,0x61,0x6d,0x65,0x74,0x65,0x72,0x73,0x5b,0x00,0x6f,0x3b,0x0a,0x07,0x3b,0x0b,0x69,0x14,0x3b,0x0c,0x5b,0x06,0x69,0x08,0x6f,0x3b,0x0a,0x07,0x3b,0x0b,0x69,0x17,0x3b,0x0c,0x5b,0x00,0x6f,0x3b,0x0a,0x07,0x3b,0x0b,0x69,0x14,0x3b,0x0c,0x5b,0x06,0x69,0x08,0x6f,0x3b,0x0a,0x07,0x3b,0x0b,0x69,0x18,0x3b,0x0c,0x5b,0x00,0x6f,0x3b,0x0a,0x07,0x3b,0x0b,0x69,0x2a,0x3b,0x0c,0x5b,0x00,0x6f,0x3b,0x0a,0x07,0x3b,0x0b,0x69,0x00,0x3b,0x0c,0x5b,0x00))
  205(-1,bytes(0x04,0x08,0x6f,0x3a,0x13,0x52,0x50,0x47,0x3a,0x3a,0x4d,0x6f,0x76,0x65,0x52,0x6f,0x75,0x74,0x65,0x09,0x3a,0x0c,0x40,0x72,0x65,0x70,0x65,0x61,0x74,0x46,0x3a,0x0f,0x40,0x73,0x6b,0x69,0x70,0x70,0x61,0x62,0x6c,0x65,0x54,0x3a,0x0a,0x40,0x77,0x61,0x69,0x74,0x54,0x3a,0x0a,0x40,0x6c,0x69,0x73,0x74,0x5b,0x07,0x6f,0x3a,0x15,0x52,0x50,0x47,0x3a,0x3a,0x4d,0x6f,0x76,0x65,0x43,0x6f,0x6d,0x6d,0x61,0x6e,0x64,0x07,0x3a,0x0a,0x40,0x63,0x6f,0x64,0x65,0x69,0x11,0x3a,0x10,0x40,0x70,0x61,0x72,0x61,0x6d,0x65,0x74,0x65,0x72,0x73,0x5b,0x00,0x6f,0x3b,0x0a,0x07,0x3b,0x0b,0x69,0x00,0x3b,0x0c,0x5b,0x00))
  250(bytes(0x04,0x08,0x6f,0x3a,0x0c,0x52,0x50,0x47,0x3a,0x3a,0x53,0x45,0x08,0x3a,0x0a,0x40,0x6e,0x61,0x6d,0x65,0x49,0x22,0x09,0x4d,0x6f,0x76,0x65,0x06,0x3a,0x06,0x45,0x54,0x3a,0x0b,0x40,0x70,0x69,0x74,0x63,0x68,0x69,0x69,0x3a,0x0c,0x40,0x76,0x6f,0x6c,0x75,0x6d,0x65,0x69,0x55))
  TeleportPlayer(0,38,8,82,0,0)
  0()



EVENT   17
 PAGE   1
  250(bytes(0x04,0x08,0x6f,0x3a,0x0c,0x52,0x50,0x47,0x3a,0x3a,0x53,0x45,0x08,0x3a,0x0a,0x40,0x6e,0x61,0x6d,0x65,0x49,0x22,0x0a,0x4f,0x70,0x65,0x6e,0x31,0x06,0x3a,0x06,0x45,0x54,0x3a,0x0b,0x40,0x70,0x69,0x74,0x63,0x68,0x69,0x69,0x3a,0x0c,0x40,0x76,0x6f,0x6c,0x75,0x6d,0x65,0x69,0x55))
  205(0,bytes(0x04,0x08,0x6f,0x3a,0x13,0x52,0x50,0x47,0x3a,0x3a,0x4d,0x6f,0x76,0x65,0x52,0x6f,0x75,0x74,0x65,0x09,0x3a,0x0c,0x40,0x72,0x65,0x70,0x65,0x61,0x74,0x46,0x3a,0x0f,0x40,0x73,0x6b,0x69,0x70,0x70,0x61,0x62,0x6c,0x65,0x46,0x3a,0x0a,0x40,0x77,0x61,0x69,0x74,0x54,0x3a,0x0a,0x40,0x6c,0x69,0x73,0x74,0x5b,0x0c,0x6f,0x3a,0x15,0x52,0x50,0x47,0x3a,0x3a,0x4d,0x6f,0x76,0x65,0x43,0x6f,0x6d,0x6d,0x61,0x6e,0x64,0x07,0x3a,0x0a,0x40,0x63,0x6f,0x64,0x65,0x69,0x16,0x3a,0x10,0x40,0x70,0x61,0x72,0x61,0x6d,0x65,0x74,0x65,0x72,0x73,0x5b,0x00,0x6f,0x3b,0x0a,0x07,0x3b,0x0b,0x69,0x14,0x3b,0x0c,0x5b,0x06,0x69,0x08,0x6f,0x3b,0x0a,0x07,0x3b,0x0b,0x69,0x17,0x3b,0x0c,0x5b,0x00,0x6f,0x3b,0x0a,0x07,0x3b,0x0b,0x69,0x14,0x3b,0x0c,0x5b,0x06,0x69,0x08,0x6f,0x3b,0x0a,0x07,0x3b,0x0b,0x69,0x18,0x3b,0x0c,0x5b,0x00,0x6f,0x3b,0x0a,0x07,0x3b,0x0b,0x69,0x2a,0x3b,0x0c,0x5b,0x00,0x6f,0x3b,0x0a,0x07,0x3b,0x0b,0x69,0x00,0x3b,0x0c,0x5b,0x00))
  205(-1,bytes(0x04,0x08,0x6f,0x3a,0x13,0x52,0x50,0x47,0x3a,0x3a,0x4d,0x6f,0x76,0x65,0x52,0x6f,0x75,0x74,0x65,0x09,0x3a,0x0c,0x40,0x72,0x65,0x70,0x65,0x61,0x74,0x46,0x3a,0x0f,0x40,0x73,0x6b,0x69,0x70,0x70,0x61,0x62,0x6c,0x65,0x54,0x3a,0x0a,0x40,0x77,0x61,0x69,0x74,0x54,0x3a,0x0a,0x40,0x6c,0x69,0x73,0x74,0x5b,0x07,0x6f,0x3a,0x15,0x52,0x50,0x47,0x3a,0x3a,0x4d,0x6f,0x76,0x65,0x43,0x6f,0x6d,0x6d,0x61,0x6e,0x64,0x07,0x3a,0x0a,0x40,0x63,0x6f,0x64,0x65,0x69,0x11,0x3a,0x10,0x40,0x70,0x61,0x72,0x61,0x6d,0x65,0x74,0x65,0x72,0x73,0x5b,0x00,0x6f,0x3b,0x0a,0x07,0x3b,0x0b,0x69,0x00,0x3b,0x0c,0x5b,0x00))
  250(bytes(0x04,0x08,0x6f,0x3a,0x0c,0x52,0x50,0x47,0x3a,0x3a,0x53,0x45,0x08,0x3a,0x0a,0x40,0x6e,0x61,0x6d,0x65,0x49,0x22,0x09,0x4d,0x6f,0x76,0x65,0x06,0x3a,0x06,0x45,0x54,0x3a,0x0b,0x40,0x70,0x69,0x74,0x63,0x68,0x69,0x69,0x3a,0x0c,0x40,0x76,0x6f,0x6c,0x75,0x6d,0x65,0x69,0x55))
  TeleportPlayer(0,38,37,77,0,0)
  0()



EVENT   18
 PAGE   1
  250(bytes(0x04,0x08,0x6f,0x3a,0x0c,0x52,0x50,0x47,0x3a,0x3a,0x53,0x45,0x08,0x3a,0x0a,0x40,0x6e,0x61,0x6d,0x65,0x49,0x22,0x0a,0x4f,0x70,0x65,0x6e,0x31,0x06,0x3a,0x06,0x45,0x54,0x3a,0x0b,0x40,0x70,0x69,0x74,0x63,0x68,0x69,0x69,0x3a,0x0c,0x40,0x76,0x6f,0x6c,0x75,0x6d,0x65,0x69,0x55))
  205(0,bytes(0x04,0x08,0x6f,0x3a,0x13,0x52,0x50,0x47,0x3a,0x3a,0x4d,0x6f,0x76,0x65,0x52,0x6f,0x75,0x74,0x65,0x09,0x3a,0x0c,0x40,0x72,0x65,0x70,0x65,0x61,0x74,0x46,0x3a,0x0f,0x40,0x73,0x6b,0x69,0x70,0x70,0x61,0x62,0x6c,0x65,0x46,0x3a,0x0a,0x40,0x77,0x61,0x69,0x74,0x54,0x3a,0x0a,0x40,0x6c,0x69,0x73,0x74,0x5b,0x0c,0x6f,0x3a,0x15,0x52,0x50,0x47,0x3a,0x3a,0x4d,0x6f,0x76,0x65,0x43,0x6f,0x6d,0x6d,0x61,0x6e,0x64,0x07,0x3a,0x0a,0x40,0x63,0x6f,0x64,0x65,0x69,0x16,0x3a,0x10,0x40,0x70,0x61,0x72,0x61,0x6d,0x65,0x74,0x65,0x72,0x73,0x5b,0x00,0x6f,0x3b,0x0a,0x07,0x3b,0x0b,0x69,0x14,0x3b,0x0c,0x5b,0x06,0x69,0x08,0x6f,0x3b,0x0a,0x07,0x3b,0x0b,0x69,0x17,0x3b,0x0c,0x5b,0x00,0x6f,0x3b,0x0a,0x07,0x3b,0x0b,0x69,0x14,0x3b,0x0c,0x5b,0x06,0x69,0x08,0x6f,0x3b,0x0a,0x07,0x3b,0x0b,0x69,0x18,0x3b,0x0c,0x5b,0x00,0x6f,0x3b,0x0a,0x07,0x3b,0x0b,0x69,0x2a,0x3b,0x0c,0x5b,0x00,0x6f,0x3b,0x0a,0x07,0x3b,0x0b,0x69,0x00,0x3b,0x0c,0x5b,0x00))
  205(-1,bytes(0x04,0x08,0x6f,0x3a,0x13,0x52,0x50,0x47,0x3a,0x3a,0x4d,0x6f,0x76,0x65,0x52,0x6f,0x75,0x74,0x65,0x09,0x3a,0x0c,0x40,0x72,0x65,0x70,0x65,0x61,0x74,0x46,0x3a,0x0f,0x40,0x73,0x6b,0x69,0x70,0x70,0x61,0x62,0x6c,0x65,0x54,0x3a,0x0a,0x40,0x77,0x61,0x69,0x74,0x54,0x3a,0x0a,0x40,0x6c,0x69,0x73,0x74,0x5b,0x07,0x6f,0x3a,0x15,0x52,0x50,0x47,0x3a,0x3a,0x4d,0x6f,0x76,0x65,0x43,0x6f,0x6d,0x6d,0x61,0x6e,0x64,0x07,0x3a,0x0a,0x40,0x63,0x6f,0x64,0x65,0x69,0x11,0x3a,0x10,0x40,0x70,0x61,0x72,0x61,0x6d,0x65,0x74,0x65,0x72,0x73,0x5b,0x00,0x6f,0x3b,0x0a,0x07,0x3b,0x0b,0x69,0x00,0x3b,0x0c,0x5b,0x00))
  250(bytes(0x04,0x08,0x6f,0x3a,0x0c,0x52,0x50,0x47,0x3a,0x3a,0x53,0x45,0x08,0x3a,0x0a,0x40,0x6e,0x61,0x6d,0x65,0x49,0x22,0x09,0x4d,0x6f,0x76,0x65,0x06,0x3a,0x06,0x45,0x54,0x3a,0x0b,0x40,0x70,0x69,0x74,0x63,0x68,0x69,0x69,0x3a,0x0c,0x40,0x76,0x6f,0x6c,0x75,0x6d,0x65,0x69,0x55))
  TeleportPlayer(0,38,54,79,0,0)
  0()



EVENT   19
 PAGE   1
  250(bytes(0x04,0x08,0x6f,0x3a,0x0c,0x52,0x50,0x47,0x3a,0x3a,0x53,0x45,0x08,0x3a,0x0a,0x40,0x6e,0x61,0x6d,0x65,0x49,0x22,0x09,0x4d,0x6f,0x76,0x65,0x06,0x3a,0x06,0x45,0x54,0x3a,0x0b,0x40,0x70,0x69,0x74,0x63,0x68,0x69,0x69,0x3a,0x0c,0x40,0x76,0x6f,0x6c,0x75,0x6d,0x65,0x69,0x55))
  TeleportPlayer(0,2,234,153,2,0)
  0()



EVENT   20
 PAGE   1
  250(bytes(0x04,0x08,0x6f,0x3a,0x0c,0x52,0x50,0x47,0x3a,0x3a,0x53,0x45,0x08,0x3a,0x0a,0x40,0x6e,0x61,0x6d,0x65,0x49,0x22,0x09,0x4d,0x6f,0x76,0x65,0x06,0x3a,0x06,0x45,0x54,0x3a,0x0b,0x40,0x70,0x69,0x74,0x63,0x68,0x69,0x69,0x3a,0x0c,0x40,0x76,0x6f,0x6c,0x75,0x6d,0x65,0x69,0x55))
  TeleportPlayer(0,2,234,153,2,0)
  0()



EVENT   21
 PAGE   1
  250(bytes(0x04,0x08,0x6f,0x3a,0x0c,0x52,0x50,0x47,0x3a,0x3a,0x53,0x45,0x08,0x3a,0x0a,0x40,0x6e,0x61,0x6d,0x65,0x49,0x22,0x09,0x4d,0x6f,0x76,0x65,0x06,0x3a,0x06,0x45,0x54,0x3a,0x0b,0x40,0x70,0x69,0x74,0x63,0x68,0x69,0x69,0x3a,0x0c,0x40,0x76,0x6f,0x6c,0x75,0x6d,0x65,0x69,0x55))
  TeleportPlayer(0,2,234,153,2,0)
  0()



EVENT   22
 PAGE   1
  250(bytes(0x04,0x08,0x6f,0x3a,0x0c,0x52,0x50,0x47,0x3a,0x3a,0x53,0x45,0x08,0x3a,0x0a,0x40,0x6e,0x61,0x6d,0x65,0x49,0x22,0x09,0x4d,0x6f,0x76,0x65,0x06,0x3a,0x06,0x45,0x54,0x3a,0x0b,0x40,0x70,0x69,0x74,0x63,0x68,0x69,0x69,0x3a,0x0c,0x40,0x76,0x6f,0x6c,0x75,0x6d,0x65,0x69,0x55))
  TeleportPlayer(0,2,234,153,2,0)
  0()



EVENT   23
 PAGE   1
  250(bytes(0x04,0x08,0x6f,0x3a,0x0c,0x52,0x50,0x47,0x3a,0x3a,0x53,0x45,0x08,0x3a,0x0a,0x40,0x6e,0x61,0x6d,0x65,0x49,0x22,0x09,0x4d,0x6f,0x76,0x65,0x06,0x3a,0x06,0x45,0x54,0x3a,0x0b,0x40,0x70,0x69,0x74,0x63,0x68,0x69,0x69,0x3a,0x0c,0x40,0x76,0x6f,0x6c,0x75,0x6d,0x65,0x69,0x55))
  TeleportPlayer(0,2,234,153,2,0)
  0()



EVENT   24
 PAGE   1
  250(bytes(0x04,0x08,0x6f,0x3a,0x0c,0x52,0x50,0x47,0x3a,0x3a,0x53,0x45,0x08,0x3a,0x0a,0x40,0x6e,0x61,0x6d,0x65,0x49,0x22,0x09,0x4d,0x6f,0x76,0x65,0x06,0x3a,0x06,0x45,0x54,0x3a,0x0b,0x40,0x70,0x69,0x74,0x63,0x68,0x69,0x69,0x3a,0x0c,0x40,0x76,0x6f,0x6c,0x75,0x6d,0x65,0x69,0x55))
  TeleportPlayer(0,2,234,153,2,0)
  0()



EVENT   25
 PAGE   1
  250(bytes(0x04,0x08,0x6f,0x3a,0x0c,0x52,0x50,0x47,0x3a,0x3a,0x53,0x45,0x08,0x3a,0x0a,0x40,0x6e,0x61,0x6d,0x65,0x49,0x22,0x09,0x4d,0x6f,0x76,0x65,0x06,0x3a,0x06,0x45,0x54,0x3a,0x0b,0x40,0x70,0x69,0x74,0x63,0x68,0x69,0x69,0x3a,0x0c,0x40,0x76,0x6f,0x6c,0x75,0x6d,0x65,0x69,0x55))
  TeleportPlayer(0,2,234,153,2,0)
  0()



EVENT   26
 PAGE   1
  250(bytes(0x04,0x08,0x6f,0x3a,0x0c,0x52,0x50,0x47,0x3a,0x3a,0x53,0x45,0x08,0x3a,0x0a,0x40,0x6e,0x61,0x6d,0x65,0x49,0x22,0x09,0x4d,0x6f,0x76,0x65,0x06,0x3a,0x06,0x45,0x54,0x3a,0x0b,0x40,0x70,0x69,0x74,0x63,0x68,0x69,0x69,0x3a,0x0c,0x40,0x76,0x6f,0x6c,0x75,0x6d,0x65,0x69,0x55))
  TeleportPlayer(0,2,234,153,2,0)
  0()



EVENT   27
 PAGE   1
  250(bytes(0x04,0x08,0x6f,0x3a,0x0c,0x52,0x50,0x47,0x3a,0x3a,0x53,0x45,0x08,0x3a,0x0a,0x40,0x6e,0x61,0x6d,0x65,0x49,0x22,0x09,0x4d,0x6f,0x76,0x65,0x06,0x3a,0x06,0x45,0x54,0x3a,0x0b,0x40,0x70,0x69,0x74,0x63,0x68,0x69,0x69,0x3a,0x0c,0x40,0x76,0x6f,0x6c,0x75,0x6d,0x65,0x69,0x55))
  TeleportPlayer(0,2,234,153,2,0)
  0()



EVENT   28
 PAGE   1
  250(bytes(0x04,0x08,0x6f,0x3a,0x0c,0x52,0x50,0x47,0x3a,0x3a,0x53,0x45,0x08,0x3a,0x0a,0x40,0x6e,0x61,0x6d,0x65,0x49,0x22,0x09,0x4d,0x6f,0x76,0x65,0x06,0x3a,0x06,0x45,0x54,0x3a,0x0b,0x40,0x70,0x69,0x74,0x63,0x68,0x69,0x69,0x3a,0x0c,0x40,0x76,0x6f,0x6c,0x75,0x6d,0x65,0x69,0x55))
  TeleportPlayer(0,2,234,153,2,0)
  0()



EVENT   29
 PAGE   1
  250(bytes(0x04,0x08,0x6f,0x3a,0x0c,0x52,0x50,0x47,0x3a,0x3a,0x53,0x45,0x08,0x3a,0x0a,0x40,0x6e,0x61,0x6d,0x65,0x49,0x22,0x09,0x4d,0x6f,0x76,0x65,0x06,0x3a,0x06,0x45,0x54,0x3a,0x0b,0x40,0x70,0x69,0x74,0x63,0x68,0x69,0x69,0x3a,0x0c,0x40,0x76,0x6f,0x6c,0x75,0x6d,0x65,0x69,0x55))
  TeleportPlayer(0,2,234,153,2,0)
  0()



EVENT   30
 PAGE   1
  250(bytes(0x04,0x08,0x6f,0x3a,0x0c,0x52,0x50,0x47,0x3a,0x3a,0x53,0x45,0x08,0x3a,0x0a,0x40,0x6e,0x61,0x6d,0x65,0x49,0x22,0x09,0x4d,0x6f,0x76,0x65,0x06,0x3a,0x06,0x45,0x54,0x3a,0x0b,0x40,0x70,0x69,0x74,0x63,0x68,0x69,0x69,0x3a,0x0c,0x40,0x76,0x6f,0x6c,0x75,0x6d,0x65,0x69,0x55))
  TeleportPlayer(0,2,234,153,2,0)
  0()



EVENT   31
 PAGE   1
  250(bytes(0x04,0x08,0x6f,0x3a,0x0c,0x52,0x50,0x47,0x3a,0x3a,0x53,0x45,0x08,0x3a,0x0a,0x40,0x6e,0x61,0x6d,0x65,0x49,0x22,0x09,0x4d,0x6f,0x76,0x65,0x06,0x3a,0x06,0x45,0x54,0x3a,0x0b,0x40,0x70,0x69,0x74,0x63,0x68,0x69,0x69,0x3a,0x0c,0x40,0x76,0x6f,0x6c,0x75,0x6d,0x65,0x69,0x55))
  TeleportPlayer(0,2,234,153,2,0)
  0()



EVENT   32
 PAGE   1
  ShowMessageFace("",0,0,2,1)
  ShowMessage("施錠されている……")
  0()
 PAGE   2
  // condition: variable 1063 >= 12
  0()
 PAGE   3
  // condition: variable 1063 >= 13
  ShowMessageFace("",0,0,2,1)
  ShowMessage("施錠されている……")
  0()
 PAGE   4
  // condition: variable 1001 >= 29
  0()



EVENT   33
 PAGE   1
  250(bytes(0x04,0x08,0x6f,0x3a,0x0c,0x52,0x50,0x47,0x3a,0x3a,0x53,0x45,0x08,0x3a,0x0a,0x40,0x6e,0x61,0x6d,0x65,0x49,0x22,0x09,0x4d,0x6f,0x76,0x65,0x06,0x3a,0x06,0x45,0x54,0x3a,0x0b,0x40,0x70,0x69,0x74,0x63,0x68,0x69,0x69,0x3a,0x0c,0x40,0x76,0x6f,0x6c,0x75,0x6d,0x65,0x69,0x55))
  TeleportPlayer(0,715,6,13,2,0)
  ChangeSwitch(100,100,0)
  0()



EVENT   34
 PAGE   1
  If(1,1063,0,12,2)
   ShowMessageFace("",0,0,2,1)
   ShowMessage("\\n<Soldier>はぅぅぅ……王妃様ぁぁぁ……")
   0()
  EndIf()
  If(1,1063,0,13,1)
   ShowMessageFace("",0,0,2,2)
   ShowMessage("\\n<Soldier>「陰陽師」と「戦士」をマスターすれば、「陰陽剣士」に転職できるという。")
   ShowMessage("陰陽術式を剣に込める、特殊な剣士というわけだ。")
   ShowMessageFace("",0,0,2,3)
   ShowMessage("\\n<Soldier>風や土など自然属性の剣技が使え、なおかつ属性耐性を下げる効果もある。")
   ShowMessage("陰陽師を極めたら、こちらの道に進むというのも悪くはないな。")
   0()
  EndIf()
  0()



EVENT   35
 PAGE   1
  250(bytes(0x04,0x08,0x6f,0x3a,0x0c,0x52,0x50,0x47,0x3a,0x3a,0x53,0x45,0x08,0x3a,0x0a,0x40,0x6e,0x61,0x6d,0x65,0x49,0x22,0x09,0x4d,0x6f,0x76,0x65,0x06,0x3a,0x06,0x45,0x54,0x3a,0x0b,0x40,0x70,0x69,0x74,0x63,0x68,0x69,0x69,0x3a,0x0c,0x40,0x76,0x6f,0x6c,0x75,0x6d,0x65,0x69,0x55))
  TeleportPlayer(0,2,234,153,2,0)
  0()



EVENT   36
 PAGE   1
  250(bytes(0x04,0x08,0x6f,0x3a,0x0c,0x52,0x50,0x47,0x3a,0x3a,0x53,0x45,0x08,0x3a,0x0a,0x40,0x6e,0x61,0x6d,0x65,0x49,0x22,0x09,0x4d,0x6f,0x76,0x65,0x06,0x3a,0x06,0x45,0x54,0x3a,0x0b,0x40,0x70,0x69,0x74,0x63,0x68,0x69,0x69,0x3a,0x0c,0x40,0x76,0x6f,0x6c,0x75,0x6d,0x65,0x69,0x55))
  TeleportPlayer(0,2,234,153,2,0)
  0()



EVENT   37
 PAGE   1
  250(bytes(0x04,0x08,0x6f,0x3a,0x0c,0x52,0x50,0x47,0x3a,0x3a,0x53,0x45,0x08,0x3a,0x0a,0x40,0x6e,0x61,0x6d,0x65,0x49,0x22,0x09,0x4d,0x6f,0x76,0x65,0x06,0x3a,0x06,0x45,0x54,0x3a,0x0b,0x40,0x70,0x69,0x74,0x63,0x68,0x69,0x69,0x3a,0x0c,0x40,0x76,0x6f,0x6c,0x75,0x6d,0x65,0x69,0x55))
  TeleportPlayer(0,2,234,153,2,0)
  0()



EVENT   38
 PAGE   1
  250(bytes(0x04,0x08,0x6f,0x3a,0x0c,0x52,0x50,0x47,0x3a,0x3a,0x53,0x45,0x08,0x3a,0x0a,0x40,0x6e,0x61,0x6d,0x65,0x49,0x22,0x09,0x4d,0x6f,0x76,0x65,0x06,0x3a,0x06,0x45,0x54,0x3a,0x0b,0x40,0x70,0x69,0x74,0x63,0x68,0x69,0x69,0x3a,0x0c,0x40,0x76,0x6f,0x6c,0x75,0x6d,0x65,0x69,0x55))
  TeleportPlayer(0,2,234,153,2,0)
  0()



EVENT   39
 PAGE   1
  250(bytes(0x04,0x08,0x6f,0x3a,0x0c,0x52,0x50,0x47,0x3a,0x3a,0x53,0x45,0x08,0x3a,0x0a,0x40,0x6e,0x61,0x6d,0x65,0x49,0x22,0x09,0x4d,0x6f,0x76,0x65,0x06,0x3a,0x06,0x45,0x54,0x3a,0x0b,0x40,0x70,0x69,0x74,0x63,0x68,0x69,0x69,0x3a,0x0c,0x40,0x76,0x6f,0x6c,0x75,0x6d,0x65,0x69,0x55))
  TeleportPlayer(0,2,234,153,2,0)
  0()



EVENT   40
 PAGE   1
  250(bytes(0x04,0x08,0x6f,0x3a,0x0c,0x52,0x50,0x47,0x3a,0x3a,0x53,0x45,0x08,0x3a,0x0a,0x40,0x6e,0x61,0x6d,0x65,0x49,0x22,0x09,0x4d,0x6f,0x76,0x65,0x06,0x3a,0x06,0x45,0x54,0x3a,0x0b,0x40,0x70,0x69,0x74,0x63,0x68,0x69,0x69,0x3a,0x0c,0x40,0x76,0x6f,0x6c,0x75,0x6d,0x65,0x69,0x55))
  TeleportPlayer(0,2,234,153,2,0)
  0()



EVENT   41
 PAGE   1
  250(bytes(0x04,0x08,0x6f,0x3a,0x0c,0x52,0x50,0x47,0x3a,0x3a,0x53,0x45,0x08,0x3a,0x0a,0x40,0x6e,0x61,0x6d,0x65,0x49,0x22,0x09,0x4d,0x6f,0x76,0x65,0x06,0x3a,0x06,0x45,0x54,0x3a,0x0b,0x40,0x70,0x69,0x74,0x63,0x68,0x69,0x69,0x3a,0x0c,0x40,0x76,0x6f,0x6c,0x75,0x6d,0x65,0x69,0x55))
  TeleportPlayer(0,2,234,153,2,0)
  0()



EVENT   42
 PAGE   1
  250(bytes(0x04,0x08,0x6f,0x3a,0x0c,0x52,0x50,0x47,0x3a,0x3a,0x53,0x45,0x08,0x3a,0x0a,0x40,0x6e,0x61,0x6d,0x65,0x49,0x22,0x09,0x4d,0x6f,0x76,0x65,0x06,0x3a,0x06,0x45,0x54,0x3a,0x0b,0x40,0x70,0x69,0x74,0x63,0x68,0x69,0x69,0x3a,0x0c,0x40,0x76,0x6f,0x6c,0x75,0x6d,0x65,0x69,0x55))
  TeleportPlayer(0,2,234,153,2,0)
  0()



EVENT   43
 PAGE   1
  If(1,1063,0,12,2)
   ShowMessageFace("",0,0,2,1)
   ShowMessage("\\n<パン売りの女>パン、パン……")
   ShowMessage("王妃様ぁぁ……私のパンをぉぉぉ……")
   0()
  EndIf()
  If(1,1063,0,13,1)
   ShowMessageFace("",0,0,2,2)
   ShowMessage("\\n<パン売りの女>グランゴルド名物、おいしいパンはいかがですか？")
   ShowMessage("この味を知れば、もうグランドノアのパンなんて食べられませんよ♪")
   0()
  EndIf()
  Shop(0,343,0,0,false)
  605(0,345,0,0)
  605(0,346,0,0)
  605(0,348,0,0)
  605(0,350,0,0)
  605(0,351,0,0)
  605(0,352,0,0)
  0()



EVENT   44
 PAGE   1
  241(bytes(0x04,0x08,0x6f,0x3a,0x0d,0x52,0x50,0x47,0x3a,0x3a,0x42,0x47,0x4d,0x08,0x3a,0x0a,0x40,0x6e,0x61,0x6d,0x65,0x49,0x22,0x0a,0x6d,0x75,0x72,0x61,0x33,0x06,0x3a,0x06,0x45,0x54,0x3a,0x0c,0x40,0x76,0x6f,0x6c,0x75,0x6d,0x65,0x69,0x69,0x3a,0x0b,0x40,0x70,0x69,0x74,0x63,0x68,0x69,0x69))
  If(0,4,0)
   ShowMessageFace("alice_fc5",0,0,2,1)
   ShowMessage("\\n<Alice>We made it to the enemy capital, Grangold...\nAs expected, the impure aura here is intense.")
   ShowMessageFace("alice_fc5",0,0,2,2)
   ShowMessage("\\n<Alice>So if it's even thicker here...")
   0()
  EndIf()
  If(0,5,0)
   ShowMessageFace("iriasu_fc4",2,0,2,3)
   ShowMessage("\\n<Ilias>We have finally arrived at the capital, Grangold. As expected, the impure aura here is intense.")
   ShowMessageFace("iriasu_fc4",2,0,2,4)
   ShowMessage("\\n<Ilias>So if it's even thicker here...")
   0()
  EndIf()
  ShowMessageFace("",0,0,2,5)
  ShowMessage("\\n<Guard>Aaaaah... My, my queen...")
  If(0,6,0)
   ShowMessageFace("sonia_fc2",2,0,2,6)
   ShowMessage("\\n<Sonya>Welp, the guards here are totally worthless.\nThat's good news for us, I suppose.")
   0()
  Else()
   ShowMessageFace("ruka_fc1",0,0,2,7)
   ShowMessage("\\n<Luka>Well, the guards here are totally worthless.\nThat's good news for us, I suppose.")
   0()
  EndIf()
  If(0,4,0)
   ShowMessageFace("alice_fc5",2,0,2,8)
   ShowMessage("\\n<Alice>...Wait, there's an ant girl coming right for us!")
   0()
  EndIf()
  If(0,5,0)
   ShowMessageFace("iriasu_fc4",7,0,2,9)
   ShowMessage("\\n<Ilias>...Wait, there's an ant girl coming right for us!")
   0()
  EndIf()
  ChangeSwitch(31,31,0)
  205(49,bytes(0x04,0x08,0x6f,0x3a,0x13,0x52,0x50,0x47,0x3a,0x3a,0x4d,0x6f,0x76,0x65,0x52,0x6f,0x75,0x74,0x65,0x09,0x3a,0x0c,0x40,0x72,0x65,0x70,0x65,0x61,0x74,0x46,0x3a,0x0f,0x40,0x73,0x6b,0x69,0x70,0x70,0x61,0x62,0x6c,0x65,0x46,0x3a,0x0a,0x40,0x77,0x61,0x69,0x74,0x54,0x3a,0x0a,0x40,0x6c,0x69,0x73,0x74,0x5b,0x0e,0x6f,0x3a,0x15,0x52,0x50,0x47,0x3a,0x3a,0x4d,0x6f,0x76,0x65,0x43,0x6f,0x6d,0x6d,0x61,0x6e,0x64,0x07,0x3a,0x0a,0x40,0x63,0x6f,0x64,0x65,0x69,0x06,0x3a,0x10,0x40,0x70,0x61,0x72,0x61,0x6d,0x65,0x74,0x65,0x72,0x73,0x5b,0x00,0x6f,0x3b,0x0a,0x07,0x3b,0x0b,0x69,0x06,0x3b,0x0c,0x5b,0x00,0x6f,0x3b,0x0a,0x07,0x3b,0x0b,0x69,0x06,0x3b,0x0c,0x5b,0x00,0x6f,0x3b,0x0a,0x07,0x3b,0x0b,0x69,0x06,0x3b,0x0c,0x5b,0x00,0x6f,0x3b,0x0a,0x07,0x3b,0x0b,0x69,0x06,0x3b,0x0c,0x5b,0x00,0x6f,0x3b,0x0a,0x07,0x3b,0x0b,0x69,0x06,0x3b,0x0c,0x5b,0x00,0x6f,0x3b,0x0a,0x07,0x3b,0x0b,0x69,0x06,0x3b,0x0c,0x5b,0x00,0x6f,0x3b,0x0a,0x07,0x3b,0x0b,0x69,0x16,0x3b,0x0c,0x5b,0x00,0x6f,0x3b,0x0a,0x07,0x3b,0x0b,0x69,0x00,0x3b,0x0c,0x5b,0x00))
  ShowMessageFace("ant_fc1",0,0,2,10)
  ShowMessage("\\n<Ant Girl>.........")
  ShowMessageFace("",0,0,2,11)
  ShowMessage("\\n<Guard>My queeeeeen... Ahehehehe...")
  ShowMessageFace("ant_fc1",0,0,2,12)
  ShowMessage("\\n<Ant Girl>...OKAY.")
  ShowMessageFace("ant_fc1",0,0,2,13)
  ShowMessage("\\n<Ant Girl>...MM?")
  205(49,bytes(0x04,0x08,0x6f,0x3a,0x13,0x52,0x50,0x47,0x3a,0x3a,0x4d,0x6f,0x76,0x65,0x52,0x6f,0x75,0x74,0x65,0x09,0x3a,0x0c,0x40,0x72,0x65,0x70,0x65,0x61,0x74,0x46,0x3a,0x0f,0x40,0x73,0x6b,0x69,0x70,0x70,0x61,0x62,0x6c,0x65,0x46,0x3a,0x0a,0x40,0x77,0x61,0x69,0x74,0x46,0x3a,0x0a,0x40,0x6c,0x69,0x73,0x74,0x5b,0x09,0x6f,0x3a,0x15,0x52,0x50,0x47,0x3a,0x3a,0x4d,0x6f,0x76,0x65,0x43,0x6f,0x6d,0x6d,0x61,0x6e,0x64,0x07,0x3a,0x0a,0x40,0x63,0x6f,0x64,0x65,0x69,0x06,0x3a,0x10,0x40,0x70,0x61,0x72,0x61,0x6d,0x65,0x74,0x65,0x72,0x73,0x5b,0x00,0x6f,0x3b,0x0a,0x07,0x3b,0x0b,0x69,0x06,0x3b,0x0c,0x5b,0x00,0x6f,0x3b,0x0a,0x07,0x3b,0x0b,0x69,0x17,0x3b,0x0c,0x5b,0x00,0x6f,0x3b,0x0a,0x07,0x3b,0x0b,0x69,0x00,0x3b,0x0c,0x5b,0x00))
  If(0,6,0)
   ShowMessageFace("sonia_fc2",0,0,2,14)
   ShowMessage("\\n<Sonya>Wh-what do we do?")
   0()
  EndIf()
  If(0,4,0)
   ShowMessageFace("alice_fc5",6,0,2,15)
   ShowMessage("\\n<Alice>Oh crap! Luka, play along!")
   0()
  EndIf()
  If(0,5,0)
   ShowMessageFace("iriasu_fc4",5,0,2,16)
   ShowMessage("\\n<Ilias>Crap! Luka, play along!")
   0()
  EndIf()
  205(-1,bytes(0x04,0x08,0x6f,0x3a,0x13,0x52,0x50,0x47,0x3a,0x3a,0x4d,0x6f,0x76,0x65,0x52,0x6f,0x75,0x74,0x65,0x09,0x3a,0x0c,0x40,0x72,0x65,0x70,0x65,0x61,0x74,0x46,0x3a,0x0f,0x40,0x73,0x6b,0x69,0x70,0x70,0x61,0x62,0x6c,0x65,0x46,0x3a,0x0a,0x40,0x77,0x61,0x69,0x74,0x54,0x3a,0x0a,0x40,0x6c,0x69,0x73,0x74,0x5b,0x07,0x6f,0x3a,0x15,0x52,0x50,0x47,0x3a,0x3a,0x4d,0x6f,0x76,0x65,0x43,0x6f,0x6d,0x6d,0x61,0x6e,0x64,0x07,0x3a,0x0a,0x40,0x63,0x6f,0x64,0x65,0x69,0x16,0x3a,0x10,0x40,0x70,0x61,0x72,0x61,0x6d,0x65,0x74,0x65,0x72,0x73,0x5b,0x00,0x6f,0x3b,0x0a,0x07,0x3b,0x0b,0x69,0x00,0x3b,0x0c,0x5b,0x00))
  ShowMessageFace("ant_fc1",0,0,2,17)
  ShowMessage("\\n<Ant Girl>.........")
  ShowMessageFace("ruka_fc1",0,0,2,18)
  ShowMessage("\\n<Luka>My queeeeeen... Ahehehehe...")
  ShowMessageFace("ant_fc1",0,0,2,19)
  ShowMessage("\\n<Ant Girl>...OKAY.")
  205(49,bytes(0x04,0x08,0x6f,0x3a,0x13,0x52,0x50,0x47,0x3a,0x3a,0x4d,0x6f,0x76,0x65,0x52,0x6f,0x75,0x74,0x65,0x09,0x3a,0x0c,0x40,0x72,0x65,0x70,0x65,0x61,0x74,0x46,0x3a,0x0f,0x40,0x73,0x6b,0x69,0x70,0x70,0x61,0x62,0x6c,0x65,0x46,0x3a,0x0a,0x40,0x77,0x61,0x69,0x74,0x54,0x3a,0x0a,0x40,0x6c,0x69,0x73,0x74,0x5b,0x0e,0x6f,0x3a,0x15,0x52,0x50,0x47,0x3a,0x3a,0x4d,0x6f,0x76,0x65,0x43,0x6f,0x6d,0x6d,0x61,0x6e,0x64,0x07,0x3a,0x0a,0x40,0x63,0x6f,0x64,0x65,0x69,0x09,0x3a,0x10,0x40,0x70,0x61,0x72,0x61,0x6d,0x65,0x74,0x65,0x72,0x73,0x5b,0x00,0x6f,0x3b,0x0a,0x07,0x3b,0x0b,0x69,0x09,0x3b,0x0c,0x5b,0x00,0x6f,0x3b,0x0a,0x07,0x3b,0x0b,0x69,0x09,0x3b,0x0c,0x5b,0x00,0x6f,0x3b,0x0a,0x07,0x3b,0x0b,0x69,0x09,0x3b,0x0c,0x5b,0x00,0x6f,0x3b,0x0a,0x07,0x3b,0x0b,0x69,0x09,0x3b,0x0c,0x5b,0x00,0x6f,0x3b,0x0a,0x07,0x3b,0x0b,0x69,0x09,0x3b,0x0c,0x5b,0x00,0x6f,0x3b,0x0a,0x07,0x3b,0x0b,0x69,0x09,0x3b,0x0c,0x5b,0x00,0x6f,0x3b,0x0a,0x07,0x3b,0x0b,0x69,0x09,0x3b,0x0c,0x5b,0x00,0x6f,0x3b,0x0a,0x07,0x3b,0x0b,0x69,0x00,0x3b,0x0c,0x5b,0x00))
  ChangeSwitch(31,31,1)
  205(-1,bytes(0x04,0x08,0x6f,0x3a,0x13,0x52,0x50,0x47,0x3a,0x3a,0x4d,0x6f,0x76,0x65,0x52,0x6f,0x75,0x74,0x65,0x09,0x3a,0x0c,0x40,0x72,0x65,0x70,0x65,0x61,0x74,0x46,0x3a,0x0f,0x40,0x73,0x6b,0x69,0x70,0x70,0x61,0x62,0x6c,0x65,0x46,0x3a,0x0a,0x40,0x77,0x61,0x69,0x74,0x54,0x3a,0x0a,0x40,0x6c,0x69,0x73,0x74,0x5b,0x07,0x6f,0x3a,0x15,0x52,0x50,0x47,0x3a,0x3a,0x4d,0x6f,0x76,0x65,0x43,0x6f,0x6d,0x6d,0x61,0x6e,0x64,0x07,0x3a,0x0a,0x40,0x63,0x6f,0x64,0x65,0x69,0x18,0x3a,0x10,0x40,0x70,0x61,0x72,0x61,0x6d,0x65,0x74,0x65,0x72,0x73,0x5b,0x00,0x6f,0x3b,0x0a,0x07,0x3b,0x0b,0x69,0x00,0x3b,0x0c,0x5b,0x00))
  If(0,6,0)
   ShowMessageFace("sonia_fc1",4,0,2,20)
   ShowMessage("\\n<Sonya>Whew... You tricked her.")
   0()
  Else()
   ShowMessageFace("ruka_fc1",0,0,2,21)
   ShowMessage("\\n<Luka>Whew... She bought it.")
   0()
  EndIf()
  If(4,53,0)
   ShowMessageFace("slime_fc1",2,0,2,22)
   ShowMessage("\\n<Lime>My heart is racing so fast...")
   0()
  EndIf()
  If(0,4,0)
   ShowMessageFace("alice_fc5",0,0,2,23)
   ShowMessage("\\n<Alice>The city defense is a sieve, but the palace won't be as open. Mephisto, what should we do next?")
   0()
  EndIf()
  If(0,5,0)
   ShowMessageFace("iriasu_fc4",2,0,2,24)
   ShowMessage("\\n<Ilias>The city defense is a sieve, but the palace won't be so easy. Mephisto, what's the plan?")
   0()
  EndIf()
  If(12,"exist_party_persona_id?(391)")
   ShowMessageFace("mefist_fc2",0,0,2,25)
   ShowMessage("\\n<Mephisto>We need to find the bar where our final contact should be waiting for us.")
   0()
  Else()
   ShowMessageFace("mefist_fc1",0,0,2,26)
   ShowMessage("\\n<Mephisto>We need to find the bar where our final contact should be waiting for us.")
   0()
  EndIf()
  If(0,6,0)
   ShowMessageFace("sonia_fc2",2,0,2,27)
   ShowMessage("\\n<Sonya>Another bar? Do spies just really like bars?")
   0()
  Else()
   ShowMessageFace("ruka_fc1",0,0,2,28)
   ShowMessage("\\n<Luka>Another bar? Do spies just really like bars?")
   0()
  EndIf()
  If(12,"exist_party_persona_id?(391)")
   ShowMessageFace("mefist_fc2",0,0,2,29)
   ShowMessage("\\n<Mephisto>We formed these plans in the Brewers Guild. They've always had a strong link to the underworld.")
   0()
  Else()
   ShowMessageFace("mefist_fc1",0,0,2,30)
   ShowMessage("\\n<Mephisto>We formed these plans in the Brewers Guild. They've always had a strong link to the underworld.")
   0()
  EndIf()
  ShowMessageFace("ruka_fc1",0,0,2,31)
  ShowMessage("\\n<Luka>The underworld?")
  ShowMessageFace("",0,0,2,32)
  ShowMessage("Anyway, we need to meet up with our final contact at the bar. The last phase of our counteroffensive against Grangold is about to begin--")
  ChangeVariable(1063,1063,0,0,10)
  EndEventProcessing()
  0()
 PAGE   2
  // condition: variable 1063 >= 10
  0()
 PAGE   3
  // condition: variable 1063 >= 13
  If(0,4,0)
   ShowMessageFace("alice_fc5",0,0,2,1)
   ShowMessage("\\n<Alice>Come to think of it...\nWe haven't properly spoken with the residents here or in Goddard.")
   0()
  EndIf()
  If(0,5,0)
   ShowMessageFace("iriasu_fc4",0,0,2,2)
   ShowMessage("\\n<Ilias>Come to think of it...\nWe have not properly spoken with the residents here or in Goddard.")
   0()
  EndIf()
  If(0,6,0)
   ShowMessageFace("sonia_fc2",2,0,2,3)
   ShowMessage("\\n<Sonya>Yeah, everyone had lost their minds when we came here before. This is the first time we've been here for real.")
   0()
  Else()
   ShowMessageFace("ruka_fc1",0,0,2,4)
   ShowMessage("\\n<Luka>Yeah, everyone had lost their minds when we came here before. This is the first time we've been here for real.")
   0()
  EndIf()
  If(0,4,0)
   ShowMessageFace("alice_fc5",0,0,2,5)
   ShowMessage("\\n<Alice>It wouldn't be a bad idea to talk to everyone again. We might pick up some valuable information from them.")
   0()
  EndIf()
  If(0,5,0)
   ShowMessageFace("iriasu_fc4",0,0,2,6)
   ShowMessage("\\n<Ilias>I recommend speaking to everyone again. We may obtain some valuable news in the process.")
   0()
  EndIf()
  ChangeSelfSwitch("A",0)
  0()
 PAGE   4
  // condition: self-switch A is ON
  0()



EVENT   45
 PAGE   1
  If(1,1063,0,12,2)
   ShowMessageFace("",0,0,2,1)
   ShowMessage("\\n<Mage>Aaah, my queen...\nMy lovely queeeeeeen...")
   0()
  EndIf()
  If(1,1063,0,13,1)
   ShowMessageFace("",0,0,2,2)
   ShowMessage("\\n<Mage>I've heard that the highest rank mage jobs specialize between the three elements of fire, ice, and lightning. I'm looking to master ice magic myself...")
   ShowMessageFace("",0,0,2,3)
   ShowMessage("\\n<Mage>Apparently the King of Grangold holds the job change item needed for those jobs, but seeing as how it's a royal treasure, he never even lends it out...")
   0()
  EndIf()
  0()



EVENT   46
 PAGE   1
  // condition: switch 1540 is ON
  // condition: variable 1063 >= 13
  241(bytes(0x04,0x08,0x6f,0x3a,0x0d,0x52,0x50,0x47,0x3a,0x3a,0x42,0x47,0x4d,0x08,0x3a,0x0a,0x40,0x6e,0x61,0x6d,0x65,0x49,0x22,0x0a,0x61,0x6d,0x69,0x72,0x61,0x06,0x3a,0x06,0x45,0x54,0x3a,0x0c,0x40,0x76,0x6f,0x6c,0x75,0x6d,0x65,0x69,0x69,0x3a,0x0b,0x40,0x70,0x69,0x74,0x63,0x68,0x69,0x69))
  If(2,"A",1)
   ChangeSelfSwitch("A",0)
   RunCommonEvent(322)
   0()
  Else()
   ShowMessageFace("amira_fc1",0,0,2,1)
   ShowMessage("\\n<Amira>You've found me here. Keep searching for me...")
   0()
  EndIf()
  241(bytes(0x04,0x08,0x6f,0x3a,0x0d,0x52,0x50,0x47,0x3a,0x3a,0x42,0x47,0x4d,0x08,0x3a,0x0a,0x40,0x6e,0x61,0x6d,0x65,0x49,0x22,0x0a,0x63,0x69,0x74,0x79,0x31,0x06,0x3a,0x06,0x45,0x54,0x3a,0x0c,0x40,0x76,0x6f,0x6c,0x75,0x6d,0x65,0x69,0x69,0x3a,0x0b,0x40,0x70,0x69,0x74,0x63,0x68,0x69,0x69))
  EndEventProcessing()
  0()
 PAGE   2
  // condition: party contains actor #540
  0()



EVENT   47
 PAGE   1
  If(1,1063,0,12,2)
   ShowMessageFace("",0,0,2,1)
   ShowMessage("\\n<Soldier>あんない、あんない……")
   ShowMessage("あ～～～～、い～～～～！")
   0()
  EndIf()
  If(1,1063,0,13,1)
   ShowMessageFace("",0,0,2,2)
   ShowMessage("\\n<Soldier>ようこそ、グランゴルドへ。")
   ShowMessage("町を案内致しましょう。")
   0()
  EndIf()
  355("unlimited_choices(11, [\"Inn\",")
  655("\"Equipment Shop-Blacksmith\",\"Accessory Shop\",")
  655("\"Item Shop\",\"Bar\",\"Church\",\"Nowhere\"])")
  If(1,11,0,0,0)
   TeleportPlayer(0,37,59,28,2,0)
   EndEventProcessing()
   0()
  EndIf()
  If(1,11,0,1,0)
   TeleportPlayer(0,37,32,42,2,0)
   EndEventProcessing()
   0()
  EndIf()
  If(1,11,0,2,0)
   TeleportPlayer(0,37,38,29,2,0)
   EndEventProcessing()
   0()
  EndIf()
  If(1,11,0,3,0)
   TeleportPlayer(0,37,27,29,2,0)
   EndEventProcessing()
   0()
  EndIf()
  If(1,11,0,4,0)
   TeleportPlayer(0,37,62,39,2,0)
   EndEventProcessing()
   0()
  EndIf()
  If(1,11,0,5,0)
   TeleportPlayer(0,37,57,49,2,0)
   EndEventProcessing()
   0()
  EndIf()
  If(1,11,0,6,0)
   EndEventProcessing()
   0()
  EndIf()
  0()



EVENT   48
 PAGE   1
  If(1,1001,0,28,2)
   If(1,1063,0,12,2)
    ShowMessageFace("",0,0,2,1)
    ShowMessage("\\n<Soldier>へへへへ……うへ、えへへ……へへへへへ……")
    EndEventProcessing()
    0()
   EndIf()
   If(1,1063,0,13,1)
    ShowMessageFace("",0,0,2,2)
    ShowMessage("\\n<Soldier>内地はもちろん、国境付近も平穏そのものです。")
    ShowMessage("魔王は、こちらの油断を待っているのでしょうか……")
    If(0,4,0)
     ShowMessageFace("alice_fc5",2,0,2,3)
     ShowMessage("\\n<Alice>油断させたいなら、宣戦布告などやるはずもない……")
     ShowMessage("魔王の真意は、どこにあるのだ？")
     0()
    EndIf()
    If(0,5,0)
     ShowMessageFace("iriasu_fc4",2,0,2,4)
     ShowMessage("\\n<Ilias>油断させたいのなら、宣戦布告は逆効果です。")
     ShowMessage("あの狡猾な魔王の事、必ず意図があるはずですが……")
     0()
    EndIf()
    EndEventProcessing()
    0()
   EndIf()
   0()
  EndIf()
  If(1,1001,0,29,1)
   ShowMessageFace("",0,0,2,5)
   ShowMessage("\\n<Soldier>町は、あの謎の生物？の話題で持ちきりです。")
   ShowMessage("襲撃の最中に現れ、圧倒的な力で蜘蛛達を薙ぎ倒したとか……")
   EndEventProcessing()
   0()
  EndIf()
  0()



EVENT   49
 PAGE   1
  // condition: switch 31 is ON
  0()



EVENT   50
 PAGE   1
  // condition: variable 1063 >= 13
  ShowMessageFace("",0,0,2,1)
  ShowMessage("\\n<Middle-age Man>I feel so good...")
  0()



EVENT   51
 PAGE   1
  // condition: variable 1063 >= 13
  ShowMessageFace("",0,0,2,1)
  ShowMessage("\\n<Soldier>Aaah...")
  0()



EVENT   52
 PAGE   1
  // condition: variable 1063 >= 13
  ShowMessageFace("",0,0,2,1)
  ShowMessage("\\n<Soldier>My fellow soldiers...\nHave gone completely nuts...")
  0()



EVENT   53
 PAGE   1
  If(1,1063,0,12,2)
   ShowMessageFace("",0,0,2,1)
   ShowMessage("Imperial Warehouse")
   ShowMessage("No Trespassing")
   EndEventProcessing()
   0()
  EndIf()
  If(1,1063,0,13,1)
   ShowMessageFace("",0,0,2,2)
   ShowMessage("Temporary Palace")
   EndEventProcessing()
   0()
  EndIf()
  0()



EVENT   54
 PAGE   1
  ShowMessageFace("",0,0,2,1)
  ShowMessage("\\n<Youth>.........")
  0()
 PAGE   2
  // condition: variable 1063 >= 13
  0()



EVENT   55
 PAGE   1
  ShowMessageFace("",0,0,2,1)
  ShowMessage("\\n<Middle-age Man>.........")
  0()
 PAGE   2
  // condition: variable 1063 >= 13
  0()



EVENT   56
 PAGE   1
  If(1,1063,0,12,2)
   ShowMessageFace("ant_fc1",0,0,2,1)
   ShowMessage("\\n<Ant Girl>.........")
   ShowMessageFace("ruka_fc1",0,0,2,2)
   ShowMessage("\\n<Luka>My queeeeeen... Ahehehehe...")
   ShowMessageFace("ant_fc1",0,0,2,3)
   ShowMessage("\\n<Ant Girl>...OKAY.")
   EndEventProcessing()
   0()
  EndIf()
  If(1,1063,0,13,1)
   ShowMessageFace("ant_fc1",0,0,2,4)
   ShowMessage("\\n<Ant Girl>今ハ、グランゴルド軍ニ雇ワレテル……")
   ShowMessage("見回リ中……")
   EndEventProcessing()
   0()
  EndIf()
  0()



EVENT   57
 PAGE   1
  If(1,1063,0,12,2)
   ShowMessageFace("ant_fc1",0,0,2,1)
   ShowMessage("\\n<Ant Girl>.........")
   If(4,567,0)
    ShowMessageFace("pants_fc1",1,0,2,2)
    ShowMessage("\\n<Panty Sensei>Panties... Haaa, haaa...\nPanties...")
    ShowMessageFace("ant_fc1",0,0,2,3)
    ShowMessage("\\n<Ant Girl>...OKAY.")
    If(0,6,0)
     ShowMessageFace("sonia_fc3",2,0,2,4)
     ShowMessage("\\n<Sonya>HE PASSED!?")
     0()
    EndIf()
    0()
   Else()
    ShowMessageFace("ruka_fc1",0,0,2,5)
    ShowMessage("\\n<Luka>My queeeeeen... Ahehehehe...")
    ShowMessageFace("ant_fc1",0,0,2,6)
    ShowMessage("\\n<Ant Girl>...OKAY.")
    0()
   EndIf()
   EndEventProcessing()
   0()
  EndIf()
  If(1,1063,0,13,1)
   ShowMessageFace("ant_fc1",0,0,2,7)
   ShowMessage("\\n<Ant Girl>FOR THE QUEEN!")
   EndEventProcessing()
   0()
  EndIf()
  0()



EVENT   58
 PAGE   1
  If(1,1063,0,12,2)
   ShowMessageFace("ant_fc1",0,0,2,1)
   ShowMessage("\\n<Ant Girl>.........")
   If(4,566,0)
    ShowMessageFace("sukatoro_fc1",0,0,2,2)
    ShowMessage("【スカトロ大尉】（好感度：\\V[1566]）")
    ShowMessage("大きな星が、ついたり消えたりしている……")
    ShowMessage("あはは、大きい……シャアかな？　いや、違う……違うな……")
    ShowMessageFace("ant_fc1",0,0,2,3)
    ShowMessage("\\n<Ant Girl>...OKAY.")
    If(0,6,0)
     ShowMessageFace("sonia_fc3",2,0,2,4)
     ShowMessage("\\n<Sonya>HE PASSED!?")
     0()
    EndIf()
    0()
   Else()
    ShowMessageFace("ruka_fc1",0,0,2,5)
    ShowMessage("\\n<Luka>My queeeeeen... Ahehehehe...")
    ShowMessageFace("ant_fc1",0,0,2,6)
    ShowMessage("\\n<Ant Girl>...OKAY.")
    0()
   EndIf()
   EndEventProcessing()
   0()
  EndIf()
  If(1,1063,0,13,1)
   ShowMessageFace("ant_fc1",0,0,2,7)
   ShowMessage("\\n<Ant Girl>不審人物、ナシ！")
   EndEventProcessing()
   0()
  EndIf()
  0()



EVENT   59
 PAGE   1
  If(1,1063,0,12,2)
   ShowMessageFace("ant_fc1",0,0,2,1)
   ShowMessage("\\n<Ant Girl>.........")
   If(0,6,0)
    ShowMessageFace("sonia_fc3",3,0,2,2)
    ShowMessage("\\n<Sonya>My queeeeeen... Ahehehehe...")
    ShowMessageFace("ant_fc1",0,0,2,3)
    ShowMessage("\\n<Ant Girl>...OKAY.")
    If(0,4,0)
     ShowMessageFace("alice_fc5",0,0,2,4)
     ShowMessage("\\n<Alice>（意外に演技派だな……）")
     0()
    EndIf()
    If(0,5,0)
     ShowMessageFace("iriasu_fc4",2,0,2,5)
     ShowMessage("\\n<Ilias>（意外に演技派ですね……）")
     0()
    EndIf()
    0()
   Else()
    ShowMessageFace("ruka_fc1",0,0,2,6)
    ShowMessage("\\n<Luka>My queeeeeen... Ahehehehe...")
    ShowMessageFace("ant_fc1",0,0,2,7)
    ShowMessage("\\n<Ant Girl>...OKAY.")
    0()
   EndIf()
   EndEventProcessing()
   0()
  EndIf()
  If(1,1063,0,13,1)
   ShowMessageFace("ant_fc1",0,0,2,8)
   ShowMessage("\\n<Ant Girl>悪イ奴、イナイ……")
   EndEventProcessing()
   0()
  EndIf()
  0()



EVENT   60
 PAGE   1
  If(1,1063,0,12,2)
   ShowMessageFace("ant_fc1",0,0,2,1)
   ShowMessage("\\n<Ant Girl>.........")
   If(4,569,0)
    ShowMessageFace("kakyouin_fc1",0,0,2,2)
    ShowMessage("\\n<花京淫>ウヒッ、フヒヒッ……")
    ShowMessage("ウヒヒアハハ！")
    0()
   Else()
    ShowMessageFace("ruka_fc1",0,0,2,3)
    ShowMessage("\\n<Luka>My queeeeeen... Ahehehehe...")
    0()
   EndIf()
   ShowMessageFace("ant_fc1",0,0,2,4)
   ShowMessage("\\n<Ant Girl>...OKAY.")
   EndEventProcessing()
   0()
  EndIf()
  If(1,1063,0,13,1)
   ShowMessageFace("ant_fc1",0,0,2,5)
   ShowMessage("\\n<Ant Girl>EVERYTHING NORMAL!")
   EndEventProcessing()
   0()
  EndIf()
  0()



EVENT   61
 PAGE   1
  If(1,1063,0,12,2)
   ShowMessageFace("",0,0,2,1)
   ShowMessage("\\n<老人>ひーッ！　ひひーッ！！")
   EndEventProcessing()
   0()
  EndIf()
  If(1,1063,0,13,1)
   ShowMessageFace("",0,0,2,2)
   ShowMessage("\\n<老人>サキュバスの村……なんともロマンがあるのう。")
   ShowMessage("死ぬ前に、一度行ってみたいものじゃ。")
   355("actor_label_jump")
   EndEventProcessing()
   DefineLabel("281")
   ShowMessageFace("succubuses_fc1",0,0,2,3)
   ShowMessage("\\n<ハーレム>いらっしゃ～い♪")
   EndEventProcessing()
   0()
  EndIf()
  0()



EVENT   62
 PAGE   1
  If(1,1001,0,28,2)
   If(1,1063,0,12,2)
    ShowMessageFace("",0,0,2,1)
    ShowMessage("\\n<Youth>はっ！　はひひ……お、おうひ……ひひ――！！")
    If(0,4,0)
     ShowMessageFace("alice_fc6",0,0,2,2)
     ShowMessage("\\n<Alice>ゴッダールよりも、錯乱具合がひどい……")
     ShowMessage("これ以上長く淫気にさらされ続ければ、取り返しのつかん事になるぞ。")
     0()
    EndIf()
    If(0,5,0)
     ShowMessageFace("iriasu_fc4",7,0,2,3)
     ShowMessage("\\n<Ilias>ゴッダールよりも、錯乱具合がひどい……")
     ShowMessage("このまま行けば、後遺症が残るどころか命の危険さえ……")
     0()
    EndIf()
    ShowMessageFace("ruka_fc1",0,0,2,4)
    ShowMessage("\\n<Luka>一刻も早く、王妃を倒さないと……！")
    EndEventProcessing()
    0()
   EndIf()
   If(1,1063,0,13,1)
    ShowMessageFace("",0,0,2,5)
    ShowMessage("\\n<Youth>いやぁ、大変な目に遭ったみたいだね……")
    ShowMessage("実は自分でも、理性を失っていた間の事は記憶がないんだよ。")
    EndEventProcessing()
    0()
   EndIf()
   0()
  EndIf()
  If(1,1001,0,29,1)
   ShowMessageFace("",0,0,2,6)
   ShowMessage("\\n<Youth>あのラスボスみたいなの、何だったんだろうな……")
   ShowMessage("蜘蛛達を薙ぎ倒してたから、味方には違いないんだろうけど。")
   EndEventProcessing()
   0()
  EndIf()
  0()



EVENT   63
 PAGE   1
  If(1,1001,0,28,2)
   If(1,1063,0,12,2)
    ShowMessageFace("",0,0,2,1)
    ShowMessage("\\n<Middle-age Man>へへ……う、うえへ……おうひさまぁぁぁ……")
    EndEventProcessing()
    0()
   EndIf()
   If(1,1063,0,13,1)
    ShowMessageFace("",0,0,2,2)
    ShowMessage("\\n<Middle-age Man>新しい町で情報を集めるなら、まずは酒場が鉄則だ。")
    ShowMessage("あと宿屋も、冒険者が多く立ち寄るから外せないな。")
    ShowMessageFace("",0,0,2,3)
    ShowMessage("\\n<Middle-age Man>ん……すでに知ってるかい？")
    ShowMessage("確かに、今さらだよな。")
    EndEventProcessing()
    0()
   EndIf()
   0()
  EndIf()
  If(1,1001,0,29,1)
   ShowMessageFace("",0,0,2,4)
   ShowMessage("\\n<Middle-age Man>あれは、グランゴルド軍の最新ゴーレムだよ。")
   ShowMessage("間違いない、いずれあれが量産されて魔王に決戦を挑むのさ。")
   EndEventProcessing()
   0()
  EndIf()
  0()



EVENT   64
 PAGE   1
  If(1,1063,0,12,2)
   ShowMessageFace("",0,0,2,1)
   ShowMessage("\\n<Soldier>あー、あー……")
   EndEventProcessing()
   0()
  EndIf()
  If(1,1063,0,13,1)
   If(1,1066,0,4,2)
    ShowMessageFace("",0,0,2,2)
    ShowMessage("\\n<Soldier>貴婦人の村で、揉め事が起きているとか。")
    ShowMessage("なんと領主が政務を放棄し、引きこもってしまったというのです。")
    ShowMessageFace("",0,0,2,3)
    ShowMessage("\\n<Soldier>王からの使節にさえ、顔も見せようとしないとか。")
    ShowMessage("前から妙な噂のあった村だけに、気になる話ですね……")
    EndEventProcessing()
    0()
   EndIf()
   If(1,1066,0,5,1)
    ShowMessageFace("",0,0,2,4)
    ShowMessage("\\n<Soldier>貴婦人の村から、意味不明な報告が上がってきました。")
    ShowMessage("領主が若返り、村を出たというのです。")
    ShowMessageFace("",0,0,2,5)
    ShowMessage("\\n<Soldier>それでもなお、村は問題なく治まっているとか……")
    ShowMessage("さすが、セレブってのは色々と感覚が違いますね。")
    355("actor_label_jump")
    EndEventProcessing()
    DefineLabel("295")
    ShowMessageFace("cassandra_fc1",5,0,2,6)
    ShowMessage("\\n<Cassandra>うふふっ……")
    EndEventProcessing()
    0()
   EndIf()
   0()
  EndIf()
  0()



EVENT   65
 PAGE   1
  If(1,1001,0,28,2)
   If(1,1063,0,12,2)
    ShowMessageFace("",0,0,2,1)
    ShowMessage("\\n<Thug>ふひひひひ")
    EndEventProcessing()
    0()
   EndIf()
   If(1,1063,0,13,1)
    ShowMessageFace("",0,0,2,2)
    ShowMessage("\\n<Thug>いずれ魔王が、何万もの魔物を連れて攻め寄せてくるんだ……")
    ShowMessage("どうせなら、美女の妖魔に搾り殺されたいもんだな。")
    EndEventProcessing()
    0()
   EndIf()
   0()
  EndIf()
  If(1,1001,0,29,1)
   ShowMessageFace("",0,0,2,3)
   ShowMessage("\\n<Thug>まさか、蜘蛛の集団が攻めてくるなんてな……")
   ShowMessage("負傷者の運搬をやってた自分自身に、一番びっくりしたぜ。")
   ShowMessageFace("",0,0,2,4)
   ShowMessage("\\n<Thug>俺、もっとヘタレだと思ってたんだが……")
   ShowMessage("なんだか自信がついちまったよ。")
   EndEventProcessing()
   0()
  EndIf()
  0()



EVENT   66
 PAGE   1
  ShowMessageFace("",0,0,2,1)
  ShowMessage("\\n<Young Girl>おうひさまー！　おうひさまー！")
  0()
 PAGE   2
  // condition: variable 1063 >= 13
  0()



EVENT   67
 PAGE   1
  ShowMessageFace("",0,0,2,1)
  ShowMessage("\\n<Youth>はひ……は、は……")
  If(0,6,0)
   ShowMessageFace("sonia_fc3",7,0,2,2)
   ShowMessage("\\n<Sonya>この人、すごく弱ってる……")
   0()
  EndIf()
  If(0,4,0)
   ShowMessageFace("alice_fc6",0,0,2,3)
   ShowMessage("\\n<Alice>症状が軽いうちは、生存に必要な行動を本能的に行っていたが……")
   ShowMessage("もはや、それさえ出来んほどに精神汚染が進行しているのだ。")
   0()
  EndIf()
  If(0,5,0)
   ShowMessageFace("iriasu_fc4",7,0,2,4)
   ShowMessage("\\n<Ilias>症状が軽いうちは、生存に必要な行動を本能的に行っていますが……")
   ShowMessage("もはや、それさえ出来ないほど精神汚染が進行しているのですね。")
   0()
  EndIf()
  If(0,6,0)
   ShowMessageFace("sonia_fc3",7,0,2,5)
   ShowMessage("\\n<Sonya>とにかく、屋内に運び込んで……")
   0()
  Else()
   ShowMessageFace("ruka_fc1",0,0,2,6)
   ShowMessage("\\n<Luka>とにかく、屋内に運び込まないと……")
   0()
  EndIf()
  If(12,"exist_party_persona_id?(391)")
   ShowMessageFace("mefist_fc2",2,0,2,7)
   ShowMessage("\\n<Mephisto>ここまで来ると、屋内でも症状は変わりませんよ。")
   ShowMessage("迅速に淫気の元を断つ事が、何より効果のある救命ですね……")
   0()
  Else()
   ShowMessageFace("mefist_fc1",2,0,2,8)
   ShowMessage("\\n<Mephisto>ここまで来ると、屋内でも症状は変わりませんよ。")
   ShowMessage("迅速に淫気の元を断つ事が、何より効果のある救命ですね……")
   0()
  EndIf()
  0()
 PAGE   2
  // condition: variable 1063 >= 13
  ShowMessageFace("",0,0,2,1)
  ShowMessage("\\n<Youth>この地域には、火山洞窟が二つある。")
  ShowMessageFace("",0,0,2,2)
  ShowMessage("\\n<Youth>西にあるのは、ゴルド火山。")
  ShowMessage("サラマンダーが住んでいると言われる、危険な難所だ。")
  ShowMessageFace("",0,0,2,3)
  ShowMessage("\\n<Youth>その北西にあるのは、溶岩鉱窟。")
  ShowMessage("マグマの流れる危険な地下鉱山だが、オリハルコンが眠っているという。")
  ShowMessageFace("",0,0,2,4)
  ShowMessage("\\n<Youth>オリハルコンは、言わずと知れた神秘の鉱石。")
  ShowMessage("これを持っていれば、ゴルドでも最高クラスの武具を作ってもらえるぜ。")
  If(8,156)
   EndEventProcessing()
   0()
  Else()
   If(0,4,0)
    ShowMessageFace("alice_fc5",2,0,2,5)
    ShowMessage("\\n<Alice>ゴルド地方で最高クラスの武具か……")
    ShowMessage("何よりもまず、オリハルコンの入手を優先すべきかもしれんな。")
    0()
   EndIf()
   If(0,5,0)
    ShowMessageFace("iriasu_fc4",0,0,2,6)
    ShowMessage("\\n<Ilias>オリハルコンの武具は、実に魅力的ですね。")
    ShowMessage("現在、何よりも優先すべき目的とみました。")
    0()
   EndIf()
   0()
  EndIf()
  0()



EVENT   68
 PAGE   1
  ShowMessageFace("",0,0,2,1)
  ShowMessage("\\n<Soldier>はぅ……あふぅぅぅ……")
  0()
 PAGE   2
  // condition: variable 1063 >= 13
  If(1,1001,0,28,2)
   ShowMessageFace("",0,0,2,1)
   ShowMessage("\\n<Soldier>魔王軍相手に、この私が戦えるのか……？")
   ShowMessage("あああ、自信がまるでない……")
   EndEventProcessing()
   0()
  EndIf()
  If(1,1001,0,29,1)
   ShowMessageFace("",0,0,2,2)
   ShowMessage("\\n<Soldier>蜘蛛の粘糸で巻かれ、散々に弄ばれ……")
   ShowMessage("ああ、忘れられない快感を知ってしまいました……")
   EndEventProcessing()
   0()
  EndIf()
  0()



EVENT   69
 PAGE   1
  ShowMessageFace("",0,0,2,1)
  ShowMessage("\\n<Middle-age Man>ひィ……いひィ……")
  0()
 PAGE   2
  // condition: variable 1063 >= 13
  If(1,1001,0,28,2)
   ShowMessageFace("",0,0,2,1)
   ShowMessage("\\n<Middle-age Man>理性が飛んでいるうちに、我が国は三大国に戦争を挑み……")
   ShowMessage("解放されたかと思ったら、魔王が宣戦布告。")
   ShowMessageFace("",0,0,2,2)
   ShowMessage("\\n<Middle-age Man>展開が激しすぎて、頭が全くついていかないよ。")
   ShowMessage("まるで夢を見てるみたいだ……")
   EndEventProcessing()
   0()
  EndIf()
  If(1,1001,0,29,1)
   ShowMessageFace("",0,0,2,3)
   ShowMessage("\\n<Middle-age Man>理性が飛んでいるうちに、我が国は三大国に戦争を挑み……")
   ShowMessage("解放されたかと思ったら、魔王が宣戦布告。")
   ShowMessageFace("",0,0,2,4)
   ShowMessage("\\n<Middle-age Man>さらに町中に蜘蛛の群れがなだれ込むとか、もうついていけない。")
   ShowMessage("世の中、いったいどうなってるんだ……")
   EndEventProcessing()
   0()
  EndIf()
  0()



EVENT   70
 PAGE   1
  ShowMessageFace("",0,0,2,1)
  ShowMessage("\\n<Young Boy>ク……んク……ひィ……")
  355("actor_label_jump")
  EndEventProcessing()
  DefineLabel("118")
  ShowMessageFace("meia_fc1",3,0,2,2)
  ShowMessage("\\n<Meia>ああ……今の私では、助けられない……")
  EndEventProcessing()
  0()
 PAGE   2
  // condition: variable 1063 >= 13
  ShowMessageFace("",0,0,2,1)
  ShowMessage("\\n<Young Boy>わーい！　ボクは勇者ルカだー！")
  0()



EVENT   71
 PAGE   1
  If(1,1063,0,12,2)
   ShowMessageFace("",0,0,2,1)
   ShowMessage("\\n<Adventurer>おうひ……おうひさまぁぁぁ……")
   EndEventProcessing()
   0()
  EndIf()
  If(1,1063,0,13,1)
   ShowMessageFace("",0,0,2,2)
   ShowMessage("\\n<Adventurer>貴婦人の村には、少し前まで奇妙な噂があったんだ。")
   ShowMessage("あそこに踏み込んだ男の冒険者は、帰って来られない……ってヤツだ。")
   ShowMessageFace("",0,0,2,3)
   ShowMessage("\\n<Adventurer>でも、結局はただのデマだったみたいだな。")
   ShowMessage("みんな普通に戻ってきているぜ。")
   355("actor_label_jump")
   EndEventProcessing()
   DefineLabel("294")
   ShowMessageFace("emily_fc1",2,0,2,4)
   ShowMessage("\\n<Emily>そうそう、大丈夫♪")
   EndEventProcessing()
   DefineLabel("295")
   ShowMessageFace("cassandra_fc1",5,0,2,5)
   ShowMessage("\\n<Cassandra>お気軽に訪れて下さいね♪")
   EndEventProcessing()
   0()
  EndIf()
  0()



EVENT   72
 PAGE   1
  ShowMessageFace("",0,0,2,1)
  ShowMessage("\\n<Middle-age Man>ぉ……ぅ……ヒぃ……")
  0()
 PAGE   2
  // condition: variable 1063 >= 13
  If(1,1001,0,28,2)
   ShowMessageFace("",0,0,2,1)
   ShowMessage("\\n<Middle-age Man>魔王の宣戦布告など、恐るるに足らず！")
   ShowMessage("今こそ四大国が力を合わせ、返り討ちにするのさ！")
   EndEventProcessing()
   0()
  EndIf()
  If(1,1001,0,29,1)
   ShowMessageFace("",0,0,2,2)
   ShowMessage("\\n<Middle-age Man>魔王の宣戦布告など、恐るるに足らず！")
   ShowMessage("あのラスボスみたいな新型ゴーレムが、魔王を退治するのさ！")
   355("actor_label_jump")
   EndEventProcessing()
   DefineLabel("535")
   ShowMessageFace("grangold_fc2",0,0,2,3)
   ShowMessage("\\n<King of Grangold>.........")
   EndEventProcessing()
   0()
  EndIf()
  0()



EVENT   73
 PAGE   1
  If(1,1063,0,12,2)
   ShowMessageFace("",0,0,2,1)
   ShowMessage("\\n<Old Woman>た……たす……")
   ShowMessage("たすけて……お、くれ……")
   ShowMessageFace("",0,0,2,2)
   ShowMessage("\\n<Old Woman>れ……れれれれれれれれ……")
   EndEventProcessing()
   0()
  EndIf()
  If(1,1063,0,13,1)
   ShowMessageFace("",0,0,2,3)
   ShowMessage("\\n<Old Woman>本来なら、英雄ルカの凱旋パレードをやるところなんだろうけど……")
   ShowMessage("魔王の宣戦布告のせいで、それどころじゃなくなってしまったよ。")
   EndEventProcessing()
   0()
  EndIf()
  0()



EVENT   74
 PAGE   1
  If(1,1001,0,28,2)
   If(1,1063,0,12,2)
    ShowMessageFace("",0,0,2,1)
    ShowMessage("\\n<Man>ふひ、おひひ……おうひ……ひ……")
    EndEventProcessing()
    0()
   EndIf()
   If(1,1063,0,13,1)
    ShowMessageFace("",0,0,2,2)
    ShowMessage("\\n<Man>今日一日で、勇者ルカを名乗る偽物を三人見たよ。")
    ShowMessage("顔も特徴も全く知られてないから、これからも偽物がゴロゴロ出るだろうね……")
    EndEventProcessing()
    0()
   EndIf()
   0()
  EndIf()
  If(1,1001,0,29,1)
   ShowMessageFace("",0,0,2,3)
   ShowMessage("\\n<Man>蜘蛛連中との大激戦で、町を駆け回る勇者ルカの姿を多くの者が目撃した。")
   ShowMessage("そいつらの話だと、なんと勇者ルカってのは華奢な少年勇者らしい。")
   EndEventProcessing()
   0()
  EndIf()
  0()



EVENT   75
 PAGE   1
  ShowMessageFace("",0,0,2,1)
  ShowMessage("\\n<メイド>.........")
  0()
 PAGE   2
  // condition: variable 1063 >= 12
  0()



EVENT   76
 PAGE   1
  ShowMessageFace("",0,0,2,1)
  ShowMessage("\\n<Soldier>んぐ……お……ぉ……")
  0()
 PAGE   2
  // condition: variable 1063 >= 13
  If(1,1001,0,28,2)
   ShowMessageFace("",0,0,2,1)
   ShowMessage("\\n<Soldier>今、魔王城に向かう準備を整えているところだ。")
   ShowMessage("魔王を討ち取れば、勇者ルカ以上の英雄になれるぜ！")
   EndEventProcessing()
   0()
  EndIf()
  If(1,1001,0,29,1)
   ShowMessageFace("",0,0,2,2)
   ShowMessage("\\n<Soldier>多くの戦士達は、魔王討伐なんか到底不可能だと思い知った。")
   ShowMessage("配下の蜘蛛連中でさえ、あれだけ強いんだからな……")
   ShowMessageFace("",0,0,2,3)
   ShowMessage("\\n<Soldier>あんなのと渡り合った勇者ルカってのも、十分バケモノだよ。")
   ShowMessage("結局のところ、俺達のはるか頭上で繰り広げられてる戦いなんだ……")
   EndEventProcessing()
   0()
  EndIf()
  0()



EVENT   77
 PAGE   1
  If(1,1001,0,28,2)
   If(1,1063,0,12,2)
    ShowMessageFace("",0,0,2,1)
    ShowMessage("\\n<ピエロ>ひゃ……お、おぉぉ……あへぇぇ……")
    EndEventProcessing()
    0()
   EndIf()
   If(1,1063,0,13,1)
    ShowMessageFace("",0,0,2,2)
    ShowMessage("\\n<ピエロ>貴婦人の村、なんだか不穏な噂があったみたいだけど……")
    ShowMessage("私が見た限り、お金持ちのマダムが多い以外は普通の村だよ。")
    ShowMessageFace("",0,0,2,3)
    ShowMessage("\\n<ピエロ>踏み込んだ男は帰ってこられないなんて、大嘘だよ。")
    ShowMessage("何度も興行に行った私だけど、この通り無事さ！")
    ShowMessageFace("",0,0,2,4)
    ShowMessage("\\n<ピエロ>セレブが集まる保養地だけに、色々とやっかみを受けるんだろうな。")
    ShowMessage("そういうの、あんまり真に受けない方がいいよ。")
    EndEventProcessing()
    0()
   EndIf()
   0()
  EndIf()
  If(1,1001,0,29,1)
   ShowMessageFace("",0,0,2,5)
   ShowMessage("\\n<ピエロ>ラスボスみたいなのが大暴れしてて、すごかったよ。")
   ShowMessage("ピカピカ光るわ、レーザーをぶっ放すわ……あれ、軍の新兵器かい？")
   EndEventProcessing()
   0()
  EndIf()
  0()



EVENT   78
 PAGE   1
  ShowMessageFace("",0,0,2,1)
  ShowMessage("\\n<Soldier>お……ひ……お、おぉ……")
  0()
 PAGE   2
  // condition: variable 1063 >= 13
  ShowMessageFace("",0,0,2,1)
  ShowMessage("\\n<Soldier>アリ娘の手を借りているが、それでも兵員が全然足りないという。")
  ShowMessage("我が国は、いったいどうなってしまうんだ……")
  0()



EVENT   79
 PAGE   1
  If(1,1063,0,12,2)
   ShowMessageFace("",0,0,2,1)
   ShowMessage("\\n<Soldier>お、おうひ……さまぁぁぁ……")
   EndEventProcessing()
   0()
  EndIf()
  If(1,1063,0,13,1)
   ShowMessageFace("",0,0,2,2)
   ShowMessage("\\n<Soldier>来月から、サキュバスの村に異動になったんだ！")
   ShowMessage("むふふっ、パンツ替えていかないと……")
   355("actor_label_jump")
   EndEventProcessing()
   DefineLabel("281")
   ShowMessageFace("succubuses_fc1",0,0,2,3)
   ShowMessage("\\n<ハーレム>いっそ、パンツ履かなくてもいいんじゃないかな？")
   EndEventProcessing()
   0()
  EndIf()
  0()



EVENT   80
 PAGE   1
  // condition: variable 1063 >= 12
  TeleportEvent(60,0,79,64,0)
  222()
  Wait(60)
  ShowMessageFace("",0,0,2,1)
  ShowMessage("\\n<Lazarus' Collaborator>.........")
  212(9,773,true)
  205(54,bytes(0x04,0x08,0x6f,0x3a,0x13,0x52,0x50,0x47,0x3a,0x3a,0x4d,0x6f,0x76,0x65,0x52,0x6f,0x75,0x74,0x65,0x09,0x3a,0x0c,0x40,0x72,0x65,0x70,0x65,0x61,0x74,0x46,0x3a,0x0f,0x40,0x73,0x6b,0x69,0x70,0x70,0x61,0x62,0x6c,0x65,0x46,0x3a,0x0a,0x40,0x77,0x61,0x69,0x74,0x46,0x3a,0x0a,0x40,0x6c,0x69,0x73,0x74,0x5b,0x0c,0x6f,0x3a,0x15,0x52,0x50,0x47,0x3a,0x3a,0x4d,0x6f,0x76,0x65,0x43,0x6f,0x6d,0x6d,0x61,0x6e,0x64,0x07,0x3a,0x0a,0x40,0x63,0x6f,0x64,0x65,0x69,0x29,0x3a,0x10,0x40,0x70,0x61,0x72,0x61,0x6d,0x65,0x74,0x65,0x72,0x73,0x5b,0x00,0x6f,0x3b,0x0a,0x07,0x3b,0x0b,0x69,0x06,0x3b,0x0c,0x5b,0x00,0x6f,0x3b,0x0a,0x07,0x3b,0x0b,0x69,0x06,0x3b,0x0c,0x5b,0x00,0x6f,0x3b,0x0a,0x07,0x3b,0x0b,0x69,0x06,0x3b,0x0c,0x5b,0x00,0x6f,0x3b,0x0a,0x07,0x3b,0x0b,0x69,0x06,0x3b,0x0c,0x5b,0x00,0x6f,0x3b,0x0a,0x07,0x3b,0x0b,0x69,0x06,0x3b,0x0c,0x5b,0x00,0x6f,0x3b,0x0a,0x07,0x3b,0x0b,0x69,0x00,0x3b,0x0c,0x5b,0x00))
  Wait(60)
  221()
  TeleportPlayer(0,37,63,14,0,2)
  241(bytes(0x04,0x08,0x6f,0x3a,0x0d,0x52,0x50,0x47,0x3a,0x3a,0x42,0x47,0x4d,0x08,0x3a,0x0a,0x40,0x6e,0x61,0x6d,0x65,0x49,0x22,0x0a,0x6b,0x69,0x6b,0x69,0x33,0x06,0x3a,0x06,0x45,0x54,0x3a,0x0c,0x40,0x76,0x6f,0x6c,0x75,0x6d,0x65,0x69,0x69,0x3a,0x0b,0x40,0x70,0x69,0x74,0x63,0x68,0x69,0x69))
  222()
  Wait(60)
  ShowMessageFace("",0,0,2,2)
  ShowMessage("\\n<Lazarus' Collaborator>.........")
  212(6,773,true)
  205(55,bytes(0x04,0x08,0x6f,0x3a,0x13,0x52,0x50,0x47,0x3a,0x3a,0x4d,0x6f,0x76,0x65,0x52,0x6f,0x75,0x74,0x65,0x09,0x3a,0x0c,0x40,0x72,0x65,0x70,0x65,0x61,0x74,0x46,0x3a,0x0f,0x40,0x73,0x6b,0x69,0x70,0x70,0x61,0x62,0x6c,0x65,0x46,0x3a,0x0a,0x40,0x77,0x61,0x69,0x74,0x46,0x3a,0x0a,0x40,0x6c,0x69,0x73,0x74,0x5b,0x0c,0x6f,0x3a,0x15,0x52,0x50,0x47,0x3a,0x3a,0x4d,0x6f,0x76,0x65,0x43,0x6f,0x6d,0x6d,0x61,0x6e,0x64,0x07,0x3a,0x0a,0x40,0x63,0x6f,0x64,0x65,0x69,0x29,0x3a,0x10,0x40,0x70,0x61,0x72,0x61,0x6d,0x65,0x74,0x65,0x72,0x73,0x5b,0x00,0x6f,0x3b,0x0a,0x07,0x3b,0x0b,0x69,0x07,0x3b,0x0c,0x5b,0x00,0x6f,0x3b,0x0a,0x07,0x3b,0x0b,0x69,0x07,0x3b,0x0c,0x5b,0x00,0x6f,0x3b,0x0a,0x07,0x3b,0x0b,0x69,0x07,0x3b,0x0c,0x5b,0x00,0x6f,0x3b,0x0a,0x07,0x3b,0x0b,0x69,0x07,0x3b,0x0c,0x5b,0x00,0x6f,0x3b,0x0a,0x07,0x3b,0x0b,0x69,0x09,0x3b,0x0c,0x5b,0x00,0x6f,0x3b,0x0a,0x07,0x3b,0x0b,0x69,0x00,0x3b,0x0c,0x5b,0x00))
  Wait(60)
  221()
  211(0)
  Wait(60)
  211(1)
  TeleportPlayer(0,37,21,6,8,2)
  241(bytes(0x04,0x08,0x6f,0x3a,0x0d,0x52,0x50,0x47,0x3a,0x3a,0x42,0x47,0x4d,0x08,0x3a,0x0a,0x40,0x6e,0x61,0x6d,0x65,0x49,0x22,0x0a,0x6b,0x69,0x6b,0x69,0x33,0x06,0x3a,0x06,0x45,0x54,0x3a,0x0c,0x40,0x76,0x6f,0x6c,0x75,0x6d,0x65,0x69,0x69,0x3a,0x0b,0x40,0x70,0x69,0x74,0x63,0x68,0x69,0x69))
  222()
  Wait(60)
  250(bytes(0x04,0x08,0x6f,0x3a,0x0c,0x52,0x50,0x47,0x3a,0x3a,0x53,0x45,0x08,0x3a,0x0a,0x40,0x6e,0x61,0x6d,0x65,0x49,0x22,0x0f,0x45,0x78,0x70,0x6c,0x6f,0x73,0x69,0x6f,0x6e,0x32,0x06,0x3a,0x06,0x45,0x54,0x3a,0x0b,0x40,0x70,0x69,0x74,0x63,0x68,0x69,0x69,0x3a,0x0c,0x40,0x76,0x6f,0x6c,0x75,0x6d,0x65,0x69,0x69))
  225(7,7,120,true)
  Wait(60)
  250(bytes(0x04,0x08,0x6f,0x3a,0x0c,0x52,0x50,0x47,0x3a,0x3a,0x53,0x45,0x08,0x3a,0x0a,0x40,0x6e,0x61,0x6d,0x65,0x49,0x22,0x0f,0x45,0x78,0x70,0x6c,0x6f,0x73,0x69,0x6f,0x6e,0x32,0x06,0x3a,0x06,0x45,0x54,0x3a,0x0b,0x40,0x70,0x69,0x74,0x63,0x68,0x69,0x69,0x3a,0x0c,0x40,0x76,0x6f,0x6c,0x75,0x6d,0x65,0x69,0x69))
  225(7,7,120,false)
  Wait(60)
  250(bytes(0x04,0x08,0x6f,0x3a,0x0c,0x52,0x50,0x47,0x3a,0x3a,0x53,0x45,0x08,0x3a,0x0a,0x40,0x6e,0x61,0x6d,0x65,0x49,0x22,0x0f,0x45,0x78,0x70,0x6c,0x6f,0x73,0x69,0x6f,0x6e,0x32,0x06,0x3a,0x06,0x45,0x54,0x3a,0x0b,0x40,0x70,0x69,0x74,0x63,0x68,0x69,0x69,0x3a,0x0c,0x40,0x76,0x6f,0x6c,0x75,0x6d,0x65,0x69,0x69))
  225(7,7,120,false)
  Wait(60)
  ShowMessageFace("lazarus3_fc1",1,0,2,3)
  ShowMessage("\\n<Lazarus>All right, that made a splash! That should keep our enemies' attention on the city.")
  If(0,6,0)
   ShowMessageFace("sonia_fc2",2,0,2,4)
   ShowMessage("\\n<Sonya>Did you really not hurt any citizens...?")
   0()
  Else()
   ShowMessageFace("ruka_fc1",0,0,2,5)
   ShowMessage("\\n<Luka>Did you really not hurt any citizens...?")
   0()
  EndIf()
  ShowMessageFace("lazarus3_fc1",1,0,2,6)
  ShowMessage("\\n<Lazarus>Trust the pros. When it comes to terror bombings, we're the best in the world.")
  If(4,531,0)
   ShowMessageFace("saniria_fc2",0,0,2,7)
   ShowMessage("\\n<King of San Ilia>On that subject, I have some questions for you.")
   ShowMessageFace("lazarus3_fc1",0,0,2,8)
   ShowMessage("\\n<Lazarus>...Yeah, some other time.")
   0()
  EndIf()
  ShowMessageFace("lazarus3_fc1",1,0,2,9)
  ShowMessage("\\n<Lazarus>Okay, let's sneak into the palace while they're distracted. That ladder over there will take us down to the canals.")
  ShowMessageFace("ruka_fc1",0,0,2,10)
  ShowMessage("\\n<Luka>It's finally time...\nAll right, let's go!")
  ChangeSelfSwitch("A",0)
  EndEventProcessing()
  0()
 PAGE   2
  // condition: self-switch A is ON
  0()



EVENT   81
 PAGE   1
  // condition: variable 1063 >= 13
  ShowMessageFace("",0,0,2,1)
  ShowMessage("\\n<ゴルド魔導師>ゴーレム娘は、なんとか全部回収したんだけど……")
  ShowMessage("マッドゴーレム娘は、多くが野生化してしまったわ。")
  ShowMessageFace("",0,0,2,2)
  ShowMessage("\\n<ゴルド魔導師>うろついているのに遭遇したら、叩き壊しておいてくれない？")
  ShowMessage("泥の体が崩れたら、コアは研究所に戻ってくるから。")
  355("actor_label_jump")
  EndEventProcessing()
  DefineLabel("163")
  ShowMessageFace("lily_fc1",3,0,2,3)
  ShowMessage("\\n<Lily>仕方ないわね……")
  ShowMessage("見つけたら、潰しておくわ。")
  EndEventProcessing()
  DefineLabel("261")
  ShowMessageFace("madgolem_fc1",0,0,2,4)
  ShowMessage("\\n<ノーグ>同胞のコア、回収しましょう……")
  EndEventProcessing()
  0()



EVENT   82
 PAGE   1
  // condition: variable 1063 >= 12
  ShowMessageFace("lazarus3_fc1",1,0,2,1)
  ShowMessage("\\n<Lazarus>Hey, where do you think you're going?\nYou've gotta go through the underground canal.")
  205(-1,bytes(0x04,0x08,0x6f,0x3a,0x13,0x52,0x50,0x47,0x3a,0x3a,0x4d,0x6f,0x76,0x65,0x52,0x6f,0x75,0x74,0x65,0x09,0x3a,0x0c,0x40,0x72,0x65,0x70,0x65,0x61,0x74,0x46,0x3a,0x0f,0x40,0x73,0x6b,0x69,0x70,0x70,0x61,0x62,0x6c,0x65,0x46,0x3a,0x0a,0x40,0x77,0x61,0x69,0x74,0x54,0x3a,0x0a,0x40,0x6c,0x69,0x73,0x74,0x5b,0x07,0x6f,0x3a,0x15,0x52,0x50,0x47,0x3a,0x3a,0x4d,0x6f,0x76,0x65,0x43,0x6f,0x6d,0x6d,0x61,0x6e,0x64,0x07,0x3a,0x0a,0x40,0x63,0x6f,0x64,0x65,0x69,0x09,0x3a,0x10,0x40,0x70,0x61,0x72,0x61,0x6d,0x65,0x74,0x65,0x72,0x73,0x5b,0x00,0x6f,0x3b,0x0a,0x07,0x3b,0x0b,0x69,0x00,0x3b,0x0c,0x5b,0x00))
  0()
 PAGE   2
  // condition: variable 1063 >= 13
  0()



EVENT   83
 PAGE   1
  // condition: variable 1063 >= 12
  ShowMessageFace("lazarus3_fc1",1,0,2,1)
  ShowMessage("\\n<Lazarus>Hey, where do you think you're going?\nYou've gotta go through the underground canal.")
  205(-1,bytes(0x04,0x08,0x6f,0x3a,0x13,0x52,0x50,0x47,0x3a,0x3a,0x4d,0x6f,0x76,0x65,0x52,0x6f,0x75,0x74,0x65,0x09,0x3a,0x0c,0x40,0x72,0x65,0x70,0x65,0x61,0x74,0x46,0x3a,0x0f,0x40,0x73,0x6b,0x69,0x70,0x70,0x61,0x62,0x6c,0x65,0x46,0x3a,0x0a,0x40,0x77,0x61,0x69,0x74,0x54,0x3a,0x0a,0x40,0x6c,0x69,0x73,0x74,0x5b,0x07,0x6f,0x3a,0x15,0x52,0x50,0x47,0x3a,0x3a,0x4d,0x6f,0x76,0x65,0x43,0x6f,0x6d,0x6d,0x61,0x6e,0x64,0x07,0x3a,0x0a,0x40,0x63,0x6f,0x64,0x65,0x69,0x09,0x3a,0x10,0x40,0x70,0x61,0x72,0x61,0x6d,0x65,0x74,0x65,0x72,0x73,0x5b,0x00,0x6f,0x3b,0x0a,0x07,0x3b,0x0b,0x69,0x00,0x3b,0x0c,0x5b,0x00))
  0()
 PAGE   2
  // condition: variable 1063 >= 13
  0()



EVENT   84
 PAGE   1
  // condition: variable 1063 >= 12
  ShowMessageFace("lazarus3_fc1",1,0,2,1)
  ShowMessage("\\n<Lazarus>Hey, where do you think you're going?\nYou've gotta go through the underground canal.")
  205(-1,bytes(0x04,0x08,0x6f,0x3a,0x13,0x52,0x50,0x47,0x3a,0x3a,0x4d,0x6f,0x76,0x65,0x52,0x6f,0x75,0x74,0x65,0x09,0x3a,0x0c,0x40,0x72,0x65,0x70,0x65,0x61,0x74,0x46,0x3a,0x0f,0x40,0x73,0x6b,0x69,0x70,0x70,0x61,0x62,0x6c,0x65,0x46,0x3a,0x0a,0x40,0x77,0x61,0x69,0x74,0x54,0x3a,0x0a,0x40,0x6c,0x69,0x73,0x74,0x5b,0x07,0x6f,0x3a,0x15,0x52,0x50,0x47,0x3a,0x3a,0x4d,0x6f,0x76,0x65,0x43,0x6f,0x6d,0x6d,0x61,0x6e,0x64,0x07,0x3a,0x0a,0x40,0x63,0x6f,0x64,0x65,0x69,0x09,0x3a,0x10,0x40,0x70,0x61,0x72,0x61,0x6d,0x65,0x74,0x65,0x72,0x73,0x5b,0x00,0x6f,0x3b,0x0a,0x07,0x3b,0x0b,0x69,0x00,0x3b,0x0c,0x5b,0x00))
  0()
 PAGE   2
  // condition: variable 1063 >= 13
  0()



EVENT   85
 PAGE   1
  // condition: variable 1063 >= 13
  ShowMessageFace("",0,0,2,1)
  ShowMessage("\\n<Young Girl>勇者様の仲間には、キレイな女僧侶様がいるものなの。")
  ShowMessage("それで、二人はラブラブなの！")
  If(0,6,0)
   ShowMessageFace("sonia_fc1",1,0,2,2)
   ShowMessage("\\n<Sonya>うふふっ……お姉ちゃん、その女僧侶だったらどうする？")
   ShowMessageFace("",0,0,2,3)
   ShowMessage("\\n<Young Girl>違うの……おねえちゃんは、ムチムチこんぼう！")
   ShowMessageFace("sonia_fc3",2,0,2,4)
   ShowMessage("\\n<Sonya>…………！？")
   If(4,300,0)
    ShowMessageFace("youki_fc1",0,0,2,5)
    ShowMessage("\\n<くれは>……ププッ。")
    ShowMessageFace("sonia_fc2",6,0,2,6)
    ShowMessage("\\n<Sonya>ああ……？")
    ShowMessageFace("youki_fc1",2,0,2,7)
    ShowMessage("\\n<くれは>鬼よりこえぇ！！")
    0()
   EndIf()
   0()
  EndIf()
  0()



EVENT   86
 PAGE   1
  // condition: variable 1063 >= 13
  ShowMessageFace("",0,0,2,1)
  ShowMessage("\\n<吟遊詩人>勇者ルカを讃える歌を作りました。")
  ShowMessage("おお、英雄ルカ～♪　力強き腕に、輝かしい剣～♪")
  355("actor_label_jump")
  EndEventProcessing()
  DefineLabel("155")
  ShowMessageFace("saki_fc1",0,0,2,2)
  ShowMessage("\\n<Saki>コンサートで、私が歌ってみたいな♪")
  EndEventProcessing()
  0()



EVENT   87
 PAGE   1
  // condition: variable 1063 >= 13
  ShowMessageFace("golem_fc1",0,0,2,1)
  ShowMessage("\\n<Golem Girl>.........")
  0()
 PAGE   2
  // condition: switch 2199 is ON
  0()



EVENT   88
 PAGE   1
  // condition: variable 1063 >= 13
  If(2,"D",0)
   JumpToLabel("４")
   0()
  EndIf()
  If(2,"C",0)
   JumpToLabel("３")
   0()
  EndIf()
  If(2,"B",0)
   JumpToLabel("２")
   0()
  EndIf()
  If(2,"A",0)
   JumpToLabel("１")
   0()
  EndIf()
  ShowMessageFace("",0,0,2,1)
  ShowMessage("\\n<ゴルド魔導顧問>破壊されたゴーレム娘を回収したんだけど……")
  ShowMessage("修復できそうなのは、この一体だけなのよね。")
  ShowMessageFace("",0,0,2,2)
  ShowMessage("\\n<ゴルド魔導顧問>この一体を、あなた達に譲るよう陛下からご命令を受けているわ。")
  ShowMessage("でも、物資不足でなかなか修理が進まないのよ。")
  ShowMessageFace("",0,0,2,3)
  ShowMessage("\\n<ゴルド魔導顧問>あなた達、この子の修復に協力してくれない？")
  ShowMessage("完成次第、そちらに引き渡すから……")
  If(4,167,0)
   ShowMessageFace("lusia_fc1",0,0,2,4)
   ShowMessage("\\n<Lucia>それは僥倖……ぜひ協力しましょう。")
   0()
  EndIf()
  ShowChoices(strings("修復を手伝う","手伝わない"),2)
  IfPlayerPicksChoice(0,null)
   ShowMessageFace("",0,0,2,5)
   ShowMessage("\\n<ゴルド魔導顧問>それじゃあ、今から挙げるアイテムを持ってきて。")
   ShowMessage("えっと……必要なのは「霊薬」ね。")
   If(2,"A",1)
    ChangeSelfSwitch("A",0)
    EndEventProcessing()
    0()
   EndIf()
   DefineLabel("１")
   If(8,4)
    ShowMessageFace("",0,0,2,6)
    ShowMessage("\\n<ゴルド魔導顧問>うん、「霊薬」を持ってきたようね。")
    ShowMessage("ありがたく使わせてもらうわ……")
    205(0,bytes(0x04,0x08,0x6f,0x3a,0x13,0x52,0x50,0x47,0x3a,0x3a,0x4d,0x6f,0x76,0x65,0x52,0x6f,0x75,0x74,0x65,0x09,0x3a,0x0c,0x40,0x72,0x65,0x70,0x65,0x61,0x74,0x46,0x3a,0x0f,0x40,0x73,0x6b,0x69,0x70,0x70,0x61,0x62,0x6c,0x65,0x46,0x3a,0x0a,0x40,0x77,0x61,0x69,0x74,0x54,0x3a,0x0a,0x40,0x6c,0x69,0x73,0x74,0x5b,0x07,0x6f,0x3a,0x15,0x52,0x50,0x47,0x3a,0x3a,0x4d,0x6f,0x76,0x65,0x43,0x6f,0x6d,0x6d,0x61,0x6e,0x64,0x07,0x3a,0x0a,0x40,0x63,0x6f,0x64,0x65,0x69,0x16,0x3a,0x10,0x40,0x70,0x61,0x72,0x61,0x6d,0x65,0x74,0x65,0x72,0x73,0x5b,0x00,0x6f,0x3b,0x0a,0x07,0x3b,0x0b,0x69,0x00,0x3b,0x0c,0x5b,0x00))
    250(bytes(0x04,0x08,0x6f,0x3a,0x0c,0x52,0x50,0x47,0x3a,0x3a,0x53,0x45,0x08,0x3a,0x0a,0x40,0x6e,0x61,0x6d,0x65,0x49,0x22,0x0a,0x49,0x74,0x65,0x6d,0x31,0x06,0x3a,0x06,0x45,0x54,0x3a,0x0b,0x40,0x70,0x69,0x74,0x63,0x68,0x69,0x69,0x3a,0x0c,0x40,0x76,0x6f,0x6c,0x75,0x6d,0x65,0x69,0x55))
    ChangeInventory_Item(4,1,0,1)
    ShowMessageFace("",0,0,2,7)
    ShowMessage("ゴルド魔導顧問は、霊薬をゴーレム娘の神経回路に流し込んだ！")
    205(0,bytes(0x04,0x08,0x6f,0x3a,0x13,0x52,0x50,0x47,0x3a,0x3a,0x4d,0x6f,0x76,0x65,0x52,0x6f,0x75,0x74,0x65,0x09,0x3a,0x0c,0x40,0x72,0x65,0x70,0x65,0x61,0x74,0x46,0x3a,0x0f,0x40,0x73,0x6b,0x69,0x70,0x70,0x61,0x62,0x6c,0x65,0x46,0x3a,0x0a,0x40,0x77,0x61,0x69,0x74,0x54,0x3a,0x0a,0x40,0x6c,0x69,0x73,0x74,0x5b,0x07,0x6f,0x3a,0x15,0x52,0x50,0x47,0x3a,0x3a,0x4d,0x6f,0x76,0x65,0x43,0x6f,0x6d,0x6d,0x61,0x6e,0x64,0x07,0x3a,0x0a,0x40,0x63,0x6f,0x64,0x65,0x69,0x1e,0x3a,0x10,0x40,0x70,0x61,0x72,0x61,0x6d,0x65,0x74,0x65,0x72,0x73,0x5b,0x00,0x6f,0x3b,0x0a,0x07,0x3b,0x0b,0x69,0x00,0x3b,0x0c,0x5b,0x00))
    ShowMessageFace("",0,0,2,8)
    ShowMessage("\\n<ゴルド魔導顧問>それじゃあ、今から挙げるアイテムを持ってきて。")
    ShowMessage("えっと……必要なのは「魔導の歯車」ね。")
    If(2,"B",1)
     ChangeSelfSwitch("B",0)
     EndEventProcessing()
     0()
    EndIf()
    DefineLabel("２")
    If(8,219)
     ShowMessageFace("",0,0,2,9)
     ShowMessage("\\n<ゴルド魔導顧問>うん、「魔導の歯車」を持ってきたようね。")
     ShowMessage("ありがたく使わせてもらうわ……")
     205(0,bytes(0x04,0x08,0x6f,0x3a,0x13,0x52,0x50,0x47,0x3a,0x3a,0x4d,0x6f,0x76,0x65,0x52,0x6f,0x75,0x74,0x65,0x09,0x3a,0x0c,0x40,0x72,0x65,0x70,0x65,0x61,0x74,0x46,0x3a,0x0f,0x40,0x73,0x6b,0x69,0x70,0x70,0x61,0x62,0x6c,0x65,0x46,0x3a,0x0a,0x40,0x77,0x61,0x69,0x74,0x54,0x3a,0x0a,0x40,0x6c,0x69,0x73,0x74,0x5b,0x07,0x6f,0x3a,0x15,0x52,0x50,0x47,0x3a,0x3a,0x4d,0x6f,0x76,0x65,0x43,0x6f,0x6d,0x6d,0x61,0x6e,0x64,0x07,0x3a,0x0a,0x40,0x63,0x6f,0x64,0x65,0x69,0x16,0x3a,0x10,0x40,0x70,0x61,0x72,0x61,0x6d,0x65,0x74,0x65,0x72,0x73,0x5b,0x00,0x6f,0x3b,0x0a,0x07,0x3b,0x0b,0x69,0x00,0x3b,0x0c,0x5b,0x00))
     250(bytes(0x04,0x08,0x6f,0x3a,0x0c,0x52,0x50,0x47,0x3a,0x3a,0x53,0x45,0x08,0x3a,0x0a,0x40,0x6e,0x61,0x6d,0x65,0x49,0x22,0x0a,0x49,0x74,0x65,0x6d,0x31,0x06,0x3a,0x06,0x45,0x54,0x3a,0x0b,0x40,0x70,0x69,0x74,0x63,0x68,0x69,0x69,0x3a,0x0c,0x40,0x76,0x6f,0x6c,0x75,0x6d,0x65,0x69,0x55))
     ChangeInventory_Item(219,1,0,1)
     ShowMessageFace("",0,0,2,10)
     ShowMessage("ゴルド魔導顧問は、魔導の歯車をゴーレム娘の動力炉に組み込んだ！")
     205(0,bytes(0x04,0x08,0x6f,0x3a,0x13,0x52,0x50,0x47,0x3a,0x3a,0x4d,0x6f,0x76,0x65,0x52,0x6f,0x75,0x74,0x65,0x09,0x3a,0x0c,0x40,0x72,0x65,0x70,0x65,0x61,0x74,0x46,0x3a,0x0f,0x40,0x73,0x6b,0x69,0x70,0x70,0x61,0x62,0x6c,0x65,0x46,0x3a,0x0a,0x40,0x77,0x61,0x69,0x74,0x54,0x3a,0x0a,0x40,0x6c,0x69,0x73,0x74,0x5b,0x07,0x6f,0x3a,0x15,0x52,0x50,0x47,0x3a,0x3a,0x4d,0x6f,0x76,0x65,0x43,0x6f,0x6d,0x6d,0x61,0x6e,0x64,0x07,0x3a,0x0a,0x40,0x63,0x6f,0x64,0x65,0x69,0x1e,0x3a,0x10,0x40,0x70,0x61,0x72,0x61,0x6d,0x65,0x74,0x65,0x72,0x73,0x5b,0x00,0x6f,0x3b,0x0a,0x07,0x3b,0x0b,0x69,0x00,0x3b,0x0c,0x5b,0x00))
     ShowMessageFace("",0,0,2,11)
     ShowMessage("\\n<ゴルド魔導顧問>それじゃあ、今から挙げるアイテムを持ってきて。")
     ShowMessage("えっと……必要なのは「ヤマタイ酒」ね。")
     If(2,"C",1)
      ChangeSelfSwitch("C",0)
      EndEventProcessing()
      0()
     EndIf()
     DefineLabel("３")
     If(8,431)
      ShowMessageFace("",0,0,2,12)
      ShowMessage("\\n<ゴルド魔導顧問>うん、「ヤマタイ酒」を持ってきたようね。")
      ShowMessage("ありがたく使わせてもらうわ……")
      205(0,bytes(0x04,0x08,0x6f,0x3a,0x13,0x52,0x50,0x47,0x3a,0x3a,0x4d,0x6f,0x76,0x65,0x52,0x6f,0x75,0x74,0x65,0x09,0x3a,0x0c,0x40,0x72,0x65,0x70,0x65,0x61,0x74,0x46,0x3a,0x0f,0x40,0x73,0x6b,0x69,0x70,0x70,0x61,0x62,0x6c,0x65,0x46,0x3a,0x0a,0x40,0x77,0x61,0x69,0x74,0x54,0x3a,0x0a,0x40,0x6c,0x69,0x73,0x74,0x5b,0x07,0x6f,0x3a,0x15,0x52,0x50,0x47,0x3a,0x3a,0x4d,0x6f,0x76,0x65,0x43,0x6f,0x6d,0x6d,0x61,0x6e,0x64,0x07,0x3a,0x0a,0x40,0x63,0x6f,0x64,0x65,0x69,0x16,0x3a,0x10,0x40,0x70,0x61,0x72,0x61,0x6d,0x65,0x74,0x65,0x72,0x73,0x5b,0x00,0x6f,0x3b,0x0a,0x07,0x3b,0x0b,0x69,0x00,0x3b,0x0c,0x5b,0x00))
      250(bytes(0x04,0x08,0x6f,0x3a,0x0c,0x52,0x50,0x47,0x3a,0x3a,0x53,0x45,0x08,0x3a,0x0a,0x40,0x6e,0x61,0x6d,0x65,0x49,0x22,0x0a,0x49,0x74,0x65,0x6d,0x31,0x06,0x3a,0x06,0x45,0x54,0x3a,0x0b,0x40,0x70,0x69,0x74,0x63,0x68,0x69,0x69,0x3a,0x0c,0x40,0x76,0x6f,0x6c,0x75,0x6d,0x65,0x69,0x55))
      ChangeInventory_Item(431,1,0,1)
      ShowMessageFace("",0,0,2,13)
      ShowMessage("ゴルド魔導顧問は、ヤマタイ酒を一気に飲み干した！")
      205(0,bytes(0x04,0x08,0x6f,0x3a,0x13,0x52,0x50,0x47,0x3a,0x3a,0x4d,0x6f,0x76,0x65,0x52,0x6f,0x75,0x74,0x65,0x09,0x3a,0x0c,0x40,0x72,0x65,0x70,0x65,0x61,0x74,0x46,0x3a,0x0f,0x40,0x73,0x6b,0x69,0x70,0x70,0x61,0x62,0x6c,0x65,0x46,0x3a,0x0a,0x40,0x77,0x61,0x69,0x74,0x54,0x3a,0x0a,0x40,0x6c,0x69,0x73,0x74,0x5b,0x07,0x6f,0x3a,0x15,0x52,0x50,0x47,0x3a,0x3a,0x4d,0x6f,0x76,0x65,0x43,0x6f,0x6d,0x6d,0x61,0x6e,0x64,0x07,0x3a,0x0a,0x40,0x63,0x6f,0x64,0x65,0x69,0x1e,0x3a,0x10,0x40,0x70,0x61,0x72,0x61,0x6d,0x65,0x74,0x65,0x72,0x73,0x5b,0x00,0x6f,0x3b,0x0a,0x07,0x3b,0x0b,0x69,0x00,0x3b,0x0c,0x5b,0x00))
      ShowMessageFace("",0,0,2,14)
      ShowMessage("\\n<ゴルド魔導顧問>それじゃあ、今から挙げるアイテムを持ってきて。")
      ShowMessage("えっと……必要なのは「ちぃぱっぱ」ね。")
      If(2,"D",1)
       ChangeSelfSwitch("D",0)
       EndEventProcessing()
       0()
      EndIf()
      DefineLabel("４")
      If(8,450)
       ShowMessageFace("",0,0,2,15)
       ShowMessage("\\n<ゴルド魔導顧問>うん、「ちぃぱっぱ」を持ってきたようね。")
       ShowMessage("ありがたく使わせてもらうわ……")
       205(0,bytes(0x04,0x08,0x6f,0x3a,0x13,0x52,0x50,0x47,0x3a,0x3a,0x4d,0x6f,0x76,0x65,0x52,0x6f,0x75,0x74,0x65,0x09,0x3a,0x0c,0x40,0x72,0x65,0x70,0x65,0x61,0x74,0x46,0x3a,0x0f,0x40,0x73,0x6b,0x69,0x70,0x70,0x61,0x62,0x6c,0x65,0x46,0x3a,0x0a,0x40,0x77,0x61,0x69,0x74,0x54,0x3a,0x0a,0x40,0x6c,0x69,0x73,0x74,0x5b,0x07,0x6f,0x3a,0x15,0x52,0x50,0x47,0x3a,0x3a,0x4d,0x6f,0x76,0x65,0x43,0x6f,0x6d,0x6d,0x61,0x6e,0x64,0x07,0x3a,0x0a,0x40,0x63,0x6f,0x64,0x65,0x69,0x16,0x3a,0x10,0x40,0x70,0x61,0x72,0x61,0x6d,0x65,0x74,0x65,0x72,0x73,0x5b,0x00,0x6f,0x3b,0x0a,0x07,0x3b,0x0b,0x69,0x00,0x3b,0x0c,0x5b,0x00))
       250(bytes(0x04,0x08,0x6f,0x3a,0x0c,0x52,0x50,0x47,0x3a,0x3a,0x53,0x45,0x08,0x3a,0x0a,0x40,0x6e,0x61,0x6d,0x65,0x49,0x22,0x0a,0x49,0x74,0x65,0x6d,0x31,0x06,0x3a,0x06,0x45,0x54,0x3a,0x0b,0x40,0x70,0x69,0x74,0x63,0x68,0x69,0x69,0x3a,0x0c,0x40,0x76,0x6f,0x6c,0x75,0x6d,0x65,0x69,0x55))
       ChangeInventory_Item(450,1,0,1)
       ShowMessageFace("",0,0,2,16)
       ShowMessage("ゴルド魔導顧問は、ちぃぱっぱをゴーレム娘の頭脳回路に放り込んだ！")
       ShowMessageFace("",0,0,2,17)
       ShowMessage("\\n<ゴルド魔導顧問>よし、これで修理が完了したわ！")
       ShowMessage("ゴーレム娘、起動よ！")
       205(87,bytes(0x04,0x08,0x6f,0x3a,0x13,0x52,0x50,0x47,0x3a,0x3a,0x4d,0x6f,0x76,0x65,0x52,0x6f,0x75,0x74,0x65,0x09,0x3a,0x0c,0x40,0x72,0x65,0x70,0x65,0x61,0x74,0x46,0x3a,0x0f,0x40,0x73,0x6b,0x69,0x70,0x70,0x61,0x62,0x6c,0x65,0x46,0x3a,0x0a,0x40,0x77,0x61,0x69,0x74,0x54,0x3a,0x0a,0x40,0x6c,0x69,0x73,0x74,0x5b,0x07,0x6f,0x3a,0x15,0x52,0x50,0x47,0x3a,0x3a,0x4d,0x6f,0x76,0x65,0x43,0x6f,0x6d,0x6d,0x61,0x6e,0x64,0x07,0x3a,0x0a,0x40,0x63,0x6f,0x64,0x65,0x69,0x26,0x3a,0x10,0x40,0x70,0x61,0x72,0x61,0x6d,0x65,0x74,0x65,0x72,0x73,0x5b,0x00,0x6f,0x3b,0x0a,0x07,0x3b,0x0b,0x69,0x00,0x3b,0x0c,0x5b,0x00))
       ShowMessageFace("golem_fc1",0,0,2,18)
       ShowMessage("\\n<Golem Girl>ゴゴゴゴゴ……")
       205(0,bytes(0x04,0x08,0x6f,0x3a,0x13,0x52,0x50,0x47,0x3a,0x3a,0x4d,0x6f,0x76,0x65,0x52,0x6f,0x75,0x74,0x65,0x09,0x3a,0x0c,0x40,0x72,0x65,0x70,0x65,0x61,0x74,0x46,0x3a,0x0f,0x40,0x73,0x6b,0x69,0x70,0x70,0x61,0x62,0x6c,0x65,0x46,0x3a,0x0a,0x40,0x77,0x61,0x69,0x74,0x54,0x3a,0x0a,0x40,0x6c,0x69,0x73,0x74,0x5b,0x07,0x6f,0x3a,0x15,0x52,0x50,0x47,0x3a,0x3a,0x4d,0x6f,0x76,0x65,0x43,0x6f,0x6d,0x6d,0x61,0x6e,0x64,0x07,0x3a,0x0a,0x40,0x63,0x6f,0x64,0x65,0x69,0x1e,0x3a,0x10,0x40,0x70,0x61,0x72,0x61,0x6d,0x65,0x74,0x65,0x72,0x73,0x5b,0x00,0x6f,0x3b,0x0a,0x07,0x3b,0x0b,0x69,0x00,0x3b,0x0c,0x5b,0x00))
       ShowMessageFace("",0,0,2,19)
       ShowMessage("\\n<ゴルド魔導顧問>約束通り、この子の管理権を委譲してあげるわ。")
       ShowMessage("ゴーレム娘、彼が新しいマスターよ。")
       ShowMessageFace("golem_fc1",0,0,2,20)
       ShowMessage("\\n<Golem Girl>了解……同行シマス。")
       ChangeSwitch(2199,2199,0)
       355("add_actor_ex(262)")
       249(bytes(0x04,0x08,0x6f,0x3a,0x0c,0x52,0x50,0x47,0x3a,0x3a,0x4d,0x45,0x08,0x3a,0x0a,0x40,0x6e,0x61,0x6d,0x65,0x49,0x22,0x0c,0x66,0x61,0x6e,0x66,0x61,0x6c,0x65,0x06,0x3a,0x06,0x45,0x54,0x3a,0x0b,0x40,0x70,0x69,0x74,0x63,0x68,0x69,0x69,0x3a,0x0c,0x40,0x76,0x6f,0x6c,0x75,0x6d,0x65,0x69,0x69))
       ShowMessageFace("",0,0,2,21)
       ShowMessage("エメスが仲間に加わった！")
       Wait(60)
       ShowMessageFace("",0,0,2,22)
       ShowMessage("\\n<ゴルド魔導顧問>あと、これを預けておくわ。")
       ShowMessage("このアイテムがあれば、ドール系の魔物ならゴーレムに転種できるわよ。")
       250(bytes(0x04,0x08,0x6f,0x3a,0x0c,0x52,0x50,0x47,0x3a,0x3a,0x53,0x45,0x08,0x3a,0x0a,0x40,0x6e,0x61,0x6d,0x65,0x49,0x22,0x0a,0x49,0x74,0x65,0x6d,0x31,0x06,0x3a,0x06,0x45,0x54,0x3a,0x0b,0x40,0x70,0x69,0x74,0x63,0x68,0x69,0x69,0x3a,0x0c,0x40,0x76,0x6f,0x6c,0x75,0x6d,0x65,0x69,0x55))
       ChangeInventory_Item(640,0,0,1)
       ShowMessageFace("",0,0,2,23)
       ShowMessage("\\n<ゴルド魔導顧問>私達から出来る事は、これで終わりね……")
       ShowMessage("あなた達の活躍、期待してるわ。")
       EndEventProcessing()
       0()
      Else()
       ShowMessageFace("",0,0,2,24)
       ShowMessage("\\n<ゴルド魔導顧問>それじゃあ、今から挙げるアイテムを持ってきて。")
       ShowMessage("えっと……必要なのは「ちぃぱっぱ」ね。")
       EndEventProcessing()
       0()
      EndIf()
      0()
     Else()
      ShowMessageFace("",0,0,2,25)
      ShowMessage("\\n<ゴルド魔導顧問>それじゃあ、今から挙げるアイテムを持ってきて。")
      ShowMessage("えっと……必要なのは「ヤマタイ酒」ね。")
      EndEventProcessing()
      0()
     EndIf()
     0()
    Else()
     ShowMessageFace("",0,0,2,26)
     ShowMessage("\\n<ゴルド魔導顧問>それじゃあ、今から挙げるアイテムを持ってきて。")
     ShowMessage("えっと……必要なのは「魔導の歯車」ね。")
     EndEventProcessing()
     0()
    EndIf()
    0()
   Else()
    ShowMessageFace("",0,0,2,27)
    ShowMessage("\\n<ゴルド魔導顧問>それじゃあ、今から挙げるアイテムを持ってきて。")
    ShowMessage("えっと……必要なのは「霊薬」ね。")
    EndEventProcessing()
    0()
   EndIf()
   0()
  IfPlayerPicksChoice(1,null)
   EndEventProcessing()
   0()
  404()
  0()
 PAGE   2
  // condition: switch 2199 is ON
  ShowMessageFace("",0,0,2,1)
  ShowMessage("\\n<ゴルド魔導顧問>ゴーレム娘、大切にしてあげてね。")
  ShowMessage("そこら辺に捨てたら、怒るから。")
  0()



EVENT   89
 PAGE   1
  // condition: switch 1102 is ON
  // condition: switch 1103 is ON
  // condition: variable 1063 >= 13
  241(bytes(0x04,0x08,0x6f,0x3a,0x0d,0x52,0x50,0x47,0x3a,0x3a,0x42,0x47,0x4d,0x08,0x3a,0x0a,0x40,0x6e,0x61,0x6d,0x65,0x49,0x22,0x13,0x73,0x63,0x65,0x6e,0x65,0x5f,0x6f,0x64,0x61,0x79,0x61,0x6b,0x61,0x31,0x06,0x3a,0x06,0x45,0x54,0x3a,0x0c,0x40,0x76,0x6f,0x6c,0x75,0x6d,0x65,0x69,0x69,0x3a,0x0b,0x40,0x70,0x69,0x74,0x63,0x68,0x69,0x69))
  ShowMessageFace("kamuro_fc1",0,0,2,1)
  ShowMessage("\\n<Kamuro>Kitsu-nee, do you ever think about your future...?")
  ShowMessageFace("youko_fc1",2,0,2,2)
  ShowMessage("\\n<Kitsu>D-Don't ask me something so serious!\nWhat about you, Kamuro?")
  ShowMessageFace("kamuro_fc1",2,0,2,3)
  ShowMessage("\\n<Kamuro>I don't really...\nI was thinking that I should probably start soon, though...")
  ShowMessageFace("youko_fc1",2,0,2,4)
  ShowMessage("\\n<Kitsu>Not so soon! Not any time soon!")
  241(bytes(0x04,0x08,0x6f,0x3a,0x0d,0x52,0x50,0x47,0x3a,0x3a,0x42,0x47,0x4d,0x08,0x3a,0x0a,0x40,0x6e,0x61,0x6d,0x65,0x49,0x22,0x0a,0x63,0x69,0x74,0x79,0x31,0x06,0x3a,0x06,0x45,0x54,0x3a,0x0c,0x40,0x76,0x6f,0x6c,0x75,0x6d,0x65,0x69,0x69,0x3a,0x0b,0x40,0x70,0x69,0x74,0x63,0x68,0x69,0x69))
  0()
 PAGE   2
  // condition: party contains actor #102
  0()
 PAGE   3
  // condition: party contains actor #103
  0()



EVENT   90
 PAGE   1
  250(bytes(0x04,0x08,0x6f,0x3a,0x0c,0x52,0x50,0x47,0x3a,0x3a,0x53,0x45,0x08,0x3a,0x0a,0x40,0x6e,0x61,0x6d,0x65,0x49,0x22,0x0a,0x49,0x74,0x65,0x6d,0x31,0x06,0x3a,0x06,0x45,0x54,0x3a,0x0b,0x40,0x70,0x69,0x74,0x63,0x68,0x69,0x69,0x3a,0x0c,0x40,0x76,0x6f,0x6c,0x75,0x6d,0x65,0x69,0x55))
  ChangeSelfSwitch("A",0)
  ChangeInventory_Item(220,0,0,1)
  0()
 PAGE   2
  // condition: self-switch A is ON
  0()



EVENT   91
 PAGE   1
  250(bytes(0x04,0x08,0x6f,0x3a,0x0c,0x52,0x50,0x47,0x3a,0x3a,0x53,0x45,0x08,0x3a,0x0a,0x40,0x6e,0x61,0x6d,0x65,0x49,0x22,0x0a,0x49,0x74,0x65,0x6d,0x31,0x06,0x3a,0x06,0x45,0x54,0x3a,0x0b,0x40,0x70,0x69,0x74,0x63,0x68,0x69,0x69,0x3a,0x0c,0x40,0x76,0x6f,0x6c,0x75,0x6d,0x65,0x69,0x55))
  ChangeSelfSwitch("A",0)
  ChangeInventory_Item(219,0,0,1)
  0()
 PAGE   2
  // condition: self-switch A is ON
  0()



EVENT   92
 PAGE   1
  250(bytes(0x04,0x08,0x6f,0x3a,0x0c,0x52,0x50,0x47,0x3a,0x3a,0x53,0x45,0x08,0x3a,0x0a,0x40,0x6e,0x61,0x6d,0x65,0x49,0x22,0x0a,0x49,0x74,0x65,0x6d,0x31,0x06,0x3a,0x06,0x45,0x54,0x3a,0x0b,0x40,0x70,0x69,0x74,0x63,0x68,0x69,0x69,0x3a,0x0c,0x40,0x76,0x6f,0x6c,0x75,0x6d,0x65,0x69,0x55))
  ChangeSelfSwitch("A",0)
  ChangeInventory_Item(2,0,0,1)
  0()
 PAGE   2
  // condition: self-switch A is ON
  0()



EVENT   93
 PAGE   1
  250(bytes(0x04,0x08,0x6f,0x3a,0x0c,0x52,0x50,0x47,0x3a,0x3a,0x53,0x45,0x08,0x3a,0x0a,0x40,0x6e,0x61,0x6d,0x65,0x49,0x22,0x0a,0x49,0x74,0x65,0x6d,0x31,0x06,0x3a,0x06,0x45,0x54,0x3a,0x0b,0x40,0x70,0x69,0x74,0x63,0x68,0x69,0x69,0x3a,0x0c,0x40,0x76,0x6f,0x6c,0x75,0x6d,0x65,0x69,0x55))
  ChangeSelfSwitch("A",0)
  ChangeInventory_Item(52,0,0,1)
  0()
 PAGE   2
  // condition: self-switch A is ON
  0()



EVENT   94
 PAGE   1
  250(bytes(0x04,0x08,0x6f,0x3a,0x0c,0x52,0x50,0x47,0x3a,0x3a,0x53,0x45,0x08,0x3a,0x0a,0x40,0x6e,0x61,0x6d,0x65,0x49,0x22,0x0a,0x49,0x74,0x65,0x6d,0x31,0x06,0x3a,0x06,0x45,0x54,0x3a,0x0b,0x40,0x70,0x69,0x74,0x63,0x68,0x69,0x69,0x3a,0x0c,0x40,0x76,0x6f,0x6c,0x75,0x6d,0x65,0x69,0x55))
  ChangeSelfSwitch("A",0)
  ChangeInventory_Item(27,0,0,1)
  0()
 PAGE   2
  // condition: self-switch A is ON
  0()



EVENT   95
 PAGE   1
  241(bytes(0x04,0x08,0x6f,0x3a,0x0d,0x52,0x50,0x47,0x3a,0x3a,0x42,0x47,0x4d,0x08,0x3a,0x0a,0x40,0x6e,0x61,0x6d,0x65,0x49,0x22,0x0a,0x6d,0x75,0x72,0x61,0x33,0x06,0x3a,0x06,0x45,0x54,0x3a,0x0c,0x40,0x76,0x6f,0x6c,0x75,0x6d,0x65,0x69,0x69,0x3a,0x0b,0x40,0x70,0x69,0x74,0x63,0x68,0x69,0x69))
  TemporaryRemoveEvent()
  0()
 PAGE   2
  // condition: variable 1063 >= 13
  0()



EVENT   96
 PAGE   1
  // condition: switch 2270 is ON
  0()



EVENT   97
 PAGE   1
  // condition: switch 2270 is ON
  0()



EVENT   98
 PAGE   1
  // condition: switch 2270 is ON
  0()



EVENT   99
 PAGE   1
  // condition: switch 2270 is ON
  0()



EVENT   100
 PAGE   1
  // condition: switch 1102 is ON
  // condition: switch 1103 is ON
  // condition: variable 1063 >= 13
  241(bytes(0x04,0x08,0x6f,0x3a,0x0d,0x52,0x50,0x47,0x3a,0x3a,0x42,0x47,0x4d,0x08,0x3a,0x0a,0x40,0x6e,0x61,0x6d,0x65,0x49,0x22,0x13,0x73,0x63,0x65,0x6e,0x65,0x5f,0x6f,0x64,0x61,0x79,0x61,0x6b,0x61,0x31,0x06,0x3a,0x06,0x45,0x54,0x3a,0x0c,0x40,0x76,0x6f,0x6c,0x75,0x6d,0x65,0x69,0x69,0x3a,0x0b,0x40,0x70,0x69,0x74,0x63,0x68,0x69,0x69))
  ShowMessageFace("kamuro_fc1",0,0,2,1)
  ShowMessage("\\n<Kamuro>Kitsu-nee, do you ever think about your future...?")
  ShowMessageFace("youko_fc1",2,0,2,2)
  ShowMessage("\\n<Kitsu>D-Don't ask me something so serious!\nWhat about you, Kamuro?")
  ShowMessageFace("kamuro_fc1",2,0,2,3)
  ShowMessage("\\n<Kamuro>I don't really...\nI was thinking that I should probably start soon, though...")
  ShowMessageFace("youko_fc1",2,0,2,4)
  ShowMessage("\\n<Kitsu>Not so soon! Not any time soon!")
  241(bytes(0x04,0x08,0x6f,0x3a,0x0d,0x52,0x50,0x47,0x3a,0x3a,0x42,0x47,0x4d,0x08,0x3a,0x0a,0x40,0x6e,0x61,0x6d,0x65,0x49,0x22,0x0a,0x63,0x69,0x74,0x79,0x31,0x06,0x3a,0x06,0x45,0x54,0x3a,0x0c,0x40,0x76,0x6f,0x6c,0x75,0x6d,0x65,0x69,0x69,0x3a,0x0b,0x40,0x70,0x69,0x74,0x63,0x68,0x69,0x69))
  0()
 PAGE   2
  // condition: party contains actor #102
  0()
 PAGE   3
  // condition: party contains actor #103
  0()
