
DisplayName "Tartarus (Western Gold)"



EVENT   1
 PAGE   1
  250(bytes(0x04,0x08,0x6f,0x3a,0x0c,0x52,0x50,0x47,0x3a,0x3a,0x53,0x45,0x08,0x3a,0x0a,0x40,0x6e,0x61,0x6d,0x65,0x49,0x22,0x09,0x4d,0x6f,0x76,0x65,0x06,0x3a,0x06,0x45,0x54,0x3a,0x0b,0x40,0x70,0x69,0x74,0x63,0x68,0x69,0x69,0x3a,0x0c,0x40,0x76,0x6f,0x6c,0x75,0x6d,0x65,0x69,0x55))
  TeleportPlayer(0,428,13,1,0,0)
  0()



EVENT   2
 PAGE   1
  250(bytes(0x04,0x08,0x6f,0x3a,0x0c,0x52,0x50,0x47,0x3a,0x3a,0x53,0x45,0x08,0x3a,0x0a,0x40,0x6e,0x61,0x6d,0x65,0x49,0x22,0x09,0x4d,0x6f,0x76,0x65,0x06,0x3a,0x06,0x45,0x54,0x3a,0x0b,0x40,0x70,0x69,0x74,0x63,0x68,0x69,0x69,0x3a,0x0c,0x40,0x76,0x6f,0x6c,0x75,0x6d,0x65,0x69,0x55))
  TeleportPlayer(0,2,116,137,2,0)
  0()



EVENT   3
 PAGE   1
  250(bytes(0x04,0x08,0x6f,0x3a,0x0c,0x52,0x50,0x47,0x3a,0x3a,0x53,0x45,0x08,0x3a,0x0a,0x40,0x6e,0x61,0x6d,0x65,0x49,0x22,0x09,0x4d,0x6f,0x76,0x65,0x06,0x3a,0x06,0x45,0x54,0x3a,0x0b,0x40,0x70,0x69,0x74,0x63,0x68,0x69,0x69,0x3a,0x0c,0x40,0x76,0x6f,0x6c,0x75,0x6d,0x65,0x69,0x55))
  TeleportPlayer(0,2,116,137,2,0)
  0()



EVENT   4
 PAGE   1
  250(bytes(0x04,0x08,0x6f,0x3a,0x0c,0x52,0x50,0x47,0x3a,0x3a,0x53,0x45,0x08,0x3a,0x0a,0x40,0x6e,0x61,0x6d,0x65,0x49,0x22,0x09,0x4d,0x6f,0x76,0x65,0x06,0x3a,0x06,0x45,0x54,0x3a,0x0b,0x40,0x70,0x69,0x74,0x63,0x68,0x69,0x69,0x3a,0x0c,0x40,0x76,0x6f,0x6c,0x75,0x6d,0x65,0x69,0x55))
  TeleportPlayer(0,2,116,137,2,0)
  0()



EVENT   5
 PAGE   1
  250(bytes(0x04,0x08,0x6f,0x3a,0x0c,0x52,0x50,0x47,0x3a,0x3a,0x53,0x45,0x08,0x3a,0x0a,0x40,0x6e,0x61,0x6d,0x65,0x49,0x22,0x09,0x4d,0x6f,0x76,0x65,0x06,0x3a,0x06,0x45,0x54,0x3a,0x0b,0x40,0x70,0x69,0x74,0x63,0x68,0x69,0x69,0x3a,0x0c,0x40,0x76,0x6f,0x6c,0x75,0x6d,0x65,0x69,0x55))
  TeleportPlayer(0,2,116,137,2,0)
  0()



EVENT   6
 PAGE   1
  250(bytes(0x04,0x08,0x6f,0x3a,0x0c,0x52,0x50,0x47,0x3a,0x3a,0x53,0x45,0x08,0x3a,0x0a,0x40,0x6e,0x61,0x6d,0x65,0x49,0x22,0x09,0x4d,0x6f,0x76,0x65,0x06,0x3a,0x06,0x45,0x54,0x3a,0x0b,0x40,0x70,0x69,0x74,0x63,0x68,0x69,0x69,0x3a,0x0c,0x40,0x76,0x6f,0x6c,0x75,0x6d,0x65,0x69,0x55))
  TeleportPlayer(0,2,116,137,2,0)
  0()



EVENT   7
 PAGE   1
  250(bytes(0x04,0x08,0x6f,0x3a,0x0c,0x52,0x50,0x47,0x3a,0x3a,0x53,0x45,0x08,0x3a,0x0a,0x40,0x6e,0x61,0x6d,0x65,0x49,0x22,0x09,0x4d,0x6f,0x76,0x65,0x06,0x3a,0x06,0x45,0x54,0x3a,0x0b,0x40,0x70,0x69,0x74,0x63,0x68,0x69,0x69,0x3a,0x0c,0x40,0x76,0x6f,0x6c,0x75,0x6d,0x65,0x69,0x55))
  TeleportPlayer(0,2,116,137,2,0)
  0()



EVENT   8
 PAGE   1
  250(bytes(0x04,0x08,0x6f,0x3a,0x0c,0x52,0x50,0x47,0x3a,0x3a,0x53,0x45,0x08,0x3a,0x0a,0x40,0x6e,0x61,0x6d,0x65,0x49,0x22,0x09,0x4d,0x6f,0x76,0x65,0x06,0x3a,0x06,0x45,0x54,0x3a,0x0b,0x40,0x70,0x69,0x74,0x63,0x68,0x69,0x69,0x3a,0x0c,0x40,0x76,0x6f,0x6c,0x75,0x6d,0x65,0x69,0x55))
  TeleportPlayer(0,2,116,137,2,0)
  0()



EVENT   9
 PAGE   1
  217()
  If(0,6,0)
   ShowMessageFace("sonia_fc2",2,0,2,1)
   ShowMessage("\\n<Sonya>何これ……炎？")
   0()
  Else()
   ShowMessageFace("ruka_fc1",0,0,2,2)
   ShowMessage("\\n<Luka>なにこれ……炎？")
   0()
  EndIf()
  If(0,4,0)
   ShowMessageFace("alice_fc5",2,0,2,3)
   ShowMessage("\\n<Alice>炎を操れる者の力がなければ、先には進めんらしい……")
   ShowMessage("ふん、何者の仕業かは容易に見当がつくな。")
   0()
  EndIf()
  If(0,5,0)
   ShowMessageFace("iriasu_fc4",2,0,2,4)
   ShowMessage("\\n<Ilias>炎を操れる者の力がなければ、先には進めませんね……")
   ShowMessage("誰の仕業かは、それこそ火を見るより明らかです。")
   0()
  EndIf()
  If(4,72,0)
   ShowMessageFace("phoenix_fc1",3,0,2,5)
   ShowMessage("\\n<Mini>あたしじゃダメか？")
   ShowMessage("……ダメそうだな。")
   0()
  EndIf()
  If(1,1001,0,28,1)
   ShowMessageFace("salamander_fc1",0,0,2,6)
   ShowMessage("\\n<Salamander>なるほど、私を指名というわけか。")
   ShowMessage("ふん……下らん火遊びだな。")
   250(bytes(0x04,0x08,0x6f,0x3a,0x0c,0x52,0x50,0x47,0x3a,0x3a,0x53,0x45,0x08,0x3a,0x0a,0x40,0x6e,0x61,0x6d,0x65,0x49,0x22,0x0a,0x46,0x69,0x72,0x65,0x32,0x06,0x3a,0x06,0x45,0x54,0x3a,0x0b,0x40,0x70,0x69,0x74,0x63,0x68,0x69,0x69,0x3a,0x0c,0x40,0x76,0x6f,0x6c,0x75,0x6d,0x65,0x69,0x55))
   ChangeSwitch(2159,2159,0)
   ShowMessageFace("",0,0,2,7)
   ShowMessage("サラマンダーの力で、行く手を塞いでいた炎が掻き消えた！")
   205(-1,bytes(0x04,0x08,0x6f,0x3a,0x13,0x52,0x50,0x47,0x3a,0x3a,0x4d,0x6f,0x76,0x65,0x52,0x6f,0x75,0x74,0x65,0x09,0x3a,0x0c,0x40,0x72,0x65,0x70,0x65,0x61,0x74,0x46,0x3a,0x0f,0x40,0x73,0x6b,0x69,0x70,0x70,0x61,0x62,0x6c,0x65,0x46,0x3a,0x0a,0x40,0x77,0x61,0x69,0x74,0x54,0x3a,0x0a,0x40,0x6c,0x69,0x73,0x74,0x5b,0x07,0x6f,0x3a,0x15,0x52,0x50,0x47,0x3a,0x3a,0x4d,0x6f,0x76,0x65,0x43,0x6f,0x6d,0x6d,0x61,0x6e,0x64,0x07,0x3a,0x0a,0x40,0x63,0x6f,0x64,0x65,0x69,0x18,0x3a,0x10,0x40,0x70,0x61,0x72,0x61,0x6d,0x65,0x74,0x65,0x72,0x73,0x5b,0x00,0x6f,0x3b,0x0a,0x07,0x3b,0x0b,0x69,0x00,0x3b,0x0c,0x5b,0x00))
   If(0,4,0)
    ShowMessageFace("alice_fc6",1,0,2,8)
    ShowMessage("\\n<Alice>これで障害は取り除いたぞ！")
    ShowMessage("さあ、姿を現したらどうだ！")
    0()
   EndIf()
   If(0,5,0)
    ShowMessageFace("iriasu_fc4",7,0,2,9)
    ShowMessage("\\n<Ilias>障害は取り除きましたよ！")
    ShowMessage("いるのは分かっているのです、姿を現しなさい！")
    0()
   EndIf()
   241(bytes(0x04,0x08,0x6f,0x3a,0x0d,0x52,0x50,0x47,0x3a,0x3a,0x42,0x47,0x4d,0x08,0x3a,0x0a,0x40,0x6e,0x61,0x6d,0x65,0x49,0x22,0x0f,0x73,0x68,0x69,0x72,0x6f,0x75,0x73,0x61,0x67,0x69,0x06,0x3a,0x06,0x45,0x54,0x3a,0x0c,0x40,0x76,0x6f,0x6c,0x75,0x6d,0x65,0x69,0x69,0x3a,0x0b,0x40,0x70,0x69,0x74,0x63,0x68,0x69,0x69))
   ChangeSwitch(2029,2029,0)
   250(bytes(0x04,0x08,0x6f,0x3a,0x0c,0x52,0x50,0x47,0x3a,0x3a,0x53,0x45,0x08,0x3a,0x0a,0x40,0x6e,0x61,0x6d,0x65,0x49,0x22,0x10,0x6d,0x6f,0x6e,0x5f,0x74,0x61,0x6d,0x61,0x6d,0x6f,0x32,0x06,0x3a,0x06,0x45,0x54,0x3a,0x0b,0x40,0x70,0x69,0x74,0x63,0x68,0x69,0x69,0x3a,0x0c,0x40,0x76,0x6f,0x6c,0x75,0x6d,0x65,0x69,0x55))
   205(11,bytes(0x04,0x08,0x6f,0x3a,0x13,0x52,0x50,0x47,0x3a,0x3a,0x4d,0x6f,0x76,0x65,0x52,0x6f,0x75,0x74,0x65,0x09,0x3a,0x0c,0x40,0x72,0x65,0x70,0x65,0x61,0x74,0x46,0x3a,0x0f,0x40,0x73,0x6b,0x69,0x70,0x70,0x61,0x62,0x6c,0x65,0x46,0x3a,0x0a,0x40,0x77,0x61,0x69,0x74,0x54,0x3a,0x0a,0x40,0x6c,0x69,0x73,0x74,0x5b,0x07,0x6f,0x3a,0x15,0x52,0x50,0x47,0x3a,0x3a,0x4d,0x6f,0x76,0x65,0x43,0x6f,0x6d,0x6d,0x61,0x6e,0x64,0x07,0x3a,0x0a,0x40,0x63,0x6f,0x64,0x65,0x69,0x13,0x3a,0x10,0x40,0x70,0x61,0x72,0x61,0x6d,0x65,0x74,0x65,0x72,0x73,0x5b,0x07,0x69,0x00,0x69,0x00,0x6f,0x3b,0x0a,0x07,0x3b,0x0b,0x69,0x00,0x3b,0x0c,0x5b,0x00))
   Wait(15)
   PictureDisplay(5,"80_sirousagi_st01",0,0,0,0,100,100,0,0)
   PictureMove(5,null,0,0,0,0,100,100,255,0,60,true)
   ShowMessageFace("sirousagi_fc1",0,0,2,10)
   ShowMessage("\\n<White Rabbit>ばばばーん！")
   If(0,6,0)
    ShowMessageFace("sonia_fc1",5,0,2,11)
    ShowMessage("\\n<Sonya>やっぱり、あんたの仕業ね……！")
    0()
   Else()
    ShowMessageFace("ruka_fc1",0,0,2,12)
    ShowMessage("\\n<Luka>やっぱり、お前の仕業か！")
    0()
   EndIf()
   ShowMessageFace("sirousagi_fc1",0,0,2,13)
   ShowMessage("\\n<White Rabbit>そうだよ～♪")
   ShowMessage("これで、正史通り四精霊が揃ったね！")
   ShowMessageFace("sirousagi_fc1",0,0,2,14)
   ShowMessage("\\n<White Rabbit>マルケルスのメモに従って、精霊を集めてたんだっけ……")
   ShowMessage("そのおかげで、ボクが導く必要があんまりなかったよね。")
   ShowMessageFace("sirousagi_fc1",0,0,2,15)
   ShowMessage("\\n<White Rabbit>ボクの存在意義って、メモ同然？")
   ShowMessage("それじゃあ、これからの用件も全部メモで済ませていい？")
   If(0,4,0)
    ShowMessageFace("alice_fc5",2,0,2,16)
    ShowMessage("\\n<Alice>こちらとしては、その方がありがたいのだがな。")
    ShowMessage("貴様は、正史通りに我々を誘導するのが目的なのだろう？")
    0()
   EndIf()
   If(0,5,0)
    ShowMessageFace("iriasu_fc4",7,0,2,17)
    ShowMessage("\\n<Ilias>できれば、そう願いたいのですがね……")
    ShowMessage("あなたは、正史通りに我々を誘導するのが目的なのでしょう？")
    0()
   EndIf()
   ShowMessageFace("sirousagi_fc1",0,0,2,18)
   ShowMessage("\\n<White Rabbit>まあ、だいたいそんな感じだよね～。")
   ShowMessageFace("sirousagi_fc1",0,0,2,19)
   ShowMessage("\\n<White Rabbit>この世界の歴史が正史からズレればズレるほど、")
   ShowMessage("カオス化が進行していくってのはすでに知ってるよね。")
   ShowMessageFace("sirousagi_fc1",0,0,2,20)
   ShowMessage("\\n<White Rabbit>だからみんな、それぞれ何を企んでいるにしても……")
   ShowMessage("正史からなるべくズレない形で進行させなきゃいけないのさ。")
   If(0,4,0)
    ShowMessageFace("alice_fc5",2,0,2,21)
    ShowMessage("\\n<Alice>みんな……？")
    ShowMessage("それは母上やリリス三姉妹、それに熾天使どもの事か？")
    0()
   EndIf()
   If(0,5,0)
    ShowMessageFace("iriasu_fc4",7,0,2,22)
    ShowMessage("\\n<Ilias>みんな……？")
    ShowMessage("それは魔王やリリス三姉妹、それに熾天使達の事ですか？")
    0()
   EndIf()
   ShowMessageFace("sirousagi_fc1",0,0,2,23)
   ShowMessage("\\n<White Rabbit>……そうそう。")
   ShowMessage("それぞれ目的は違えど、あまり歴史を乱さないように進めるってわけ。")
   ShowMessageFace("sirousagi_fc1",0,0,2,24)
   ShowMessage("\\n<White Rabbit>んっ？　また誰かがボクを追ってきてる予感……")
   ShowMessage("厨二メガネか、半メカ父か……どっちもキミの一親等内。")
   ShowMessageFace("sirousagi_fc1",0,0,2,25)
   ShowMessage("\\n<White Rabbit>ボクを目の敵にしてるみたいだけど……")
   ShowMessage("正直、ボクを何人倒したって意味ないんだよね。")
   ShowMessageFace("sirousagi_fc1",0,0,2,26)
   ShowMessage("\\n<White Rabbit>ボクは存在じゃなくて、現象であり法則。")
   ShowMessage("例えるならば、三平方の定理を倒そうとするみたいなものなんだ。")
   ShowMessageFace("sirousagi_fc1",0,0,2,27)
   ShowMessage("\\n<White Rabbit>周囲にある直角三角形を、どれだけ壊したって……")
   ShowMessage("斜辺の長さの二乗は、残る辺の二乗の合計に等しい事に変化はないのさ。")
   If(0,4,0)
    ShowMessageFace("alice_fc5",2,0,2,28)
    ShowMessage("\\n<Alice>何を、分かったような分からんような事を……！")
    0()
   EndIf()
   If(0,5,0)
    ShowMessageFace("iriasu_fc4",2,0,2,29)
    ShowMessage("\\n<Ilias>存在ではなく、現象であり法則……")
    ShowMessage("つまりあなたは、意志を持った上位概念だというのですか？")
    0()
   EndIf()
   ShowMessageFace("sirousagi_fc1",0,0,2,30)
   ShowMessage("\\n<White Rabbit>でも首を飛ばされるのはイヤだから、逃げるね！")
   ShowMessage("それじゃあ、また今度ね～♪")
   If(0,4,0)
    ShowMessageFace("alice_fc6",0,0,2,31)
    ShowMessage("\\n<Alice>おい、待て……！")
    0()
   EndIf()
   If(0,5,0)
    ShowMessageFace("iriasu_fc4",7,0,2,32)
    ShowMessage("\\n<Ilias>待ちなさい……！")
    0()
   EndIf()
   PictureClear(5)
   Wait(60)
   250(bytes(0x04,0x08,0x6f,0x3a,0x0c,0x52,0x50,0x47,0x3a,0x3a,0x53,0x45,0x08,0x3a,0x0a,0x40,0x6e,0x61,0x6d,0x65,0x49,0x22,0x10,0x6d,0x6f,0x6e,0x5f,0x74,0x61,0x6d,0x61,0x6d,0x6f,0x32,0x06,0x3a,0x06,0x45,0x54,0x3a,0x0b,0x40,0x70,0x69,0x74,0x63,0x68,0x69,0x69,0x3a,0x0c,0x40,0x76,0x6f,0x6c,0x75,0x6d,0x65,0x69,0x55))
   205(11,bytes(0x04,0x08,0x6f,0x3a,0x13,0x52,0x50,0x47,0x3a,0x3a,0x4d,0x6f,0x76,0x65,0x52,0x6f,0x75,0x74,0x65,0x09,0x3a,0x0c,0x40,0x72,0x65,0x70,0x65,0x61,0x74,0x46,0x3a,0x0f,0x40,0x73,0x6b,0x69,0x70,0x70,0x61,0x62,0x6c,0x65,0x46,0x3a,0x0a,0x40,0x77,0x61,0x69,0x74,0x54,0x3a,0x0a,0x40,0x6c,0x69,0x73,0x74,0x5b,0x07,0x6f,0x3a,0x15,0x52,0x50,0x47,0x3a,0x3a,0x4d,0x6f,0x76,0x65,0x43,0x6f,0x6d,0x6d,0x61,0x6e,0x64,0x07,0x3a,0x0a,0x40,0x63,0x6f,0x64,0x65,0x69,0x13,0x3a,0x10,0x40,0x70,0x61,0x72,0x61,0x6d,0x65,0x74,0x65,0x72,0x73,0x5b,0x07,0x69,0x00,0x69,0x00,0x6f,0x3b,0x0a,0x07,0x3b,0x0b,0x69,0x00,0x3b,0x0c,0x5b,0x00))
   ChangeSwitch(2029,2029,1)
   241(bytes(0x04,0x08,0x6f,0x3a,0x0d,0x52,0x50,0x47,0x3a,0x3a,0x42,0x47,0x4d,0x08,0x3a,0x0a,0x40,0x6e,0x61,0x6d,0x65,0x49,0x22,0x0a,0x6f,0x6f,0x61,0x6e,0x61,0x06,0x3a,0x06,0x45,0x54,0x3a,0x0c,0x40,0x76,0x6f,0x6c,0x75,0x6d,0x65,0x69,0x69,0x3a,0x0b,0x40,0x70,0x69,0x74,0x63,0x68,0x69,0x69))
   If(0,6,0)
    ShowMessageFace("sonia_fc2",2,0,2,33)
    ShowMessage("\\n<Sonya>行っちゃった……")
    0()
   Else()
    ShowMessageFace("ruka_fc1",0,0,2,34)
    ShowMessage("\\n<Luka>行っちゃった……")
    0()
   EndIf()
   If(0,4,0)
    ShowMessageFace("alice_fc5",2,0,2,35)
    ShowMessage("\\n<Alice>ふん、あいつに何かを教えてもらおうとは思わん。")
    ShowMessage("さあ、タルタロスの中に降りるぞ！")
    0()
   EndIf()
   If(0,5,0)
    ShowMessageFace("iriasu_fc4",7,0,2,36)
    ShowMessage("\\n<Ilias>あのような者に関わっている暇はありません。")
    ShowMessage("さあ、タルタロスの中に降りましょう！")
    0()
   EndIf()
   If(4,41,0)
    ShowMessageFace("stein_fc2",1,0,2,37)
    ShowMessage("\\n<Promestein>次はどんな並行世界なのか……")
    ShowMessage("胸がドキドキしますね♪")
    0()
   EndIf()
   If(4,79,0)
    ShowMessageFace("nuruko_fc1",0,0,2,38)
    ShowMessage("\\n<Nuruko>きゅきゅ～！！")
    0()
   EndIf()
   EndEventProcessing()
   0()
  Else()
   ShowMessageFace("ruka_fc1",0,0,2,39)
   ShowMessage("\\n<Luka>火を操る者……炎の精霊、サラマンダーか。")
   ShowMessage("結局、契約を先に行わないといけないみたいだね。")
   If(0,4,0)
    ShowMessageFace("alice_fc5",3,0,2,40)
    ShowMessage("\\n<Alice>白兎め、これで導いているつもりか……？")
    ShowMessage("気に入らんな……")
    0()
   EndIf()
   If(0,5,0)
    ShowMessageFace("iriasu_fc4",2,0,2,41)
    ShowMessage("\\n<Ilias>導いているつもりですか、白兎……")
    ShowMessage("気に入りません……")
    0()
   EndIf()
   0()
  EndIf()
  0()
 PAGE   2
  // condition: switch 2159 is ON
  0()



EVENT   10
 PAGE   1
  ChangeSelfSwitch("A",0)
  If(0,4,0)
   ShowMessageFace("alice_fc5",2,0,2,1)
   ShowMessage("\\n<Alice>いよいよ、ここまで来たな……")
   ShowMessage("さあ、タルタロスの中を探索するぞ。")
   0()
  EndIf()
  If(0,5,0)
   ShowMessageFace("iriasu_fc4",0,0,2,2)
   ShowMessage("\\n<Ilias>ようやくここまで来ましたね……")
   ShowMessage("さあ、タルタロスの中を探索しましょう。")
   0()
  EndIf()
  ShowMessageFace("ruka_fc1",0,0,2,3)
  ShowMessage("\\n<Luka>今度は、どんな並行世界に繋がってるんだろうね。")
  ShowMessage("それに、もしかしたら父さんがいるかもしれない……")
  If(4,185,0)
   ShowMessageFace("radio_fc1",0,0,2,4)
   ShowMessage("\\n<Radio>ばりバリですヨ……")
   0()
  EndIf()
  0()
 PAGE   2
  // condition: self-switch A is ON
  0()



EVENT   11
 PAGE   1
  // condition: switch 2029 is ON
  0()
