﻿


EVENT   1
 PAGE   1
  281(1)
  250(bytes(0x04,0x08,0x6f,0x3a,0x0c,0x52,0x50,0x47,0x3a,0x3a,0x53,0x45,0x08,0x3a,0x0a,0x40,0x6e,0x61,0x6d,0x65,0x49,0x22,0x09,0x4d,0x6f,0x76,0x65,0x06,0x3a,0x06,0x45,0x54,0x3a,0x0b,0x40,0x70,0x69,0x74,0x63,0x68,0x69,0x69,0x3a,0x0c,0x40,0x76,0x6f,0x6c,0x75,0x6d,0x65,0x69,0x55))
  TeleportPlayer(0,466,12,13,0,0)
  0()



EVENT   2
 PAGE   1
  281(1)
  250(bytes(0x04,0x08,0x6f,0x3a,0x0c,0x52,0x50,0x47,0x3a,0x3a,0x53,0x45,0x08,0x3a,0x0a,0x40,0x6e,0x61,0x6d,0x65,0x49,0x22,0x09,0x4d,0x6f,0x76,0x65,0x06,0x3a,0x06,0x45,0x54,0x3a,0x0b,0x40,0x70,0x69,0x74,0x63,0x68,0x69,0x69,0x3a,0x0c,0x40,0x76,0x6f,0x6c,0x75,0x6d,0x65,0x69,0x55))
  TeleportPlayer(0,466,12,13,0,0)
  0()



EVENT   3
 PAGE   1
  281(1)
  250(bytes(0x04,0x08,0x6f,0x3a,0x0c,0x52,0x50,0x47,0x3a,0x3a,0x53,0x45,0x08,0x3a,0x0a,0x40,0x6e,0x61,0x6d,0x65,0x49,0x22,0x09,0x4d,0x6f,0x76,0x65,0x06,0x3a,0x06,0x45,0x54,0x3a,0x0b,0x40,0x70,0x69,0x74,0x63,0x68,0x69,0x69,0x3a,0x0c,0x40,0x76,0x6f,0x6c,0x75,0x6d,0x65,0x69,0x55))
  TeleportPlayer(0,466,12,13,0,0)
  0()



EVENT   4
 PAGE   1
  0()



EVENT   5
 PAGE   1
  250(bytes(0x04,0x08,0x6f,0x3a,0x0c,0x52,0x50,0x47,0x3a,0x3a,0x53,0x45,0x08,0x3a,0x0a,0x40,0x6e,0x61,0x6d,0x65,0x49,0x22,0x09,0x4d,0x6f,0x76,0x65,0x06,0x3a,0x06,0x45,0x54,0x3a,0x0b,0x40,0x70,0x69,0x74,0x63,0x68,0x69,0x69,0x3a,0x0c,0x40,0x76,0x6f,0x6c,0x75,0x6d,0x65,0x69,0x55))
  TeleportPlayer(0,467,17,46,0,0)
  0()



EVENT   6
 PAGE   1
  250(bytes(0x04,0x08,0x6f,0x3a,0x0c,0x52,0x50,0x47,0x3a,0x3a,0x53,0x45,0x08,0x3a,0x0a,0x40,0x6e,0x61,0x6d,0x65,0x49,0x22,0x09,0x4d,0x6f,0x76,0x65,0x06,0x3a,0x06,0x45,0x54,0x3a,0x0b,0x40,0x70,0x69,0x74,0x63,0x68,0x69,0x69,0x3a,0x0c,0x40,0x76,0x6f,0x6c,0x75,0x6d,0x65,0x69,0x55))
  TeleportPlayer(0,467,17,46,0,0)
  0()



EVENT   7
 PAGE   1
  250(bytes(0x04,0x08,0x6f,0x3a,0x0c,0x52,0x50,0x47,0x3a,0x3a,0x53,0x45,0x08,0x3a,0x0a,0x40,0x6e,0x61,0x6d,0x65,0x49,0x22,0x09,0x4d,0x6f,0x76,0x65,0x06,0x3a,0x06,0x45,0x54,0x3a,0x0b,0x40,0x70,0x69,0x74,0x63,0x68,0x69,0x69,0x3a,0x0c,0x40,0x76,0x6f,0x6c,0x75,0x6d,0x65,0x69,0x55))
  TeleportPlayer(0,467,17,14,0,0)
  0()



EVENT   8
 PAGE   1
  250(bytes(0x04,0x08,0x6f,0x3a,0x0c,0x52,0x50,0x47,0x3a,0x3a,0x53,0x45,0x08,0x3a,0x0a,0x40,0x6e,0x61,0x6d,0x65,0x49,0x22,0x09,0x4d,0x6f,0x76,0x65,0x06,0x3a,0x06,0x45,0x54,0x3a,0x0b,0x40,0x70,0x69,0x74,0x63,0x68,0x69,0x69,0x3a,0x0c,0x40,0x76,0x6f,0x6c,0x75,0x6d,0x65,0x69,0x55))
  TeleportPlayer(0,467,17,14,0,0)
  0()



EVENT   9
 PAGE   1
  250(bytes(0x04,0x08,0x6f,0x3a,0x0c,0x52,0x50,0x47,0x3a,0x3a,0x53,0x45,0x08,0x3a,0x0a,0x40,0x6e,0x61,0x6d,0x65,0x49,0x22,0x09,0x4d,0x6f,0x76,0x65,0x06,0x3a,0x06,0x45,0x54,0x3a,0x0b,0x40,0x70,0x69,0x74,0x63,0x68,0x69,0x69,0x3a,0x0c,0x40,0x76,0x6f,0x6c,0x75,0x6d,0x65,0x69,0x55))
  TeleportPlayer(0,467,17,14,0,0)
  0()



EVENT   10
 PAGE   1
  281(0)
  250(bytes(0x04,0x08,0x6f,0x3a,0x0c,0x52,0x50,0x47,0x3a,0x3a,0x53,0x45,0x08,0x3a,0x0a,0x40,0x6e,0x61,0x6d,0x65,0x49,0x22,0x09,0x4d,0x6f,0x76,0x65,0x06,0x3a,0x06,0x45,0x54,0x3a,0x0b,0x40,0x70,0x69,0x74,0x63,0x68,0x69,0x69,0x3a,0x0c,0x40,0x76,0x6f,0x6c,0x75,0x6d,0x65,0x69,0x55))
  TeleportPlayer(0,425,27,63,0,0)
  0()



EVENT   11
 PAGE   1
  If(12,"unlock_level < 3")
   ShowMessageFace("",0,0,2,1)
   ShowMessage("The chest is locked.")
   EndEventProcessing()
   0()
  EndIf()
  250(bytes(0x04,0x08,0x6f,0x3a,0x0c,0x52,0x50,0x47,0x3a,0x3a,0x53,0x45,0x08,0x3a,0x0a,0x40,0x6e,0x61,0x6d,0x65,0x49,0x22,0x0a,0x43,0x68,0x65,0x73,0x74,0x06,0x3a,0x06,0x45,0x54,0x3a,0x0b,0x40,0x70,0x69,0x74,0x63,0x68,0x69,0x69,0x3a,0x0c,0x40,0x76,0x6f,0x6c,0x75,0x6d,0x65,0x69,0x55))
  205(0,bytes(0x04,0x08,0x6f,0x3a,0x13,0x52,0x50,0x47,0x3a,0x3a,0x4d,0x6f,0x76,0x65,0x52,0x6f,0x75,0x74,0x65,0x09,0x3a,0x0c,0x40,0x72,0x65,0x70,0x65,0x61,0x74,0x46,0x3a,0x0f,0x40,0x73,0x6b,0x69,0x70,0x70,0x61,0x62,0x6c,0x65,0x46,0x3a,0x0a,0x40,0x77,0x61,0x69,0x74,0x54,0x3a,0x0a,0x40,0x6c,0x69,0x73,0x74,0x5b,0x0b,0x6f,0x3a,0x15,0x52,0x50,0x47,0x3a,0x3a,0x4d,0x6f,0x76,0x65,0x43,0x6f,0x6d,0x6d,0x61,0x6e,0x64,0x07,0x3a,0x0a,0x40,0x63,0x6f,0x64,0x65,0x69,0x29,0x3a,0x10,0x40,0x70,0x61,0x72,0x61,0x6d,0x65,0x74,0x65,0x72,0x73,0x5b,0x00,0x6f,0x3b,0x0a,0x07,0x3b,0x0b,0x69,0x16,0x3b,0x0c,0x5b,0x00,0x6f,0x3b,0x0a,0x07,0x3b,0x0b,0x69,0x14,0x3b,0x0c,0x5b,0x06,0x69,0x08,0x6f,0x3b,0x0a,0x07,0x3b,0x0b,0x69,0x17,0x3b,0x0c,0x5b,0x00,0x6f,0x3b,0x0a,0x07,0x3b,0x0b,0x69,0x14,0x3b,0x0c,0x5b,0x06,0x69,0x08,0x6f,0x3b,0x0a,0x07,0x3b,0x0b,0x69,0x00,0x3b,0x0c,0x5b,0x00))
  ChangeSelfSwitch("A",0)
  ChangeInventory_Item(660,0,0,1)
  If(0,4,0)
   ShowMessageFace("alice_fc5",0,0,2,2)
   ShowMessage("\\n<Alice>これは、転種アイテムのようだな。")
   ShowMessage("もしかして、アポトーシス絡みか……？")
   0()
  EndIf()
  If(0,5,0)
   ShowMessageFace("iriasu_fc4",2,0,2,3)
   ShowMessage("\\n<Ilias>これは、転種アイテムのようですね。")
   ShowMessage("もしやアポトーシス絡みでしょうか……？")
   0()
  EndIf()
  0()
 PAGE   2
  // condition: self-switch A is ON
  0()



EVENT   12
 PAGE   1
  250(bytes(0x04,0x08,0x6f,0x3a,0x0c,0x52,0x50,0x47,0x3a,0x3a,0x53,0x45,0x08,0x3a,0x0a,0x40,0x6e,0x61,0x6d,0x65,0x49,0x22,0x0a,0x43,0x68,0x65,0x73,0x74,0x06,0x3a,0x06,0x45,0x54,0x3a,0x0b,0x40,0x70,0x69,0x74,0x63,0x68,0x69,0x69,0x3a,0x0c,0x40,0x76,0x6f,0x6c,0x75,0x6d,0x65,0x69,0x55))
  205(0,bytes(0x04,0x08,0x6f,0x3a,0x13,0x52,0x50,0x47,0x3a,0x3a,0x4d,0x6f,0x76,0x65,0x52,0x6f,0x75,0x74,0x65,0x09,0x3a,0x0c,0x40,0x72,0x65,0x70,0x65,0x61,0x74,0x46,0x3a,0x0f,0x40,0x73,0x6b,0x69,0x70,0x70,0x61,0x62,0x6c,0x65,0x46,0x3a,0x0a,0x40,0x77,0x61,0x69,0x74,0x54,0x3a,0x0a,0x40,0x6c,0x69,0x73,0x74,0x5b,0x0b,0x6f,0x3a,0x15,0x52,0x50,0x47,0x3a,0x3a,0x4d,0x6f,0x76,0x65,0x43,0x6f,0x6d,0x6d,0x61,0x6e,0x64,0x07,0x3a,0x0a,0x40,0x63,0x6f,0x64,0x65,0x69,0x29,0x3a,0x10,0x40,0x70,0x61,0x72,0x61,0x6d,0x65,0x74,0x65,0x72,0x73,0x5b,0x00,0x6f,0x3b,0x0a,0x07,0x3b,0x0b,0x69,0x16,0x3b,0x0c,0x5b,0x00,0x6f,0x3b,0x0a,0x07,0x3b,0x0b,0x69,0x14,0x3b,0x0c,0x5b,0x06,0x69,0x08,0x6f,0x3b,0x0a,0x07,0x3b,0x0b,0x69,0x17,0x3b,0x0c,0x5b,0x00,0x6f,0x3b,0x0a,0x07,0x3b,0x0b,0x69,0x14,0x3b,0x0c,0x5b,0x06,0x69,0x08,0x6f,0x3b,0x0a,0x07,0x3b,0x0b,0x69,0x00,0x3b,0x0c,0x5b,0x00))
  ChangeSelfSwitch("A",0)
  ChangeInventory_Item(32,0,0,1)
  0()
 PAGE   2
  // condition: self-switch A is ON
  0()



EVENT   13
 PAGE   1
  250(bytes(0x04,0x08,0x6f,0x3a,0x0c,0x52,0x50,0x47,0x3a,0x3a,0x53,0x45,0x08,0x3a,0x0a,0x40,0x6e,0x61,0x6d,0x65,0x49,0x22,0x0a,0x49,0x74,0x65,0x6d,0x31,0x06,0x3a,0x06,0x45,0x54,0x3a,0x0b,0x40,0x70,0x69,0x74,0x63,0x68,0x69,0x69,0x3a,0x0c,0x40,0x76,0x6f,0x6c,0x75,0x6d,0x65,0x69,0x55))
  ChangeSelfSwitch("A",0)
  ChangeInventoryArmor(156,0,0,1,false)
  0()
 PAGE   2
  // condition: self-switch A is ON
  0()



EVENT   14
 PAGE   1
  281(0)
  250(bytes(0x04,0x08,0x6f,0x3a,0x0c,0x52,0x50,0x47,0x3a,0x3a,0x53,0x45,0x08,0x3a,0x0a,0x40,0x6e,0x61,0x6d,0x65,0x49,0x22,0x09,0x4d,0x6f,0x76,0x65,0x06,0x3a,0x06,0x45,0x54,0x3a,0x0b,0x40,0x70,0x69,0x74,0x63,0x68,0x69,0x69,0x3a,0x0c,0x40,0x76,0x6f,0x6c,0x75,0x6d,0x65,0x69,0x55))
  TeleportPlayer(0,425,27,63,0,0)
  0()



EVENT   15
 PAGE   1
  ShowMessageFace("",0,0,2,1)
  ShowMessage("・・・・・・・・データ凍結")
  0()



EVENT   16
 PAGE   1
  0()



EVENT   17
 PAGE   1
  0()



EVENT   18
 PAGE   1
  ShowMessageFace(binary"",0,0,2,1)
  ShowMessage("CACCCCGCCTAACCGTCTAAGCTCGTCCGCACCGCCTGGAAC")
  ShowMessage("CGCTTCCCCGTACTCAGTCCCCATCCCCtCCCACGGCCCACT")
  ShowMessage("ACCTCCGCCCCCAACCCTCCAAACCCTACCCCCCACCTCCCA")
  ShowMessage("TTCCCACCCCCGCCACCCTCCCACCCACCCGCGCCTCCACAC")
  0()



EVENT   19
 PAGE   1
  0()



EVENT   20
 PAGE   1
  ShowMessageFace("",0,0,2,1)
  ShowMessage("KKS100236:凍結")
  If(4,41,0)
   ShowMessageFace("stein_fc2",0,0,2,2)
   ShowMessage("\\n<Promestein>この人、生きていますね……")
   ShowMessage("おそらく意思疎通は不可能でしょうが。")
   0()
  EndIf()
  0()



EVENT   21
 PAGE   1
  ShowMessageFace("",0,0,2,1)
  ShowMessage("FS067678；破棄")
  If(0,6,0)
   ShowMessageFace("sonia_fc3",7,0,2,2)
   ShowMessage("\\n<Sonya>何、これ……")
   0()
  EndIf()
  If(4,41,0)
   ShowMessageFace("stein_fc2",0,0,2,3)
   ShowMessage("\\n<Promestein>まるで標本のように……")
   0()
  EndIf()
  0()



EVENT   22
 PAGE   1
  ShowMessageFace("",0,0,2,1)
  ShowMessage("FS0976582：解剖後再構築　凍結")
  0()



EVENT   23
 PAGE   1
  0()



EVENT   24
 PAGE   1
  0()



EVENT   25
 PAGE   1
  0()



EVENT   26
 PAGE   1
  0()



EVENT   27
 PAGE   1
  0()



EVENT   28
 PAGE   1
  ShowMessageFace("",0,0,2,1)
  ShowMessage("ERROR")
  ShowMessage("ERROR")
  ShowMessage("ERROR")
  ShowMessage("ERROR")
  ShowMessageFace("",0,0,2,2)
  ShowMessage("ERROR")
  ShowMessage("ERROR")
  ShowMessage("ERROR")
  ShowMessage("ERROR")
  0()



EVENT   29
 PAGE   1
  0()



EVENT   30
 PAGE   1
  ShowMessageFace("",0,0,2,1)
  ShowMessage("たすけて")
  ShowMessage("殺して")
  If(4,41,0)
   ShowMessageFace("stein_fc2",0,0,2,2)
   ShowMessage("\\n<Promestein>意志が僅かに残っているようですね……")
   0()
  EndIf()
  0()



EVENT   31
 PAGE   1
  0()



EVENT   32
 PAGE   1
  0()



EVENT   33
 PAGE   1
  0()



EVENT   34
 PAGE   1
  0()



EVENT   35
 PAGE   1
  0()



EVENT   36
 PAGE   1
  ShowMessageFace("",0,0,2,1)
  ShowMessage("■■■■■■■■■■■■■■■■■■■■■")
  ShowMessage("■■■■■■■■■■■■■■■■■■■■■")
  ShowMessage("■■■■■■■■■■■■■■■■■■■■■")
  ShowMessage("■■■■■■■■■■■■■■■■■■■■■")
  ShowMessageFace("",0,0,2,2)
  ShowMessage("■■■■■■■■■■■■■■■■■■■■■")
  ShowMessage("■■■■■■■■■■■■■■■■■■■■■")
  ShowMessage("■■■■■■■■■■■■■■■■■■■■■")
  ShowMessage("■■■■■■■■■■■■■■■■■■■■■")
  ShowMessageFace("",0,0,2,3)
  ShowMessage("■■■■■■■■■■■■■■■■■■■■■")
  ShowMessage("■■■■■■■■■■■■■■■■■■■■■")
  ShowMessage("■■■■■■■■■■■■■■■■■■■■■")
  ShowMessage("■■■■■■■■■■■■■■■■■■■■■")
  If(4,41,0)
   ShowMessageFace("stein_fc2",0,0,2,4)
   ShowMessage("\\n<Promestein>情報が過剰に書き込まれ、オーバーフローしている……")
   ShowMessage("あのノートで見た現象ですね。")
   0()
  EndIf()
  0()



EVENT   37
 PAGE   1
  0()



EVENT   38
 PAGE   1
  ShowMessageFace("",0,0,2,1)
  ShowMessage("MB0220346：破棄")
  ShowMessage("MC0221859：破棄")
  ShowMessage("MB0683393：凍結")
  ShowMessage("MX0894473：破棄")
  If(4,41,0)
   ShowMessageFace("stein_fc2",0,0,2,2)
   ShowMessage("\\n<Promestein>これも、まだ息があります。")
   ShowMessage("どんな状態なのか定かではありませんが……")
   0()
  EndIf()
  0()



EVENT   39
 PAGE   1
  ShowMessageFace("",0,0,2,1)
  ShowMessage("・♪♪♪・・♪♪・・・・・♪♪・・♪・♪・")
  ShowMessage("♪♪♪♪♪♪♪・・・・♪♪・♪・♪・♪♪♪")
  ShowMessage("・・・♪♪・・♪・♪♪♪・・・・♪・・・・")
  ShowMessage("♪・・・♪♪♪・♪♪・・・♪・♪・・♪♪・")
  0()



EVENT   40
 PAGE   1
  ShowMessageFace("",0,0,2,1)
  ShowMessage("システムエラー")
  ShowMessage("E24567を実行")
  0()



EVENT   41
 PAGE   1
  0()



EVENT   42
 PAGE   1
  0()



EVENT   43
 PAGE   1
  0()



EVENT   44
 PAGE   1
  0()



EVENT   45
 PAGE   1
  0()



EVENT   46
 PAGE   1
  0()



EVENT   47
 PAGE   1
  0()



EVENT   48
 PAGE   1
  ChangeSelfSwitch("A",0)
  ShowMessageFace("",0,0,2,1)
  ShowMessage("警告：■■■■■■■■■■")
  0()
 PAGE   2
  // condition: self-switch A is ON
  0()



EVENT   49
 PAGE   1
  0()



EVENT   50
 PAGE   1
  ShowMessageFace("",0,0,2,1)
  ShowMessage("FS2399401：死亡")
  If(4,41,0)
   ShowMessageFace("stein_fc2",0,0,2,2)
   ShowMessage("\\n<Promestein>誰がこんな事を……")
   ShowMessage("いえ、意志を持つ者がやったのかどうか……")
   0()
  EndIf()
  0()



EVENT   51
 PAGE   1
  0()



EVENT   52
 PAGE   1
  0()



EVENT   53
 PAGE   1
  ShowMessageFace("",0,0,2,1)
  ShowMessage("FS276565：破棄")
  ShowMessage("以下、全て破棄")
  0()



EVENT   54
 PAGE   1
  ShowMessageFace("",0,0,2,1)
  ShowMessage("せ■■■")
  ShowMessage("現象シ■■た■■")
  0()



EVENT   55
 PAGE   1
  0()



EVENT   56
 PAGE   1
  ShowMessageFace("",0,0,2,1)
  ShowMessage("実験ハ失敗シタ")
  0()



EVENT   57
 PAGE   1
  0()



EVENT   58
 PAGE   1
  ShowMessageFace("",0,0,2,1)
  ShowMessage("かみさま　うまれた")
  0()



EVENT   59
 PAGE   1
  ShowMessageFace("",0,0,2,1)
  ShowMessage("FS0880009：XXトリソミー")
  ShowMessage("複製不可")
  0()



EVENT   60
 PAGE   1
  ShowMessageFace("",0,0,2,1)
  ShowMessage("特定ゲノム欠損：破棄")
  0()



EVENT   61
 PAGE   1
  ShowMessageFace("",0,0,2,1)
  ShowMessage("システムエラー")
  ShowMessage("システムエラー")
  ShowMessage("システムエラー")
  ShowMessage("システムエラー")
  0()



EVENT   62
 PAGE   1
  ChangeSelfSwitch("A",0)
  ShowMessageFace("ruka_fc1",0,0,2,1)
  ShowMessage("\\n<Luka>人間が、壁に埋まってる！？")
  If(0,4,0)
   ShowMessageFace("alice_fc6",0,0,2,2)
   ShowMessage("\\n<Alice>いや、壁と融合しているのか……？")
   ShowMessage("いったい何があれば、こんな事になる？")
   0()
  EndIf()
  If(0,5,0)
   ShowMessageFace("iriasu_fc4",7,0,2,3)
   ShowMessage("\\n<Ilias>いえ、壁と融合している……")
   ShowMessage("空間の侵蝕に取り込まれたのでしょうか。")
   0()
  EndIf()
  If(0,6,0)
   ShowMessageFace("sonia_fc3",7,0,2,4)
   ShowMessage("\\n<Sonya>ひどい……")
   If(4,79,0)
    ShowMessageFace("nuruko_fc1",0,0,2,5)
    ShowMessage("\\n<Nuruko>……………………")
    0()
   EndIf()
   0()
  EndIf()
  ShowMessageFace("ruka_fc1",0,0,2,6)
  ShowMessage("\\n<Luka>生きてるのか、死んでるのかも分からないな……")
  ShowMessage("とにかく、警戒しながら先に進もう。")
  0()
 PAGE   2
  // condition: self-switch A is ON
  0()



EVENT   63
 PAGE   1
  ShowMessageFace("",0,0,2,1)
  ShowMessage("扉は施錠されている。")
  ShowMessage("すぐ近くにカードリーダーがあるようだ……")
  If(0,4,0)
   ShowMessageFace("alice_fc5",0,0,2,2)
   ShowMessage("\\n<Alice>こんなところに機械装置か。")
   ShowMessage("カード状の何かを差し込む仕組みのようだが……")
   0()
  EndIf()
  If(0,5,0)
   ShowMessageFace("iriasu_fc4",2,0,2,3)
   ShowMessage("\\n<Ilias>カードリーダーがこんなところに……？")
   ShowMessage("カードキーがなければ、この扉は開きませんね。")
   0()
  EndIf()
  If(1,1001,0,34,1)
   ShowMessageFace("ruka_fc1",0,0,2,4)
   ShowMessage("\\n<Luka>カードか……これは使えるかな？")
   ShowMessageFace("",0,0,2,5)
   ShowMessage("ルカはレミナのカードキーを差し込んだ……")
   250(bytes(0x04,0x08,0x6f,0x3a,0x0c,0x52,0x50,0x47,0x3a,0x3a,0x53,0x45,0x08,0x3a,0x0a,0x40,0x6e,0x61,0x6d,0x65,0x49,0x22,0x0a,0x4f,0x70,0x65,0x6e,0x31,0x06,0x3a,0x06,0x45,0x54,0x3a,0x0b,0x40,0x70,0x69,0x74,0x63,0x68,0x69,0x69,0x3a,0x0c,0x40,0x76,0x6f,0x6c,0x75,0x6d,0x65,0x69,0x55))
   205(0,bytes(0x04,0x08,0x6f,0x3a,0x13,0x52,0x50,0x47,0x3a,0x3a,0x4d,0x6f,0x76,0x65,0x52,0x6f,0x75,0x74,0x65,0x09,0x3a,0x0c,0x40,0x72,0x65,0x70,0x65,0x61,0x74,0x46,0x3a,0x0f,0x40,0x73,0x6b,0x69,0x70,0x70,0x61,0x62,0x6c,0x65,0x46,0x3a,0x0a,0x40,0x77,0x61,0x69,0x74,0x54,0x3a,0x0a,0x40,0x6c,0x69,0x73,0x74,0x5b,0x0c,0x6f,0x3a,0x15,0x52,0x50,0x47,0x3a,0x3a,0x4d,0x6f,0x76,0x65,0x43,0x6f,0x6d,0x6d,0x61,0x6e,0x64,0x07,0x3a,0x0a,0x40,0x63,0x6f,0x64,0x65,0x69,0x16,0x3a,0x10,0x40,0x70,0x61,0x72,0x61,0x6d,0x65,0x74,0x65,0x72,0x73,0x5b,0x00,0x6f,0x3b,0x0a,0x07,0x3b,0x0b,0x69,0x14,0x3b,0x0c,0x5b,0x06,0x69,0x08,0x6f,0x3b,0x0a,0x07,0x3b,0x0b,0x69,0x17,0x3b,0x0c,0x5b,0x00,0x6f,0x3b,0x0a,0x07,0x3b,0x0b,0x69,0x14,0x3b,0x0c,0x5b,0x06,0x69,0x08,0x6f,0x3b,0x0a,0x07,0x3b,0x0b,0x69,0x18,0x3b,0x0c,0x5b,0x00,0x6f,0x3b,0x0a,0x07,0x3b,0x0b,0x69,0x2a,0x3b,0x0c,0x5b,0x00,0x6f,0x3b,0x0a,0x07,0x3b,0x0b,0x69,0x00,0x3b,0x0c,0x5b,0x00))
   ChangeSelfSwitch("A",0)
   0()
  EndIf()
  EndEventProcessing()
  0()
 PAGE   2
  // condition: self-switch A is ON
  0()



EVENT   64
 PAGE   1
  0()



EVENT   65
 PAGE   1
  ShowMessageFace("",0,0,2,1)
  ShowMessage("いたい")
  ShowMessage("いタイ")
  0()



EVENT   66
 PAGE   1
  0()



EVENT   67
 PAGE   1
  0()



EVENT   68
 PAGE   1
  0()



EVENT   69
 PAGE   1
  0()



EVENT   70
 PAGE   1
  0()



EVENT   71
 PAGE   1
  ShowMessageFace("",0,0,2,1)
  ShowMessage("FS0052673：死亡")
  ShowMessage("FS0285566：死亡")
  ShowMessage("FS1200989：死亡")
  ShowMessage("FS1217843：死亡")
  0()



EVENT   72
 PAGE   1
  0()



EVENT   73
 PAGE   1
  ShowMessageFace("",0,0,2,1)
  ShowMessage("AS0008976：複製済　オリジナル破棄")
  0()



EVENT   74
 PAGE   1
  ShowMessageFace("",0,0,2,1)
  ShowMessage("AS0000296：解剖後破棄　残骸凍結")
  0()



EVENT   75
 PAGE   1
  0()



EVENT   76
 PAGE   1
  0()



EVENT   77
 PAGE   1
  0()



EVENT   78
 PAGE   1
  0()



EVENT   79
 PAGE   1
  0()



EVENT   80
 PAGE   1
  0()



EVENT   81
 PAGE   1
  0()



EVENT   82
 PAGE   1
  ShowMessageFace("",0,0,2,1)
  ShowMessage("FR2340098：死亡")
  ShowMessage("以下、FSナンバーは全て死亡")
  0()



EVENT   83
 PAGE   1
  ShowMessageFace("",0,0,2,1)
  ShowMessage("意識は■■■す")
  ShowMessage("苦■■、■■■……")
  0()



EVENT   84
 PAGE   1
  0()



EVENT   85
 PAGE   1
  0()



EVENT   86
 PAGE   1
  ShowMessageFace("",0,0,2,1)
  ShowMessage("どの本にも無茶苦茶な文字が書かれている……")
  0()



EVENT   87
 PAGE   1
  ShowMessageFace("",0,0,2,1)
  ShowMessage("どの本にも無茶苦茶な文字が書かれている……")
  0()



EVENT   88
 PAGE   1
  ShowMessageFace("",0,0,2,1)
  ShowMessage("どの本にも無茶苦茶な文字が書かれている……")
  0()



EVENT   89
 PAGE   1
  ShowMessageFace("",0,0,2,1)
  ShowMessage("どの本にも無茶苦茶な文字が書かれている……")
  0()



EVENT   90
 PAGE   1
  ShowMessageFace("",0,0,2,1)
  ShowMessage("どの本にも無茶苦茶な文字が書かれている……")
  0()



EVENT   91
 PAGE   1
  ShowMessageFace("",0,0,2,1)
  ShowMessage("どの本にも無茶苦茶な文字が書かれている……")
  0()



EVENT   92
 PAGE   1
  0()



EVENT   93
 PAGE   1
  0()



EVENT   94
 PAGE   1
  0()



EVENT   95
 PAGE   1
  0()



EVENT   96
 PAGE   1
  0()



EVENT   97
 PAGE   1
  0()



EVENT   98
 PAGE   1
  0()



EVENT   99
 PAGE   1
  0()



EVENT   100
 PAGE   1
  0()



EVENT   101
 PAGE   1
  0()



EVENT   102
 PAGE   1
  0()



EVENT   103
 PAGE   1
  0()



EVENT   104
 PAGE   1
  0()



EVENT   105
 PAGE   1
  0()



EVENT   106
 PAGE   1
  0()



EVENT   107
 PAGE   1
  0()



EVENT   108
 PAGE   1
  0()



EVENT   109
 PAGE   1
  0()



EVENT   110
 PAGE   1
  0()



EVENT   111
 PAGE   1
  0()



EVENT   112
 PAGE   1
  ChangeSelfSwitch("A",0)
  205(-1,bytes(0x04,0x08,0x6f,0x3a,0x13,0x52,0x50,0x47,0x3a,0x3a,0x4d,0x6f,0x76,0x65,0x52,0x6f,0x75,0x74,0x65,0x09,0x3a,0x0c,0x40,0x72,0x65,0x70,0x65,0x61,0x74,0x46,0x3a,0x0f,0x40,0x73,0x6b,0x69,0x70,0x70,0x61,0x62,0x6c,0x65,0x46,0x3a,0x0a,0x40,0x77,0x61,0x69,0x74,0x54,0x3a,0x0a,0x40,0x6c,0x69,0x73,0x74,0x5b,0x07,0x6f,0x3a,0x15,0x52,0x50,0x47,0x3a,0x3a,0x4d,0x6f,0x76,0x65,0x43,0x6f,0x6d,0x6d,0x61,0x6e,0x64,0x07,0x3a,0x0a,0x40,0x63,0x6f,0x64,0x65,0x69,0x17,0x3a,0x10,0x40,0x70,0x61,0x72,0x61,0x6d,0x65,0x74,0x65,0x72,0x73,0x5b,0x00,0x6f,0x3b,0x0a,0x07,0x3b,0x0b,0x69,0x00,0x3b,0x0c,0x5b,0x00))
  If(0,6,0)
   ShowMessageFace("sonia_fc3",7,0,2,1)
   ShowMessage("\\n<Sonya>なんなの、これ……")
   ShowMessage("一体ここで何があったの？")
   0()
  Else()
   ShowMessageFace("ruka_fc1",0,0,2,2)
   ShowMessage("\\n<Luka>一体、ここで何があったんだ……？")
   0()
  EndIf()
  If(0,4,0)
   ShowMessageFace("alice_fc6",0,0,2,3)
   ShowMessage("\\n<Alice>この者達は、おそらくレミナの住民だろう。")
   ShowMessage("なんらかの異変に巻き込まれたのだろうが……")
   0()
  EndIf()
  If(0,5,0)
   ShowMessageFace("iriasu_fc4",2,0,2,4)
   ShowMessage("\\n<Ilias>カオス化に巻き込まれたレミナの住民……")
   ShowMessage("いったい、かの町に何が……")
   0()
  EndIf()
  If(4,41,0)
   ShowMessageFace("stein_fc2",0,0,2,5)
   ShowMessage("\\n<Promestein>情報のオーバーフローおよび上書き、均質化。")
   ShowMessage("その過程でのアポトーシス、そして無に還る……")
   ShowMessageFace("stein_fc2",0,0,2,6)
   ShowMessage("\\n<Promestein>これがカオス化の正体というならば……")
   ShowMessage("いったい、どうやって防げばいいのか……")
   0()
  EndIf()
  If(4,79,0)
   ShowMessageFace("nuruko_fc1",2,0,2,7)
   ShowMessage("\\n<Nuruko>きゅ……")
   0()
  EndIf()
  0()
 PAGE   2
  // condition: self-switch A is ON
  0()



EVENT   113
 PAGE   1
  0()



EVENT   114
 PAGE   1
  0()
