﻿
DisplayName "Sheep Forest"



EVENT   1
 PAGE   1
  ShowMessageFace("hituzi_fc1",3,0,2,1)
  ShowMessage("\\n<ヒツジおやだま>ウェヒヒヒ……なんぞ用か？")
  If(1,1086,0,2,0)
   ShowChoices(strings("高級絨毯が欲しい","話をする","用はない"),2)
   IfPlayerPicksChoice(0,null)
    ShowMessageFace("vgirl_fc1",0,0,2,2)
    ShowMessage("\\n<Vanilla>王宮向けの最高級赤絨毯をオーダーしたいのだ。")
    ShowMessage("代金は小切手でお願いするのだ。")
    ShowMessageFace("hituzi_fc1",3,0,2,3)
    ShowMessage("\\n<ヒツジおやだま>ウェヒヒヒ、まいどあり。")
    ShowMessage("それじゃあ……")
    205(0,bytes(0x04,0x08,0x6f,0x3a,0x13,0x52,0x50,0x47,0x3a,0x3a,0x4d,0x6f,0x76,0x65,0x52,0x6f,0x75,0x74,0x65,0x09,0x3a,0x0c,0x40,0x72,0x65,0x70,0x65,0x61,0x74,0x46,0x3a,0x0f,0x40,0x73,0x6b,0x69,0x70,0x70,0x61,0x62,0x6c,0x65,0x46,0x3a,0x0a,0x40,0x77,0x61,0x69,0x74,0x54,0x3a,0x0a,0x40,0x6c,0x69,0x73,0x74,0x5b,0x07,0x6f,0x3a,0x15,0x52,0x50,0x47,0x3a,0x3a,0x4d,0x6f,0x76,0x65,0x43,0x6f,0x6d,0x6d,0x61,0x6e,0x64,0x07,0x3a,0x0a,0x40,0x63,0x6f,0x64,0x65,0x69,0x17,0x3a,0x10,0x40,0x70,0x61,0x72,0x61,0x6d,0x65,0x74,0x65,0x72,0x73,0x5b,0x00,0x6f,0x3b,0x0a,0x07,0x3b,0x0b,0x69,0x00,0x3b,0x0c,0x5b,0x00))
    ShowMessageFace("hituzi_fc1",3,0,2,4)
    ShowMessage("\\n<ヒツジおやだま>……しつじ！　出番なのら！")
    205(5,bytes(0x04,0x08,0x6f,0x3a,0x13,0x52,0x50,0x47,0x3a,0x3a,0x4d,0x6f,0x76,0x65,0x52,0x6f,0x75,0x74,0x65,0x09,0x3a,0x0c,0x40,0x72,0x65,0x70,0x65,0x61,0x74,0x46,0x3a,0x0f,0x40,0x73,0x6b,0x69,0x70,0x70,0x61,0x62,0x6c,0x65,0x46,0x3a,0x0a,0x40,0x77,0x61,0x69,0x74,0x54,0x3a,0x0a,0x40,0x6c,0x69,0x73,0x74,0x5b,0x08,0x6f,0x3a,0x15,0x52,0x50,0x47,0x3a,0x3a,0x4d,0x6f,0x76,0x65,0x43,0x6f,0x6d,0x6d,0x61,0x6e,0x64,0x07,0x3a,0x0a,0x40,0x63,0x6f,0x64,0x65,0x69,0x13,0x3a,0x10,0x40,0x70,0x61,0x72,0x61,0x6d,0x65,0x74,0x65,0x72,0x73,0x5b,0x07,0x69,0x00,0x69,0x00,0x6f,0x3b,0x0a,0x07,0x3b,0x0b,0x69,0x13,0x3b,0x0c,0x5b,0x07,0x69,0x00,0x69,0x00,0x6f,0x3b,0x0a,0x07,0x3b,0x0b,0x69,0x00,0x3b,0x0c,0x5b,0x00))
    ShowMessageFace("hituzi_fc1",3,0,2,5)
    ShowMessage("\\n<しつじ>へい！　マトン、来るのら！")
    205(6,bytes(0x04,0x08,0x6f,0x3a,0x13,0x52,0x50,0x47,0x3a,0x3a,0x4d,0x6f,0x76,0x65,0x52,0x6f,0x75,0x74,0x65,0x09,0x3a,0x0c,0x40,0x72,0x65,0x70,0x65,0x61,0x74,0x46,0x3a,0x0f,0x40,0x73,0x6b,0x69,0x70,0x70,0x61,0x62,0x6c,0x65,0x46,0x3a,0x0a,0x40,0x77,0x61,0x69,0x74,0x54,0x3a,0x0a,0x40,0x6c,0x69,0x73,0x74,0x5b,0x0c,0x6f,0x3a,0x15,0x52,0x50,0x47,0x3a,0x3a,0x4d,0x6f,0x76,0x65,0x43,0x6f,0x6d,0x6d,0x61,0x6e,0x64,0x07,0x3a,0x0a,0x40,0x63,0x6f,0x64,0x65,0x69,0x2a,0x3a,0x10,0x40,0x70,0x61,0x72,0x61,0x6d,0x65,0x74,0x65,0x72,0x73,0x5b,0x00,0x6f,0x3b,0x0a,0x07,0x3b,0x0b,0x69,0x22,0x3b,0x0c,0x5b,0x06,0x69,0x09,0x6f,0x3b,0x0a,0x07,0x3b,0x0b,0x69,0x23,0x3b,0x0c,0x5b,0x06,0x69,0x08,0x6f,0x3b,0x0a,0x07,0x3b,0x0b,0x69,0x07,0x3b,0x0c,0x5b,0x00,0x6f,0x3b,0x0a,0x07,0x3b,0x0b,0x69,0x07,0x3b,0x0c,0x5b,0x00,0x6f,0x3b,0x0a,0x07,0x3b,0x0b,0x69,0x09,0x3b,0x0c,0x5b,0x00,0x6f,0x3b,0x0a,0x07,0x3b,0x0b,0x69,0x00,0x3b,0x0c,0x5b,0x00))
    205(5,bytes(0x04,0x08,0x6f,0x3a,0x13,0x52,0x50,0x47,0x3a,0x3a,0x4d,0x6f,0x76,0x65,0x52,0x6f,0x75,0x74,0x65,0x09,0x3a,0x0c,0x40,0x72,0x65,0x70,0x65,0x61,0x74,0x46,0x3a,0x0f,0x40,0x73,0x6b,0x69,0x70,0x70,0x61,0x62,0x6c,0x65,0x46,0x3a,0x0a,0x40,0x77,0x61,0x69,0x74,0x46,0x3a,0x0a,0x40,0x6c,0x69,0x73,0x74,0x5b,0x13,0x6f,0x3a,0x15,0x52,0x50,0x47,0x3a,0x3a,0x4d,0x6f,0x76,0x65,0x43,0x6f,0x6d,0x6d,0x61,0x6e,0x64,0x07,0x3a,0x0a,0x40,0x63,0x6f,0x64,0x65,0x69,0x2a,0x3a,0x10,0x40,0x70,0x61,0x72,0x61,0x6d,0x65,0x74,0x65,0x72,0x73,0x5b,0x00,0x6f,0x3b,0x0a,0x07,0x3b,0x0b,0x69,0x22,0x3b,0x0c,0x5b,0x06,0x69,0x09,0x6f,0x3b,0x0a,0x07,0x3b,0x0b,0x69,0x23,0x3b,0x0c,0x5b,0x06,0x69,0x08,0x6f,0x3b,0x0a,0x07,0x3b,0x0b,0x69,0x09,0x3b,0x0c,0x5b,0x00,0x6f,0x3b,0x0a,0x07,0x3b,0x0b,0x69,0x09,0x3b,0x0c,0x5b,0x00,0x6f,0x3b,0x0a,0x07,0x3b,0x0b,0x69,0x09,0x3b,0x0c,0x5b,0x00,0x6f,0x3b,0x0a,0x07,0x3b,0x0b,0x69,0x09,0x3b,0x0c,0x5b,0x00,0x6f,0x3b,0x0a,0x07,0x3b,0x0b,0x69,0x07,0x3b,0x0c,0x5b,0x00,0x6f,0x3b,0x0a,0x07,0x3b,0x0b,0x69,0x07,0x3b,0x0c,0x5b,0x00,0x6f,0x3b,0x0a,0x07,0x3b,0x0b,0x69,0x07,0x3b,0x0c,0x5b,0x00,0x6f,0x3b,0x0a,0x07,0x3b,0x0b,0x69,0x15,0x3b,0x0c,0x5b,0x00,0x6f,0x3b,0x0a,0x07,0x3b,0x0b,0x69,0x31,0x3b,0x0c,0x5b,0x06,0x6f,0x3a,0x0c,0x52,0x50,0x47,0x3a,0x3a,0x53,0x45,0x08,0x3a,0x0a,0x40,0x6e,0x61,0x6d,0x65,0x49,0x22,0x09,0x4d,0x6f,0x76,0x65,0x06,0x3a,0x06,0x45,0x54,0x3a,0x0b,0x40,0x70,0x69,0x74,0x63,0x68,0x69,0x69,0x3a,0x0c,0x40,0x76,0x6f,0x6c,0x75,0x6d,0x65,0x69,0x55,0x6f,0x3b,0x0a,0x07,0x3b,0x0b,0x69,0x2c,0x3b,0x0c,0x5b,0x00,0x6f,0x3b,0x0a,0x07,0x3b,0x0b,0x69,0x00,0x3b,0x0c,0x5b,0x00))
    205(6,bytes(0x04,0x08,0x6f,0x3a,0x13,0x52,0x50,0x47,0x3a,0x3a,0x4d,0x6f,0x76,0x65,0x52,0x6f,0x75,0x74,0x65,0x09,0x3a,0x0c,0x40,0x72,0x65,0x70,0x65,0x61,0x74,0x46,0x3a,0x0f,0x40,0x73,0x6b,0x69,0x70,0x70,0x61,0x62,0x6c,0x65,0x46,0x3a,0x0a,0x40,0x77,0x61,0x69,0x74,0x54,0x3a,0x0a,0x40,0x6c,0x69,0x73,0x74,0x5b,0x11,0x6f,0x3a,0x15,0x52,0x50,0x47,0x3a,0x3a,0x4d,0x6f,0x76,0x65,0x43,0x6f,0x6d,0x6d,0x61,0x6e,0x64,0x07,0x3a,0x0a,0x40,0x63,0x6f,0x64,0x65,0x69,0x09,0x3a,0x10,0x40,0x70,0x61,0x72,0x61,0x6d,0x65,0x74,0x65,0x72,0x73,0x5b,0x00,0x6f,0x3b,0x0a,0x07,0x3b,0x0b,0x69,0x09,0x3b,0x0c,0x5b,0x00,0x6f,0x3b,0x0a,0x07,0x3b,0x0b,0x69,0x09,0x3b,0x0c,0x5b,0x00,0x6f,0x3b,0x0a,0x07,0x3b,0x0b,0x69,0x09,0x3b,0x0c,0x5b,0x00,0x6f,0x3b,0x0a,0x07,0x3b,0x0b,0x69,0x09,0x3b,0x0c,0x5b,0x00,0x6f,0x3b,0x0a,0x07,0x3b,0x0b,0x69,0x07,0x3b,0x0c,0x5b,0x00,0x6f,0x3b,0x0a,0x07,0x3b,0x0b,0x69,0x07,0x3b,0x0c,0x5b,0x00,0x6f,0x3b,0x0a,0x07,0x3b,0x0b,0x69,0x07,0x3b,0x0c,0x5b,0x00,0x6f,0x3b,0x0a,0x07,0x3b,0x0b,0x69,0x15,0x3b,0x0c,0x5b,0x00,0x6f,0x3b,0x0a,0x07,0x3b,0x0b,0x69,0x31,0x3b,0x0c,0x5b,0x06,0x6f,0x3a,0x0c,0x52,0x50,0x47,0x3a,0x3a,0x53,0x45,0x08,0x3a,0x0a,0x40,0x6e,0x61,0x6d,0x65,0x49,0x22,0x09,0x4d,0x6f,0x76,0x65,0x06,0x3a,0x06,0x45,0x54,0x3a,0x0b,0x40,0x70,0x69,0x74,0x63,0x68,0x69,0x69,0x3a,0x0c,0x40,0x76,0x6f,0x6c,0x75,0x6d,0x65,0x69,0x55,0x6f,0x3b,0x0a,0x07,0x3b,0x0b,0x69,0x2c,0x3b,0x0c,0x5b,0x00,0x6f,0x3b,0x0a,0x07,0x3b,0x0b,0x69,0x00,0x3b,0x0c,0x5b,0x00))
    205(0,bytes(0x04,0x08,0x6f,0x3a,0x13,0x52,0x50,0x47,0x3a,0x3a,0x4d,0x6f,0x76,0x65,0x52,0x6f,0x75,0x74,0x65,0x09,0x3a,0x0c,0x40,0x72,0x65,0x70,0x65,0x61,0x74,0x46,0x3a,0x0f,0x40,0x73,0x6b,0x69,0x70,0x70,0x61,0x62,0x6c,0x65,0x46,0x3a,0x0a,0x40,0x77,0x61,0x69,0x74,0x54,0x3a,0x0a,0x40,0x6c,0x69,0x73,0x74,0x5b,0x07,0x6f,0x3a,0x15,0x52,0x50,0x47,0x3a,0x3a,0x4d,0x6f,0x76,0x65,0x43,0x6f,0x6d,0x6d,0x61,0x6e,0x64,0x07,0x3a,0x0a,0x40,0x63,0x6f,0x64,0x65,0x69,0x18,0x3a,0x10,0x40,0x70,0x61,0x72,0x61,0x6d,0x65,0x74,0x65,0x72,0x73,0x5b,0x00,0x6f,0x3b,0x0a,0x07,0x3b,0x0b,0x69,0x00,0x3b,0x0c,0x5b,0x00))
    Wait(120)
    ShowMessageFace("hituzi_fc1",3,0,2,6)
    ShowMessage("\\n<マトン>ア”ア”ア”ア”ア”ア”ア”～！！")
    If(0,6,0)
     ShowMessageFace("sonia_fc3",2,0,2,7)
     ShowMessage("\\n<Sonya>……………………")
     0()
    EndIf()
    Wait(60)
    250(bytes(0x04,0x08,0x6f,0x3a,0x0c,0x52,0x50,0x47,0x3a,0x3a,0x53,0x45,0x08,0x3a,0x0a,0x40,0x6e,0x61,0x6d,0x65,0x49,0x22,0x09,0x4d,0x6f,0x76,0x65,0x06,0x3a,0x06,0x45,0x54,0x3a,0x0b,0x40,0x70,0x69,0x74,0x63,0x68,0x69,0x69,0x3a,0x0c,0x40,0x76,0x6f,0x6c,0x75,0x6d,0x65,0x69,0x55))
    TeleportEvent(5,0,11,5,2)
    205(5,bytes(0x04,0x08,0x6f,0x3a,0x13,0x52,0x50,0x47,0x3a,0x3a,0x4d,0x6f,0x76,0x65,0x52,0x6f,0x75,0x74,0x65,0x09,0x3a,0x0c,0x40,0x72,0x65,0x70,0x65,0x61,0x74,0x46,0x3a,0x0f,0x40,0x73,0x6b,0x69,0x70,0x70,0x61,0x62,0x6c,0x65,0x46,0x3a,0x0a,0x40,0x77,0x61,0x69,0x74,0x54,0x3a,0x0a,0x40,0x6c,0x69,0x73,0x74,0x5b,0x07,0x6f,0x3a,0x15,0x52,0x50,0x47,0x3a,0x3a,0x4d,0x6f,0x76,0x65,0x43,0x6f,0x6d,0x6d,0x61,0x6e,0x64,0x07,0x3a,0x0a,0x40,0x63,0x6f,0x64,0x65,0x69,0x2d,0x3a,0x10,0x40,0x70,0x61,0x72,0x61,0x6d,0x65,0x74,0x65,0x72,0x73,0x5b,0x00,0x6f,0x3b,0x0a,0x07,0x3b,0x0b,0x69,0x00,0x3b,0x0c,0x5b,0x00))
    Wait(60)
    205(0,bytes(0x04,0x08,0x6f,0x3a,0x13,0x52,0x50,0x47,0x3a,0x3a,0x4d,0x6f,0x76,0x65,0x52,0x6f,0x75,0x74,0x65,0x09,0x3a,0x0c,0x40,0x72,0x65,0x70,0x65,0x61,0x74,0x46,0x3a,0x0f,0x40,0x73,0x6b,0x69,0x70,0x70,0x61,0x62,0x6c,0x65,0x46,0x3a,0x0a,0x40,0x77,0x61,0x69,0x74,0x54,0x3a,0x0a,0x40,0x6c,0x69,0x73,0x74,0x5b,0x07,0x6f,0x3a,0x15,0x52,0x50,0x47,0x3a,0x3a,0x4d,0x6f,0x76,0x65,0x43,0x6f,0x6d,0x6d,0x61,0x6e,0x64,0x07,0x3a,0x0a,0x40,0x63,0x6f,0x64,0x65,0x69,0x1e,0x3a,0x10,0x40,0x70,0x61,0x72,0x61,0x6d,0x65,0x74,0x65,0x72,0x73,0x5b,0x00,0x6f,0x3b,0x0a,0x07,0x3b,0x0b,0x69,0x00,0x3b,0x0c,0x5b,0x00))
    ShowMessageFace("hituzi_fc1",3,0,2,8)
    ShowMessage("\\n<ヒツジおやだま>いっちょあがり！　最高級の品なのら！")
    250(bytes(0x04,0x08,0x6f,0x3a,0x0c,0x52,0x50,0x47,0x3a,0x3a,0x53,0x45,0x08,0x3a,0x0a,0x40,0x6e,0x61,0x6d,0x65,0x49,0x22,0x0a,0x49,0x74,0x65,0x6d,0x31,0x06,0x3a,0x06,0x45,0x54,0x3a,0x0b,0x40,0x70,0x69,0x74,0x63,0x68,0x69,0x69,0x3a,0x0c,0x40,0x76,0x6f,0x6c,0x75,0x6d,0x65,0x69,0x55))
    ChangeInventory_Item(559,0,0,1)
    ShowMessageFace("vgirl_fc1",0,0,2,9)
    ShowMessage("\\n<Vanilla>よし、絨毯を調達したのだ！")
    ShowMessage("それじゃあ、サバサに戻るのだ！")
    221()
    Wait(60)
    TeleportPlayer(0,477,161,20,8,2)
    ChangeInventory_Item(559,1,0,1)
    ChangeVariable(1086,1086,0,0,3)
    222()
    ShowMessageFace("queenvampire_fc1",0,0,2,10)
    ShowMessage("\\n<クィーンヴァンパイア>うむ、実に見栄えが良くなったものだ。")
    ShowMessage("後はテーブルと椅子を並べ……そして酒の調達だな。")
    ShowMessageFace("queenvampire_fc1",0,0,2,11)
    ShowMessage("\\n<クィーンヴァンパイア>テーブルや椅子、戸棚などの諸々は、吸血鬼の魔城より運び込もう。")
    ShowMessage("お主達には、酒の調達を頼みたい。")
    ShowMessageFace("queenvampire_fc1",0,0,2,12)
    ShowMessage("\\n<クィーンヴァンパイア>無論、そこらの安酒では話にならん。")
    ShowMessage("最高級の美酒を頼むぞ。")
    ShowMessageFace("vgirl_fc1",0,0,2,13)
    ShowMessage("\\n<Vanilla>ならば、酒造ギルドに話を通すか……")
    ShowMessage("むしろ、その上部組織と直接交渉した方が良いかもな。")
    If(0,6,0)
     ShowMessageFace("sonia_fc2",2,0,2,14)
     ShowMessage("\\n<Sonya>酒造ギルドの上部組織って……ラザロおじさんの組織？")
     ShowMessage("裏社会と関わっちゃっていいの？")
     0()
    Else()
     ShowMessageFace("ruka_fc1",0,0,2,15)
     ShowMessage("\\n<Luka>酒造ギルドの上部組織って……ラザロおじさんの組織？")
     ShowMessage("裏社会と関わっちゃっていいのかな……")
     0()
    EndIf()
    ShowMessageFace("queenvampire_fc1",0,0,2,16)
    ShowMessage("\\n<クィーンヴァンパイア>妾は構わんぞ、どうせ我等も闇に生きる者……")
    ShowMessage("それでは、酒の調達は任せたぞ。")
    ShowMessageFace("queenvampire_fc1",0,0,2,17)
    ShowMessage("\\n<クィーンヴァンパイア>その間に、妾達は椅子やテーブルを運び込もう。")
    ShowMessage("酒が届けば、吸血鬼パブ一号店は完成だ！")
    ShowMessageFace("vgirl_fc1",0,0,2,18)
    ShowMessage("\\n<Vanilla>ではさっそくドン・ファーザーの元に交渉に行くのだ！")
    If(0,2196,1)
     If(0,6,0)
      ShowMessageFace("sonia_fc2",2,0,2,19)
      ShowMessage("\\n<Sonya>それじゃあ、ラザロおじさんの居場所を探さないとね……")
      ShowMessage("どうせ、どこかの酒場にでもいるんじゃないの？")
      0()
     Else()
      ShowMessageFace("ruka_fc1",0,0,2,20)
      ShowMessage("\\n<Luka>それじゃあ、ラザロおじさんの居場所を探さないと……")
      ShowMessage("どうせ、どこかの酒場にでもいると思うけど。")
      0()
     EndIf()
     0()
    Else()
     ShowMessageFace("lazarus3_fc1",0,0,2,21)
     ShowMessage("\\n<Lazarus>それじゃあ、ポケット魔王城の方に来てくれよ……")
     ShowMessage("グランドールのアジトにゃ、俺はいないからな。")
     0()
    EndIf()
    EndEventProcessing()
    0()
   IfPlayerPicksChoice(1,null)
    JumpToLabel("話")
    0()
   IfPlayerPicksChoice(2,null)
    EndEventProcessing()
    0()
   404()
   0()
  Else()
   ShowChoices(strings("話をする","用はない"),2)
   IfPlayerPicksChoice(0,null)
    JumpToLabel("話")
    0()
   IfPlayerPicksChoice(1,null)
    EndEventProcessing()
    0()
   404()
   0()
  EndIf()
  DefineLabel("話")
  ShowMessageFace("hituzi_fc1",3,0,2,22)
  ShowMessage("\\n<ヒツジおやだま>ここは絨毯工場……")
  ShowMessage("ヒツジの悲鳴と嘆きがこだまする場所なのら。")
  ShowMessageFace("hituzi_fc1",3,0,2,23)
  ShowMessage("\\n<ヒツジおやだま>絨毯が欲しいなら、オーダーしてほしいのら。")
  ShowMessage("世界でも最高の品質を保証するのら……")
  If(1,1086,0,2,5)
   ShowMessageFace("ruka_fc1",0,0,2,24)
   ShowMessage("\\n<Luka>絨毯は……別にいらないな。")
   0()
  EndIf()
  EndEventProcessing()
  0()



EVENT   2
 PAGE   1
  250(bytes(0x04,0x08,0x6f,0x3a,0x0c,0x52,0x50,0x47,0x3a,0x3a,0x53,0x45,0x08,0x3a,0x0a,0x40,0x6e,0x61,0x6d,0x65,0x49,0x22,0x09,0x4d,0x6f,0x76,0x65,0x06,0x3a,0x06,0x45,0x54,0x3a,0x0b,0x40,0x70,0x69,0x74,0x63,0x68,0x69,0x69,0x3a,0x0c,0x40,0x76,0x6f,0x6c,0x75,0x6d,0x65,0x69,0x55))
  TeleportPlayer(0,2,308,242,0,0)
  0()



EVENT   3
 PAGE   1
  250(bytes(0x04,0x08,0x6f,0x3a,0x0c,0x52,0x50,0x47,0x3a,0x3a,0x53,0x45,0x08,0x3a,0x0a,0x40,0x6e,0x61,0x6d,0x65,0x49,0x22,0x09,0x4d,0x6f,0x76,0x65,0x06,0x3a,0x06,0x45,0x54,0x3a,0x0b,0x40,0x70,0x69,0x74,0x63,0x68,0x69,0x69,0x3a,0x0c,0x40,0x76,0x6f,0x6c,0x75,0x6d,0x65,0x69,0x55))
  TeleportPlayer(0,2,308,242,0,0)
  0()



EVENT   4
 PAGE   1
  250(bytes(0x04,0x08,0x6f,0x3a,0x0c,0x52,0x50,0x47,0x3a,0x3a,0x53,0x45,0x08,0x3a,0x0a,0x40,0x6e,0x61,0x6d,0x65,0x49,0x22,0x09,0x4d,0x6f,0x76,0x65,0x06,0x3a,0x06,0x45,0x54,0x3a,0x0b,0x40,0x70,0x69,0x74,0x63,0x68,0x69,0x69,0x3a,0x0c,0x40,0x76,0x6f,0x6c,0x75,0x6d,0x65,0x69,0x55))
  TeleportPlayer(0,2,308,242,0,0)
  0()



EVENT   5
 PAGE   1
  ShowMessageFace("hituzi_fc1",3,0,2,1)
  ShowMessage("\\n<しつじ>ここから先は、ヒツジ以外は立ち入り禁止なのら。")
  ShowMessage("ウェヒヒヒヒ……")
  0()



EVENT   6
 PAGE   1
  If(1,1086,0,2,2)
   ShowMessageFace("hituzi_fc1",3,0,2,1)
   ShowMessage("\\n<マトン>ドナドナド～ナ♪　ド～ナ♪")
   ShowMessageFace("hituzi_fc1",3,0,2,2)
   ShowMessage("\\n<マトン>食われてゆくよ……")
   EndEventProcessing()
   0()
  EndIf()
  If(1,1086,0,3,1)
   ShowMessageFace("hituzi_fc1",3,0,2,3)
   ShowMessage("\\n<マトン>汚れっちまった悲しみに……")
   EndEventProcessing()
   0()
  EndIf()
  0()



EVENT   7
 PAGE   1
  ShowMessageFace("hituzi_fc1",3,0,2,1)
  ShowMessage("\\n<シーピー>ここは、ひつじのもり……")
  ShowMessage("たくさんのひつじが暮らす、羊毛の楽園なのら。")
  0()



EVENT   8
 PAGE   1
  ShowMessageFace("hituzi_fc1",3,0,2,1)
  ShowMessage("\\n<レッドラム>アミルスタン羊の肉が食べたいのら？")
  ShowChoices(strings("食べたい","食べたくない"),2)
  IfPlayerPicksChoice(0,null)
   ShowMessageFace("hituzi_fc1",3,0,2,2)
   ShowMessage("\\n<レッドラム>それでは狩りに行ってくるのら。")
   ShowMessage("ヒヒヒ……")
   0()
  IfPlayerPicksChoice(1,null)
   If(4,41,0)
    ShowMessageFace("stein_fc2",0,0,2,3)
    ShowMessage("\\n<Promestein>いいえ、私は遠慮しておきます。")
    0()
   EndIf()
   ShowMessageFace("hituzi_fc1",3,0,2,4)
   ShowMessage("\\n<レッドラム>それは残念……")
   0()
  404()
  0()



EVENT   9
 PAGE   1
  ShowMessageFace("hituzi_fc1",3,0,2,1)
  ShowMessage("\\n<ラム>あんまりソワソワしないで～♪")
  0()



EVENT   10
 PAGE   1
  ShowMessageFace("hituzi_fc1",3,0,2,1)
  ShowMessage("\\n<テムジン>ジン♪　ジン♪　ジンギスカ～ン♪")
  0()



EVENT   11
 PAGE   1
  ShowMessageFace("",0,0,2,1)
  ShowMessage("\\n<羊>メ～！")
  0()



EVENT   12
 PAGE   1
  ShowMessageFace("",0,0,2,1)
  ShowMessage("\\n<羊>メ～！")
  0()



EVENT   13
 PAGE   1
  ShowMessageFace("hituzi_fc1",3,0,2,1)
  ShowMessage("\\n<ひつじ>ひつじのもりの特産品は、やわらか絨毯なのら。")
  ShowMessage("もちろん、あたし達の毛で造られているのら……")
  0()



EVENT   14
 PAGE   1
  ShowMessageFace("",0,0,2,1)
  ShowMessage("\\n<羊>メ～！")
  0()



EVENT   15
 PAGE   1
  ShowMessageFace("hituzi_fc1",3,0,2,1)
  ShowMessage("\\n<おおとら>ひつじのもりでは、たくさんのひつじがノビノビ暮らしています。")
  ShowMessage("ウェヒヒヒヒ……")
  0()



EVENT   16
 PAGE   1
  ShowMessageFace("hituzi_fc1",3,0,2,1)
  ShowMessage("\\n<バショウ>ひつじ飛び込む　池のおと")
  ShowMessageFace("hituzi_fc1",3,0,2,2)
  ShowMessage("\\n<バショウ>そういうわけで、酔って飛び込んだから羊毛がヌレヌレなのら～！")
  ShowMessageFace("hituzi_fc1",1,0,2,3)
  ShowMessage("\\n<バショウ>……ひつじさん、ヌレヌレ。")
  0()



EVENT   17
 PAGE   1
  ShowMessageFace("hituzi_fc1",3,0,2,1)
  ShowMessage("\\n<バッファロー>うらー！　酒もってこーい！")
  0()



EVENT   18
 PAGE   1
  ShowMessageFace("hituzi_fc1",3,0,2,1)
  ShowMessage("\\n<ぱらいそ>ここはひつじの楽園なのら～！")
  ShowMessageFace("hituzi_fc1",3,0,2,2)
  ShowMessage("\\n<ぱらいそ>……毛さえ剃られなかったらね。")
  0()



EVENT   19
 PAGE   1
  ShowMessageFace("hituzi_fc1",3,0,2,1)
  ShowMessage("\\n<パイパン>ここで行われている恐ろしい事は、とても口には出来ないのら。")
  ShowMessage("あたし達は、毎日のように……毛を……毛を……")
  ShowMessageFace("hituzi_fc1",3,0,2,2)
  ShowMessage("\\n<パイパン>もうお嫁さんに行けない。")
  0()



EVENT   20
 PAGE   1
  ShowMessageFace("hituzi_fc1",3,0,2,1)
  ShowMessage("\\n<へべれけ>このまま北上すれば、砂浜に上陸するのら。")
  ShowMessage("そこから東に進むと、ノア大陸最南の村フィノアに着くのらよ。")
  0()
