// EVENT 0096
Name "Skill: Play 561-570"

ChangeVariable(11,11,0,2,1,5)
If(1,100,0,561,0)
 If(1,11,0,1,0)
  ShowMessageFace("mob_majyo1_fc1",0,0,2,1)
  ShowMessage("\\n<Witchy>Hihihihihi...")
  ShowMessageFace("",0,0,2,2)
  ShowMessage("Witchy has a big grin...")
  EndEventProcessing()
  0()
 EndIf()
 If(1,11,0,2,0)
  ShowMessageFace("mob_majyo1_fc1",0,0,2,3)
  ShowMessage("\\n<Witchy>Hihihi, I made this...")
  ShowMessageFace("",0,0,2,4)
  ShowMessage("Witchy presents a gift!")
  250(bytes(0x04,0x08,0x6f,0x3a,0x0c,0x52,0x50,0x47,0x3a,0x3a,0x53,0x45,0x08,0x3a,0x0a,0x40,0x6e,0x61,0x6d,0x65,0x49,0x22,0x0a,0x49,0x74,0x65,0x6d,0x31,0x06,0x3a,0x06,0x45,0x54,0x3a,0x0b,0x40,0x70,0x69,0x74,0x63,0x68,0x69,0x69,0x3a,0x0c,0x40,0x76,0x6f,0x6c,0x75,0x6d,0x65,0x69,0x55))
  ChangeInventory_Item(440,0,0,1)
  ShowMessageFace("",0,0,2,5)
  ShowMessage("You obtain a [Roast Newt]!")
  EndEventProcessing()
  0()
 EndIf()
 If(1,11,0,3,0)
  ShowMessageFace("mob_majyo1_fc1",0,0,2,6)
  ShowMessage("\\n<Witchy>Ultra Beeeam!")
  ShowMessageFace("",0,0,2,7)
  ShowMessage("Witchy tried to cast a spell!")
  ShowMessage("But nothing happened.")
  EndEventProcessing()
  0()
 EndIf()
 If(1,11,0,4,0)
  ShowMessageFace("mob_majyo1_fc1",0,0,2,8)
  ShowMessage("\\n<Witchy>Hihihi, drink this...")
  313(0,1,0,7)
  ShowMessageFace("",0,0,2,9)
  ShowMessage("Luka drank the strange potion!")
  ShowMessage("Luka was poisoned!")
  EndEventProcessing()
  0()
 EndIf()
 If(1,11,0,5,0)
  ShowMessageFace("mob_majyo1_fc1",0,0,2,10)
  ShowMessage("\\n<Witchy>This is my witch's brew. Now to add the secret ingredient...\n")
  ShowMessage("*Poof!* ... *fizzle*")
  ShowMessage("\\n<Witchy>Huh? Did I mix it in the wrong order?\n")
  355("interrupt_skill(3306)")
  EndEventProcessing()
  0()
 EndIf()
 0()
EndIf()
If(1,100,0,562,0)
 If(1,11,0,1,0)
  ShowMessageFace("mob_bukiya1_fc1",0,0,2,11)
  ShowMessage("\\n<Orlan>I'm hungry... Have you got anything?")
  ShowMessageFace("",0,0,2,12)
  ShowMessage("Orlan has stolen some food!")
  EndEventProcessing()
  0()
 EndIf()
 If(1,11,0,2,0)
  ShowMessageFace("mob_bukiya1_fc1",0,0,2,13)
  ShowMessage("\\n<Orlan>I made a mistake, take it.")
  ShowMessageFace("",0,0,2,14)
  ShowMessage("Orlan presents a gift!")
  250(bytes(0x04,0x08,0x6f,0x3a,0x0c,0x52,0x50,0x47,0x3a,0x3a,0x53,0x45,0x08,0x3a,0x0a,0x40,0x6e,0x61,0x6d,0x65,0x49,0x22,0x0a,0x49,0x74,0x65,0x6d,0x31,0x06,0x3a,0x06,0x45,0x54,0x3a,0x0b,0x40,0x70,0x69,0x74,0x63,0x68,0x69,0x69,0x3a,0x0c,0x40,0x76,0x6f,0x6c,0x75,0x6d,0x65,0x69,0x55))
  ChangeInventoryWeapon(51,0,0,1,false)
  ShowMessageFace("",0,0,2,15)
  ShowMessage("You obtain an [Iron Sword]!")
  EndEventProcessing()
  0()
 EndIf()
 If(1,11,0,3,0)
  ShowMessageFace("mob_bukiya1_fc1",0,0,2,16)
  ShowMessage("\\n<Orlan>Oh yeah! Muscles! Muscles!")
  ShowMessageFace("",0,0,2,17)
  ShowMessage("Oran struck a pose!")
  ShowMessage("...but nobody was looking.")
  EndEventProcessing()
  0()
 EndIf()
 If(1,11,0,4,0)
  ShowMessageFace("mob_bukiya1_fc1",0,0,2,18)
  ShowMessage("\\n<Orlan>Ooooo! Raaaaaaa!")
  355("interrupt_skill(3292)")
  EndEventProcessing()
  0()
 EndIf()
 If(1,11,0,5,0)
  ShowMessageFace("mob_bukiya1_fc1",0,0,2,19)
  ShowMessage("\\n<Orlan>So annoying. Get out of here!")
  355("interrupt_skill(3312)")
  EndEventProcessing()
  0()
 EndIf()
 0()
EndIf()
If(1,100,0,563,0)
 If(1,11,0,1,0)
  ShowMessageFace("People4",7,0,2,20)
  ShowMessage("\\n<Pilate>You are disturbing the peace you scoundrel!")
  ShowMessageFace("",0,0,2,21)
  ShowMessage("Pilate is practicing his catchphrase!")
  EndEventProcessing()
  0()
 EndIf()
 If(1,11,0,2,0)
  ShowMessageFace("People4",7,0,2,22)
  ShowMessage("\\n<Pilate>Dried meat is a staple for adventurers...")
  ShowMessageFace("",0,0,2,23)
  ShowMessage("Pilate presents a gift!")
  250(bytes(0x04,0x08,0x6f,0x3a,0x0c,0x52,0x50,0x47,0x3a,0x3a,0x53,0x45,0x08,0x3a,0x0a,0x40,0x6e,0x61,0x6d,0x65,0x49,0x22,0x0a,0x49,0x74,0x65,0x6d,0x31,0x06,0x3a,0x06,0x45,0x54,0x3a,0x0b,0x40,0x70,0x69,0x74,0x63,0x68,0x69,0x69,0x3a,0x0c,0x40,0x76,0x6f,0x6c,0x75,0x6d,0x65,0x69,0x55))
  ChangeInventory_Item(432,0,0,1)
  ShowMessageFace("",0,0,2,24)
  ShowMessage("You obtain some [Dried Meat]!")
  EndEventProcessing()
  0()
 EndIf()
 If(1,11,0,3,0)
  ShowMessageFace("People4",7,0,2,25)
  ShowMessage("\\n<Pilate>I'll provide support! Haaaa!")
  355("interrupt_skill(3308)")
  EndEventProcessing()
  0()
 EndIf()
 If(1,11,0,4,0)
  ShowMessageFace("People4",7,0,2,26)
  ShowMessage("\\n<Pilate>He-help mee!")
  ShowMessageFace("",0,0,2,27)
  ShowMessage("Pilate ran away!")
  ShowMessage("...but he didn't know the way and came right back.")
  EndEventProcessing()
  0()
 EndIf()
 If(1,11,0,5,0)
  ShowMessageFace("People4",7,0,2,28)
  ShowMessage("\\n<Pilate>All right, here I go!")
  355("interrupt_skill(3294)")
  EndEventProcessing()
  0()
 EndIf()
 0()
EndIf()
If(1,100,0,564,0)
 If(1,11,0,1,0)
  ShowMessageFace("Actor1",4,0,2,29)
  ShowMessage("\\n<John>I have a lot of letters from the girls in town.\nI should write some replies...")
  ShowMessageFace("",0,0,2,30)
  ShowMessage("John wrote a letter...")
  EndEventProcessing()
  0()
 EndIf()
 If(1,11,0,2,0)
  ShowMessageFace("Actor1",4,0,2,31)
  ShowMessage("\\n<John>Strict training is common practice for a knight!")
  ShowMessageFace("",0,0,2,32)
  ShowMessage("John was training in secret.")
  EndEventProcessing()
  0()
 EndIf()
 If(1,11,0,3,0)
  ShowMessageFace("Actor1",4,0,2,33)
  ShowMessage("\\n<John>Ahh, it's so over grown...")
  250(bytes(0x04,0x08,0x6f,0x3a,0x0c,0x52,0x50,0x47,0x3a,0x3a,0x53,0x45,0x08,0x3a,0x0a,0x40,0x6e,0x61,0x6d,0x65,0x49,0x22,0x0a,0x49,0x74,0x65,0x6d,0x31,0x06,0x3a,0x06,0x45,0x54,0x3a,0x0b,0x40,0x70,0x69,0x74,0x63,0x68,0x69,0x69,0x3a,0x0c,0x40,0x76,0x6f,0x6c,0x75,0x6d,0x65,0x69,0x55))
  ChangeInventory_Item(445,0,0,1)
  ShowMessageFace("",0,0,2,34)
  ShowMessage("John is picking weeds.")
  ShowMessage("You obtain some [Weeds]!")
  EndEventProcessing()
  0()
 EndIf()
 If(1,11,0,4,0)
  ShowMessageFace("Actor1",4,0,2,35)
  ShowMessage("\\n<John>Fight! One punch!")
  355("interrupt_skill(3294)")
  EndEventProcessing()
  0()
 EndIf()
 If(1,11,0,5,0)
  ShowMessageFace("Actor1",4,0,2,36)
  ShowMessage("\\n<John>God, give us your blessing...")
  355("interrupt_skill(3302)")
  EndEventProcessing()
  0()
 EndIf()
 0()
EndIf()
If(1,100,0,565,0)
 If(1,11,0,1,0)
  ShowMessageFace("Actor3",6,0,2,37)
  ShowMessage("\\n<Samson>Hmm...")
  ShowMessageFace("",0,0,2,38)
  ShowMessage("Samson is laying on the ground, tanning!")
  EndEventProcessing()
  0()
 EndIf()
 If(1,11,0,2,0)
  ShowMessageFace("Actor3",6,0,2,39)
  ShowMessage("\\n<Samson>Nuuuuu!!")
  355("interrupt_skill(3294)")
  EndEventProcessing()
  0()
 EndIf()
 If(1,11,0,3,0)
  ShowMessageFace("Actor3",6,0,2,40)
  ShowMessage("\\n<Samson>Nuuuuu...! Doh!!")
  355("interrupt_skill(3293)")
  EndEventProcessing()
  0()
 EndIf()
 If(1,11,0,4,0)
  ShowMessageFace("Actor3",6,0,2,41)
  ShowMessage("\\n<Samson>Nuuuuu!!")
  355("interrupt_skill(3292)")
  EndEventProcessing()
  0()
 EndIf()
 If(1,11,0,5,0)
  ShowMessageFace("Actor3",6,0,2,42)
  ShowMessage("\\n<Samson>Nuuuuu!!")
  355("interrupt_skill(3291)")
  EndEventProcessing()
  0()
 EndIf()
 0()
EndIf()
If(1,100,0,566,0)
 ChangeVariable(11,11,0,2,1,8)
 If(1,11,0,1,0)
  ShowMessageFace("",0,0,2,43)
  ShowMessage("\\n<???>This captain... I'll straighten you out!")
  ShowMessageFace("sukatoro_fc1",5,0,2,44)
  ShowMessage("\\n<Scat Captain>Such is youth...")
  355("interrupt_skill(3313)")
  EndEventProcessing()
  0()
 EndIf()
 If(1,11,0,2,0)
  ShowMessageFace("",0,0,2,45)
  ShowMessage("\\n<???>Colonel, please move! You are in the way!")
  ShowMessageFace("sukatoro_fc1",5,0,2,46)
  ShowMessage("\\n<Scat Captain>Foolishness...")
  355("interrupt_skill(3313)")
  EndEventProcessing()
  0()
 EndIf()
 If(1,11,0,3,0)
  ShowMessageFace("",0,0,2,47)
  ShowMessage("\\n<???>****! You are scum!")
  ShowMessageFace("sukatoro_fc1",5,0,2,48)
  ShowMessage("\\n<Scat Captain>The monitor broke?! What?!")
  355("interrupt_skill(3313)")
  EndEventProcessing()
  0()
 EndIf()
 If(1,11,0,4,0)
  ShowMessageFace("",0,0,2,49)
  ShowMessage("\\n<???>Shrapnel?!")
  ShowMessageFace("sukatoro_fc1",5,0,2,50)
  ShowMessage("\\n<Scat Captain>Sunglasses was killed instantly...")
  355("interrupt_skill(3313)")
  EndEventProcessing()
  0()
 EndIf()
 If(1,11,0,5,0)
  ShowMessageFace("sukatoro_fc1",4,0,2,51)
  ShowMessage("\\n<Scat Captain>......")
  ShowMessageFace("",0,0,2,52)
  ShowMessage("Scat Captain removed his sunglasses to show his face!")
  ShowMessage("...but nothing happened.")
  ShowMessageFace("sukatoro_fc1",2,0,2,53)
  ShowMessage("\\n<Scat Captain>......")
  313(0,566,0,8)
  ShowMessageFace("",0,0,2,54)
  ShowMessage("Scat Captain lost his confidence.")
  EndEventProcessing()
  0()
 EndIf()
 If(1,11,0,6,0)
  ShowMessageFace("sukatoro_fc1",2,0,2,55)
  ShowMessage("\\n<Scat Captain>Even outside there is hesitation?!")
  313(0,566,0,8)
  ShowMessageFace("",0,0,2,56)
  ShowMessage("Scat Captain lost his confidence.")
  EndEventProcessing()
  0()
 EndIf()
 If(1,11,0,7,0)
  ShowMessageFace("sukatoro_fc1",2,0,2,57)
  ShowMessage("\\n<Scat Captain>The cactus flowers are blooming.")
  313(0,566,0,8)
  ShowMessageFace("",0,0,2,58)
  ShowMessage("Scat Captain lost his confidence.")
  EndEventProcessing()
  0()
 EndIf()
 If(1,11,0,8,0)
  ShowMessageFace("sukatoro_fc1",2,0,2,59)
  ShowMessage("\\n<Scat Captain>...my time?")
  313(0,566,0,8)
  ShowMessageFace("",0,0,2,60)
  ShowMessage("Scat Captain lost his confidence.")
  EndEventProcessing()
  0()
 EndIf()
 0()
EndIf()
If(1,100,0,567,0)
 If(1,11,0,1,0)
  ShowMessageFace("pants_fc1",0,0,2,61)
  ShowMessage("\\n<Panty Sensei>Haaa! Haaa!")
  355("interrupt_skill(3285)")
  EndEventProcessing()
  0()
 EndIf()
 If(1,11,0,2,0)
  ShowMessageFace("pants_fc1",0,0,2,62)
  ShowMessage("\\n<Panty Sensei>Please take this.")
  ShowMessageFace("",0,0,2,63)
  ShowMessage("Panty Sensei presents a gift!")
  250(bytes(0x04,0x08,0x6f,0x3a,0x0c,0x52,0x50,0x47,0x3a,0x3a,0x53,0x45,0x08,0x3a,0x0a,0x40,0x6e,0x61,0x6d,0x65,0x49,0x22,0x0a,0x49,0x74,0x65,0x6d,0x31,0x06,0x3a,0x06,0x45,0x54,0x3a,0x0b,0x40,0x70,0x69,0x74,0x63,0x68,0x69,0x69,0x3a,0x0c,0x40,0x76,0x6f,0x6c,0x75,0x6d,0x65,0x69,0x55))
  ChangeInventory_Item(342,0,0,1)
  ShowMessageFace("",0,0,2,64)
  ShowMessage("You obtain [Milk]!")
  EndEventProcessing()
  0()
 EndIf()
 If(1,11,0,3,0)
  ShowMessageFace("pants_fc1",3,0,2,65)
  ShowMessage("\\n<Panty Sensei>Everything is white, I've burned out...")
  313(0,567,0,1)
  ShowMessageFace("",0,0,2,66)
  ShowMessage("Panty Sensei died...")
  EndEventProcessing()
  0()
 EndIf()
 If(1,11,0,4,0)
  ShowMessageFace("pants_fc1",1,0,2,67)
  ShowMessage("\\n<Panty Sensei>......")
  313(0,567,0,25)
  ShowMessageFace("",0,0,2,68)
  ShowMessage("Panty Sensei was suddenly immersed in ecstasy!")
  EndEventProcessing()
  0()
 EndIf()
 If(1,11,0,5,0)
  ShowMessageFace("pants_fc1",0,0,2,69)
  ShowMessage("\\n<Panty Sensei>Thanks for the meal.")
  355("interrupt_skill(3148)")
  EndEventProcessing()
  0()
 EndIf()
 0()
EndIf()
If(1,100,0,569,0)
 If(1,11,0,1,0)
  ShowMessageFace("kakyouin_fc1",0,0,2,70)
  ShowMessage("【花京淫】")
  ShowMessage("我が名は花京淫典明！！")
  ShowMessageFace("",0,0,2,71)
  ShowMessage("花京淫は大胆に宣言した！")
  ShowMessage("しかし誰も聞いていない……")
  EndEventProcessing()
  0()
 EndIf()
 If(1,11,0,2,0)
  ShowMessageFace("kakyouin_fc1",0,0,2,72)
  ShowMessage("【花京淫】")
  ShowMessage("これがお茶を下さいのサインだー！")
  ShowMessageFace("",0,0,2,73)
  ShowMessage("花京淫は湯入れの蓋をカチャカチャ鳴らした！")
  ShowMessage("非常に耳障りで一同をイライラさせる……")
  EndEventProcessing()
  0()
 EndIf()
 If(1,11,0,3,0)
  ShowMessageFace("kakyouin_fc1",0,0,2,74)
  ShowMessage("【花京淫】")
  ShowMessage("かかってこい！")
  ShowMessageFace("",0,0,2,75)
  ShowMessage("花京淫は変なポーズを取った！")
  EndEventProcessing()
  0()
 EndIf()
 If(1,11,0,4,0)
  ShowMessageFace("kakyouin_fc1",0,0,2,76)
  ShowMessage("【花京淫】")
  ShowMessage("受け取って……下さい……")
  ShowMessageFace("",0,0,2,77)
  ShowMessage("花京淫からの差し入れだ！")
  250(bytes(0x04,0x08,0x6f,0x3a,0x0c,0x52,0x50,0x47,0x3a,0x3a,0x53,0x45,0x08,0x3a,0x0a,0x40,0x6e,0x61,0x6d,0x65,0x49,0x22,0x0a,0x49,0x74,0x65,0x6d,0x31,0x06,0x3a,0x06,0x45,0x54,0x3a,0x0b,0x40,0x70,0x69,0x74,0x63,0x68,0x69,0x69,0x3a,0x0c,0x40,0x76,0x6f,0x6c,0x75,0x6d,0x65,0x69,0x55))
  ChangeInventory_Item(348,0,0,1)
  ShowMessageFace("",0,0,2,78)
  ShowMessage("「メロンパン」を手に入れた！")
  EndEventProcessing()
  0()
 EndIf()
 If(1,11,0,5,0)
  ShowMessageFace("kakyouin_fc1",0,0,2,79)
  ShowMessage("【花京淫】")
  ShowMessage("顔が映るほどピカピカのコインだ。")
  355("interrupt_skill(3316)")
  EndEventProcessing()
  0()
 EndIf()
 0()
EndIf()
If(1,100,0,570,0)
 If(1,11,0,1,0)
  ShowMessageFace("mob_kensi_fc1",0,0,2,80)
  ShowMessage("【ジーナ】")
  ShowMessage("ずいぶん武器が痛んでるわね……")
  ShowMessageFace("",0,0,2,81)
  ShowMessage("ジーナは武器のお手入れをしている……")
  ShowMessage("しかし、何も起こらなかった！")
  EndEventProcessing()
  0()
 EndIf()
 If(1,11,0,2,0)
  ShowMessageFace("mob_kensi_fc1",0,0,2,82)
  ShowMessage("【ジーナ】")
  ShowMessage("えいっ！　やぁっ！")
  ShowMessageFace("",0,0,2,83)
  ShowMessage("ジーナは武器を素振りしている……")
  EndEventProcessing()
  0()
 EndIf()
 If(1,11,0,3,0)
  ShowMessageFace("mob_kensi_fc1",0,0,2,84)
  ShowMessage("【ジーナ】")
  ShowMessage("気合い一発！")
  355("interrupt_skill(3294)")
  EndEventProcessing()
  0()
 EndIf()
 If(1,11,0,4,0)
  ShowMessageFace("mob_kensi_fc1",0,0,2,85)
  ShowMessage("【ジーナ】")
  ShowMessage("これ、作ってきたから。")
  ShowMessageFace("",0,0,2,86)
  ShowMessage("ジーナからの差し入れだ！")
  250(bytes(0x04,0x08,0x6f,0x3a,0x0c,0x52,0x50,0x47,0x3a,0x3a,0x53,0x45,0x08,0x3a,0x0a,0x40,0x6e,0x61,0x6d,0x65,0x49,0x22,0x0a,0x49,0x74,0x65,0x6d,0x31,0x06,0x3a,0x06,0x45,0x54,0x3a,0x0b,0x40,0x70,0x69,0x74,0x63,0x68,0x69,0x69,0x3a,0x0c,0x40,0x76,0x6f,0x6c,0x75,0x6d,0x65,0x69,0x55))
  ChangeInventory_Item(357,0,0,1)
  ShowMessageFace("",0,0,2,87)
  ShowMessage("「サンドウィッチ」を手に入れた！")
  EndEventProcessing()
  0()
 EndIf()
 If(1,11,0,5,0)
  ShowMessageFace("mob_kensi_fc1",0,0,2,88)
  ShowMessage("【ジーナ】")
  ShowMessage("えいっ！　やぁっ！")
  355("interrupt_skill(3291)")
  EndEventProcessing()
  0()
 EndIf()
 0()
EndIf()
0()
