// EVENT 0072
Name "Skill: Play 321-330"

ChangeVariable(11,11,0,2,1,5)
If(1,100,0,321,0)
 If(1,11,0,1,0)
  ShowMessageFace("dryad_fc1",4,0,2,1)
  ShowMessage("【ドリエ】")
  ShowMessage("花の香りでも味わいなさい……！")
  355("interrupt_skill(2922)")
  EndEventProcessing()
  0()
 EndIf()
 If(1,11,0,2,0)
  ShowMessageFace("dryad_fc1",6,0,2,2)
  ShowMessage("【ドリエ】")
  ShowMessage("こんな戦い、面倒よ……！")
  ShowMessageFace("",0,0,2,3)
  ShowMessage("ドリエはどこかに隠れてしまった！")
  ShowMessage("誰も探そうとしない……")
  EndEventProcessing()
  0()
 EndIf()
 If(1,11,0,3,0)
  ShowMessageFace("dryad_fc1",6,0,2,4)
  ShowMessage("【ドリエ】")
  ShowMessage("私の中の、善の心が話し掛けてくるわ……！")
  313(0,321,0,12)
  ShowMessageFace("",0,0,2,5)
  ShowMessage("ドリエは金縛りにあった！")
  EndEventProcessing()
  0()
 EndIf()
 If(1,11,0,4,0)
  ShowMessageFace("dryad_fc1",6,0,2,6)
  ShowMessage("【ドリエ】")
  ShowMessage("やってられないわ！")
  ShowMessageFace("",0,0,2,7)
  ShowMessage("ドリエは逃げ出した！")
  ShowMessage("しかし道が分からず、すぐ戻ってきた……")
  EndEventProcessing()
  0()
 EndIf()
 If(1,11,0,5,0)
  ShowMessageFace("dryad_fc1",4,0,2,8)
  ShowMessage("【ドリエ】")
  ShowMessage("トゲトゲ発射！")
  355("interrupt_skill(2919)")
  EndEventProcessing()
  0()
 EndIf()
 0()
EndIf()
If(1,100,0,322,0)
 If(1,11,0,1,0)
  ShowMessageFace("queenalraune_fc1",0,0,2,9)
  ShowMessage("【アルルーナ】")
  ShowMessage("うふふふっ……")
  ShowMessageFace("",0,0,2,10)
  ShowMessage("アルルーナはくすくす笑っている……")
  EndEventProcessing()
  0()
 EndIf()
 If(1,11,0,2,0)
  ShowMessageFace("queenalraune_fc1",0,0,2,11)
  ShowMessage("【アルルーナ】")
  ShowMessage("がんばって下さい……")
  355("interrupt_skill(3300)")
  EndEventProcessing()
  0()
 EndIf()
 If(1,11,0,3,0)
  ShowMessageFace("queenalraune_fc1",1,0,2,12)
  ShowMessage("【アルルーナ】")
  ShowMessage("うふふっ……")
  355("interrupt_skill(3296)")
  EndEventProcessing()
  0()
 EndIf()
 If(1,11,0,4,0)
  ShowMessageFace("queenalraune_fc1",0,0,2,13)
  ShowMessage("【アルルーナ】")
  ShowMessage("これ、差し入れです……")
  ShowMessageFace("",0,0,2,14)
  ShowMessage("アルルーナからの差し入れだ！")
  250(bytes(0x04,0x08,0x6f,0x3a,0x0c,0x52,0x50,0x47,0x3a,0x3a,0x53,0x45,0x08,0x3a,0x0a,0x40,0x6e,0x61,0x6d,0x65,0x49,0x22,0x0a,0x49,0x74,0x65,0x6d,0x31,0x06,0x3a,0x06,0x45,0x54,0x3a,0x0b,0x40,0x70,0x69,0x74,0x63,0x68,0x69,0x69,0x3a,0x0c,0x40,0x76,0x6f,0x6c,0x75,0x6d,0x65,0x69,0x55))
  ChangeInventory_Item(381,0,0,1)
  ShowMessageFace("",0,0,2,15)
  ShowMessage("「野菜サラダ」を手に入れた！")
  EndEventProcessing()
  0()
 EndIf()
 If(1,11,0,5,0)
  ShowMessageFace("queenalraune_fc1",0,0,2,16)
  ShowMessage("【アルルーナ】")
  ShowMessage("さあ、眠りましょう……")
  355("interrupt_skill(2924)")
  EndEventProcessing()
  0()
 EndIf()
 0()
EndIf()
If(1,100,0,323,0)
 If(1,11,0,1,0)
  ShowMessageFace("queenhapy_fc1",0,0,2,17)
  ShowMessage("【ルクレツィア】")
  ShowMessage("たまには遊びましょうか……")
  ShowMessageFace("",0,0,2,18)
  ShowMessage("ルクレツィアは陽気に歌って踊っている……")
  EndEventProcessing()
  0()
 EndIf()
 If(1,11,0,2,0)
  ShowMessageFace("queenhapy_fc1",0,0,2,19)
  ShowMessage("【ルクレツィア】")
  ShowMessage("ばさばさ……")
  355("interrupt_skill(2831)")
  EndEventProcessing()
  0()
 EndIf()
 If(1,11,0,3,0)
  ShowMessageFace("queenhapy_fc1",0,0,2,20)
  ShowMessage("【ルクレツィア】")
  ShowMessage("こういう特技もあるのですよ……")
  ShowMessageFace("",0,0,2,21)
  ShowMessage("ルクレツィアはジャグリングしている……")
  ShowMessage("しかし、誰も見ていない！")
  EndEventProcessing()
  0()
 EndIf()
 If(1,11,0,4,0)
  ShowMessageFace("queenhapy_fc1",0,0,2,22)
  ShowMessage("【ルクレツィア】")
  ShowMessage("これ、食べて下さい……")
  ShowMessageFace("",0,0,2,23)
  ShowMessage("ルクレツィアからの差し入れだ！")
  250(bytes(0x04,0x08,0x6f,0x3a,0x0c,0x52,0x50,0x47,0x3a,0x3a,0x53,0x45,0x08,0x3a,0x0a,0x40,0x6e,0x61,0x6d,0x65,0x49,0x22,0x0a,0x49,0x74,0x65,0x6d,0x31,0x06,0x3a,0x06,0x45,0x54,0x3a,0x0b,0x40,0x70,0x69,0x74,0x63,0x68,0x69,0x69,0x3a,0x0c,0x40,0x76,0x6f,0x6c,0x75,0x6d,0x65,0x69,0x55))
  ChangeInventory_Item(361,0,0,1)
  ShowMessageFace("",0,0,2,24)
  ShowMessage("「おにぎり」を手に入れた！")
  EndEventProcessing()
  0()
 EndIf()
 If(1,11,0,5,0)
  ShowMessageFace("queenhapy_fc1",1,0,2,25)
  ShowMessage("【ルクレツィア】")
  ShowMessage("ふふっ……")
  355("interrupt_skill(3296)")
  EndEventProcessing()
  0()
 EndIf()
 0()
EndIf()
If(1,100,0,324,0)
 If(1,11,0,1,0)
  ShowMessageFace("knight_mermaid_fc1",0,0,2,26)
  ShowMessage("【メリル】")
  ShowMessage("はっ！　やぁっ！")
  355("interrupt_skill(3287)")
  EndEventProcessing()
  0()
 EndIf()
 If(1,11,0,2,0)
  ShowMessageFace("knight_mermaid_fc1",0,0,2,27)
  ShowMessage("【メリル】")
  ShowMessage("はっ！　やぁっ！")
  355("interrupt_skill(3291)")
  EndEventProcessing()
  0()
 EndIf()
 If(1,11,0,3,0)
  ShowMessageFace("knight_mermaid_fc1",0,0,2,28)
  ShowMessage("【メリル】")
  ShowMessage("少しでも強くならないと……！")
  ShowMessageFace("",0,0,2,29)
  ShowMessage("メリルはこっそり修行している……")
  EndEventProcessing()
  0()
 EndIf()
 If(1,11,0,4,0)
  ShowMessageFace("knight_mermaid_fc1",0,0,2,30)
  ShowMessage("【メリル】")
  ShowMessage("むんっ……！")
  ShowMessageFace("",0,0,2,31)
  ShowMessage("メリルは流し目を送った……")
  ShowMessage("しかし、睨んでいるようにしか見えない！")
  EndEventProcessing()
  0()
 EndIf()
 If(1,11,0,5,0)
  ShowMessageFace("knight_mermaid_fc1",0,0,2,32)
  ShowMessage("【メリル】")
  ShowMessage("やぁぁぁっ！！")
  355("interrupt_skill(3292)")
  EndEventProcessing()
  0()
 EndIf()
 0()
EndIf()
If(1,100,0,325,0)
 If(1,11,0,1,0)
  ShowMessageFace("g_marmaid_fc1",0,0,2,33)
  ShowMessage("【ジェシー】")
  ShowMessage("やぁぁっ！")
  355("interrupt_skill(3294)")
  EndEventProcessing()
  0()
 EndIf()
 If(1,11,0,2,0)
  ShowMessageFace("g_marmaid_fc1",3,0,2,34)
  ShowMessage("【ジェシー】")
  ShowMessage("最近の人魚戦士は、少し自覚に欠けるわね……")
  ShowMessageFace("",0,0,2,35)
  ShowMessage("ジェシーは説教を始めた！")
  ShowMessage("しかし誰も聞いていない……")
  EndEventProcessing()
  0()
 EndIf()
 If(1,11,0,3,0)
  ShowMessageFace("g_marmaid_fc1",0,0,2,36)
  ShowMessage("【ジェシー】")
  ShowMessage("やぁぁぁっ！！")
  355("interrupt_skill(3292)")
  EndEventProcessing()
  0()
 EndIf()
 If(1,11,0,4,0)
  ShowMessageFace("g_marmaid_fc1",0,0,2,37)
  ShowMessage("【ジェシー】")
  ShowMessage("これ、差し入れよ。")
  ShowMessageFace("",0,0,2,38)
  ShowMessage("ジェシーからの差し入れだ！")
  250(bytes(0x04,0x08,0x6f,0x3a,0x0c,0x52,0x50,0x47,0x3a,0x3a,0x53,0x45,0x08,0x3a,0x0a,0x40,0x6e,0x61,0x6d,0x65,0x49,0x22,0x0a,0x49,0x74,0x65,0x6d,0x31,0x06,0x3a,0x06,0x45,0x54,0x3a,0x0b,0x40,0x70,0x69,0x74,0x63,0x68,0x69,0x69,0x3a,0x0c,0x40,0x76,0x6f,0x6c,0x75,0x6d,0x65,0x69,0x55))
  ChangeInventory_Item(323,0,0,1)
  ShowMessageFace("",0,0,2,39)
  ShowMessage("「鯛」を手に入れた！")
  EndEventProcessing()
  0()
 EndIf()
 If(1,11,0,5,0)
  ShowMessageFace("g_marmaid_fc1",0,0,2,40)
  ShowMessage("【ジェシー】")
  ShowMessage("ふふっ……")
  355("interrupt_skill(3296)")
  EndEventProcessing()
  0()
 EndIf()
 0()
EndIf()
If(1,100,0,326,0)
 If(1,11,0,1,0)
  ShowMessageFace("loreley_fc1",0,0,2,41)
  ShowMessage("【ハイネ】")
  ShowMessage("……………………")
  ShowMessageFace("",0,0,2,42)
  ShowMessage("ハイネは流し目を送った……")
  ShowMessage("しかし、睨んでいるようにしか見えない！")
  EndEventProcessing()
  0()
 EndIf()
 If(1,11,0,2,0)
  ShowMessageFace("loreley_fc1",0,0,2,43)
  ShowMessage("【ハイネ】")
  ShowMessage("がんばって……")
  ShowMessageFace("",0,0,2,44)
  ShowMessage("ハイネはみんなを応援した！")
  ShowMessage("しかし誰も聞いていない……")
  EndEventProcessing()
  0()
 EndIf()
 If(1,11,0,3,0)
  ShowMessageFace("loreley_fc1",0,0,2,45)
  ShowMessage("【ハイネ】")
  ShowMessage("……………………")
  313(0,326,0,11)
  ShowMessageFace("",0,0,2,46)
  ShowMessage("ハイネは居眠りしている……")
  EndEventProcessing()
  0()
 EndIf()
 If(1,11,0,4,0)
  ShowMessageFace("loreley_fc1",0,0,2,47)
  ShowMessage("【ハイネ】")
  ShowMessage("これ、あげるわ……")
  ShowMessageFace("",0,0,2,48)
  ShowMessage("ハイネからの差し入れだ！")
  250(bytes(0x04,0x08,0x6f,0x3a,0x0c,0x52,0x50,0x47,0x3a,0x3a,0x53,0x45,0x08,0x3a,0x0a,0x40,0x6e,0x61,0x6d,0x65,0x49,0x22,0x0a,0x49,0x74,0x65,0x6d,0x31,0x06,0x3a,0x06,0x45,0x54,0x3a,0x0b,0x40,0x70,0x69,0x74,0x63,0x68,0x69,0x69,0x3a,0x0c,0x40,0x76,0x6f,0x6c,0x75,0x6d,0x65,0x69,0x55))
  ChangeInventory_Item(326,0,0,1)
  ShowMessageFace("",0,0,2,49)
  ShowMessage("「カニ」を手に入れた！")
  EndEventProcessing()
  0()
 EndIf()
 If(1,11,0,5,0)
  ShowMessageFace("loreley_fc1",0,0,2,50)
  ShowMessage("【ハイネ】")
  ShowMessage("母なる海の慈愛を……")
  355("interrupt_skill(3302)")
  EndEventProcessing()
  0()
 EndIf()
 0()
EndIf()
If(1,100,0,327,0)
 If(1,11,0,1,0)
  ShowMessageFace("ningyohime_fc1",4,0,2,51)
  ShowMessage("【エル】")
  ShowMessage("海に祈るよ……♪")
  355("interrupt_skill(3302)")
  EndEventProcessing()
  0()
 EndIf()
 If(1,11,0,2,0)
  ShowMessageFace("ningyohime_fc1",4,0,2,52)
  ShowMessage("【エル】")
  ShowMessage("わーい♪　わーい♪")
  ShowMessageFace("",0,0,2,53)
  ShowMessage("エルは陽気に歌って踊っている……")
  EndEventProcessing()
  0()
 EndIf()
 If(1,11,0,3,0)
  ShowMessageFace("ningyohime_fc1",3,0,2,54)
  ShowMessage("【エル】")
  ShowMessage("おやすみ～♪")
  313(0,327,0,11)
  ShowMessageFace("",0,0,2,55)
  ShowMessage("エルは居眠りしている……")
  EndEventProcessing()
  0()
 EndIf()
 If(1,11,0,4,0)
  ShowMessageFace("ningyohime_fc1",5,0,2,56)
  ShowMessage("【エル】")
  ShowMessage("これ、あげる♪")
  ShowMessageFace("",0,0,2,57)
  ShowMessage("エルからの差し入れだ！")
  250(bytes(0x04,0x08,0x6f,0x3a,0x0c,0x52,0x50,0x47,0x3a,0x3a,0x53,0x45,0x08,0x3a,0x0a,0x40,0x6e,0x61,0x6d,0x65,0x49,0x22,0x0a,0x49,0x74,0x65,0x6d,0x31,0x06,0x3a,0x06,0x45,0x54,0x3a,0x0b,0x40,0x70,0x69,0x74,0x63,0x68,0x69,0x69,0x3a,0x0c,0x40,0x76,0x6f,0x6c,0x75,0x6d,0x65,0x69,0x55))
  ChangeInventory_Item(435,0,0,1)
  ShowMessageFace("",0,0,2,58)
  ShowMessage("「アメ玉」を手に入れた！")
  EndEventProcessing()
  0()
 EndIf()
 If(1,11,0,5,0)
  ShowMessageFace("ningyohime_fc1",0,0,2,59)
  ShowMessage("【エル】")
  ShowMessage("えへへへ……")
  355("interrupt_skill(3295)")
  EndEventProcessing()
  0()
 EndIf()
 0()
EndIf()
If(1,100,0,328,0)
 If(1,11,0,1,0)
  ShowMessageFace("queenmermaid_fc1",0,0,2,60)
  ShowMessage("【ローラ】")
  ShowMessage("海の怒りを……")
  355("interrupt_skill(2603)")
  EndEventProcessing()
  0()
 EndIf()
 If(1,11,0,2,0)
  ShowMessageFace("queenmermaid_fc1",0,0,2,61)
  ShowMessage("【ローラ】")
  ShowMessage("海を感じるわ……")
  ShowMessageFace("",0,0,2,62)
  ShowMessage("ローラはぼーっとしている……")
  EndEventProcessing()
  0()
 EndIf()
 If(1,11,0,3,0)
  ShowMessageFace("queenmermaid_fc1",0,0,2,63)
  ShowMessage("【ローラ】")
  ShowMessage("……………………")
  355("interrupt_skill(3296)")
  EndEventProcessing()
  0()
 EndIf()
 If(1,11,0,4,0)
  ShowMessageFace("queenmermaid_fc1",0,0,2,64)
  ShowMessage("【ローラ】")
  ShowMessage("あげるわ……")
  ShowMessageFace("",0,0,2,65)
  ShowMessage("ローラからの差し入れだ！")
  250(bytes(0x04,0x08,0x6f,0x3a,0x0c,0x52,0x50,0x47,0x3a,0x3a,0x53,0x45,0x08,0x3a,0x0a,0x40,0x6e,0x61,0x6d,0x65,0x49,0x22,0x0a,0x49,0x74,0x65,0x6d,0x31,0x06,0x3a,0x06,0x45,0x54,0x3a,0x0b,0x40,0x70,0x69,0x74,0x63,0x68,0x69,0x69,0x3a,0x0c,0x40,0x76,0x6f,0x6c,0x75,0x6d,0x65,0x69,0x55))
  ChangeInventory_Item(384,0,0,1)
  ShowMessageFace("",0,0,2,66)
  ShowMessage("「さしみ」を手に入れた！")
  EndEventProcessing()
  0()
 EndIf()
 If(1,11,0,5,0)
  ShowMessageFace("queenmermaid_fc1",0,0,2,67)
  ShowMessage("【ローラ】")
  ShowMessage("母なる海よ、どうか加護を……")
  355("interrupt_skill(3302)")
  EndEventProcessing()
  0()
 EndIf()
 0()
EndIf()
If(1,100,0,329,0)
 If(1,11,0,1,0)
  ShowMessageFace("kraken_fc1",0,0,2,68)
  ShowMessage("【クラーケン】")
  ShowMessage("私が全ての海を支配します！")
  ShowMessageFace("",0,0,2,69)
  ShowMessage("クラーケンは大胆に宣言した！")
  ShowMessage("しかし誰も聞いていない……")
  EndEventProcessing()
  0()
 EndIf()
 If(1,11,0,2,0)
  ShowMessageFace("kraken_fc1",0,0,2,70)
  ShowMessage("【クラーケン】")
  ShowMessage("お腹が減りましたね……失礼。")
  ShowMessageFace("",0,0,2,71)
  ShowMessage("クラーケンは食料を盗み食いしている……")
  EndEventProcessing()
  0()
 EndIf()
 If(1,11,0,3,0)
  ShowMessageFace("kraken_fc1",1,0,2,72)
  ShowMessage("【クラーケン】")
  ShowMessage("ハッピーですよ！")
  ShowMessageFace("",0,0,2,73)
  ShowMessage("クラーケンはクラッカーを鳴らした！")
  ShowMessage("しかし誰も相手にしない……")
  EndEventProcessing()
  0()
 EndIf()
 If(1,11,0,4,0)
  ShowMessageFace("kraken_fc1",0,0,2,74)
  ShowMessage("【クラーケン】")
  ShowMessage("私の友人を紹介しましょう。")
  ShowMessage("仲良くしてあげて下さいね。")
  ShowMessageFace("",0,0,2,75)
  ShowMessage("クラーケンからの差し入れだ！")
  250(bytes(0x04,0x08,0x6f,0x3a,0x0c,0x52,0x50,0x47,0x3a,0x3a,0x53,0x45,0x08,0x3a,0x0a,0x40,0x6e,0x61,0x6d,0x65,0x49,0x22,0x0a,0x49,0x74,0x65,0x6d,0x31,0x06,0x3a,0x06,0x45,0x54,0x3a,0x0b,0x40,0x70,0x69,0x74,0x63,0x68,0x69,0x69,0x3a,0x0c,0x40,0x76,0x6f,0x6c,0x75,0x6d,0x65,0x69,0x55))
  ChangeInventory_Item(325,0,0,1)
  ShowMessageFace("",0,0,2,76)
  ShowMessage("「イカ」を手に入れた！")
  EndEventProcessing()
  0()
 EndIf()
 If(1,11,0,5,0)
  ShowMessageFace("kraken_fc1",0,0,2,77)
  ShowMessage("【クラーケン】")
  ShowMessage("はぁぁぁっ！")
  355("interrupt_skill(2776)")
  EndEventProcessing()
  0()
 EndIf()
 0()
EndIf()
If(1,100,0,330,0)
 If(1,11,0,1,0)
  ShowMessageFace("arachnes_fc1",0,0,2,78)
  ShowMessage("【アラクネーズ】")
  ShowMessage("落とし穴、ざくざくっ……！")
  355("interrupt_skill(3297)")
  EndEventProcessing()
  0()
 EndIf()
 If(1,11,0,2,0)
  ShowMessageFace("arachnes_fc1",0,0,2,79)
  ShowMessage("【アラクネーズ】")
  ShowMessage("落とし穴、ざくざくっ……！")
  355("interrupt_skill(3298)")
  EndEventProcessing()
  0()
 EndIf()
 If(1,11,0,3,0)
  ShowMessageFace("arachnes_fc1",1,0,2,80)
  ShowMessage("【アラクネーズ】")
  ShowMessage("アラクネダンシング～♪")
  ShowMessageFace("",0,0,2,81)
  ShowMessage("アラクネーズは陽気に歌って踊っている……")
  EndEventProcessing()
  0()
 EndIf()
 If(1,11,0,4,0)
  ShowMessageFace("arachnes_fc1",0,0,2,82)
  ShowMessage("【アラクネーズ】")
  ShowMessage("これ、あげるね！")
  ShowMessageFace("",0,0,2,83)
  ShowMessage("アラクネーズからの差し入れだ！")
  250(bytes(0x04,0x08,0x6f,0x3a,0x0c,0x52,0x50,0x47,0x3a,0x3a,0x53,0x45,0x08,0x3a,0x0a,0x40,0x6e,0x61,0x6d,0x65,0x49,0x22,0x0a,0x49,0x74,0x65,0x6d,0x31,0x06,0x3a,0x06,0x45,0x54,0x3a,0x0b,0x40,0x70,0x69,0x74,0x63,0x68,0x69,0x69,0x3a,0x0c,0x40,0x76,0x6f,0x6c,0x75,0x6d,0x65,0x69,0x55))
  ChangeInventory_Item(347,0,0,1)
  ShowMessageFace("",0,0,2,84)
  ShowMessage("「カレーパン」を手に入れた！")
  EndEventProcessing()
  0()
 EndIf()
 If(1,11,0,5,0)
  ShowMessageFace("arachnes_fc1",0,0,2,85)
  ShowMessage("【アラクネーズ】")
  ShowMessage("蜘蛛の巣だよ～！")
  355("interrupt_skill(2868)")
  EndEventProcessing()
  0()
 EndIf()
 0()
EndIf()
0()
